# Blender v2.91.2 OBJ File: ''
# www.blender.org
mtllib toilet_chair_1.mtl
o toilet_chair_1_part_2.003_85fc032eaee04650914faeb8ddd6a71e.004_part_2.003_.024
v 18.061165 -13.179935 0.728343
v 18.061178 -13.202082 0.751864
v 18.052839 -13.150262 0.751859
v 18.084684 -13.220800 0.769140
v 18.080578 -13.197304 0.798885
v 18.088814 -13.197291 0.751858
v 18.119572 -13.273659 0.798910
v 18.155025 -13.274982 0.798723
v 18.108194 -13.244312 0.780210
v 18.225756 -12.774066 0.387451
v 18.202232 -12.774109 0.412461
v 18.225756 -12.750550 0.422682
v 18.507904 -12.821085 -0.000799
v 18.507906 -13.138506 0.422686
v 18.178780 -13.274968 0.826445
v 18.296335 -13.274167 0.822369
v 18.343361 -13.273835 0.818129
v 18.319572 -13.272812 0.563603
v 18.409040 -13.273095 0.751835
v 18.458611 -13.272228 0.634256
v 18.460915 -13.272535 0.704814
v 18.366867 -13.273148 0.701974
v 18.366865 -13.273268 0.728320
v 18.178780 -13.274922 0.816431
v 18.202291 -13.274751 0.813174
v 18.178778 -13.274682 0.763853
v 18.225780 -13.274426 0.775352
v 18.239578 -13.274437 0.798854
v 18.155045 -13.274880 0.775239
v 18.225800 -13.274616 0.817951
v 18.159641 -13.274754 0.751844
v 18.155098 -13.274770 0.751731
v 18.225569 -13.274076 0.704658
v 18.123116 -13.273689 0.775399
v 18.249226 -13.272605 0.610776
v 18.296417 -13.271084 0.563784
v 18.131826 -13.273552 0.768941
v 18.243408 -13.271924 0.657835
v 18.259237 -13.271822 0.610805
v 18.005798 -13.150262 0.681323
v 18.037659 -13.126757 0.755361
v 18.014141 -13.079718 0.688966
v 18.014145 -13.173772 0.704835
v 18.000351 -13.103237 0.681321
v 18.006124 -13.126750 0.657809
v 17.995230 -13.079725 0.634298
v 18.061171 -13.091453 0.375666
v 18.061174 -13.103660 0.388969
v 18.051220 -13.079728 0.399172
v 18.061172 -13.130513 0.446192
v 18.061176 -13.113035 0.399186
v 18.003077 -13.079726 0.446204
v 18.007090 -13.056213 0.399180
v 18.014160 -12.960657 0.493234
v 18.007639 -12.962162 0.446198
v 18.011108 -13.009187 0.563761
v 18.014137 -13.028888 0.610778
v 18.014147 -13.067728 0.681323
v 18.014143 -12.945989 0.446202
v 18.037655 -12.907989 0.446204
v 18.045465 -12.915138 0.422686
v 18.030794 -12.938650 0.422686
v 18.014145 -12.962164 0.430691
v 18.061172 -13.150264 0.770779
v 18.061171 -13.150259 0.623567
v 18.037659 -13.079723 0.630118
v 18.084684 -13.079724 0.626949
v 18.014145 -13.126750 0.624304
v 18.084694 -13.197255 0.806622
v 18.061169 -13.073907 0.634297
v 18.249271 -13.162015 0.422687
v 18.249269 -13.156367 0.446184
v 18.084681 -13.129384 0.446245
v 18.056103 -12.844602 0.446199
v 18.061167 -12.868111 0.422684
v 18.047104 -12.891626 0.422687
v 18.061171 -12.839654 0.446200
v 18.131723 -12.797527 0.412954
v 18.131681 -12.821193 0.388297
v 18.155218 -12.743517 0.446198
v 18.178730 -12.744869 0.422682
v 18.084684 -13.220799 0.780074
v 18.108196 -13.150261 0.607349
v 18.155266 -13.118313 0.634351
v 18.131704 -13.150269 0.601439
v 18.178736 -13.150249 0.602785
v 18.178732 -13.117021 0.634299
v 18.202250 -13.126761 0.609446
v 18.101234 -12.797560 0.469751
v 18.155218 -12.746001 0.469710
v 18.110317 -13.244302 0.775378
v 18.131693 -13.220823 0.751847
v 18.108202 -13.244301 0.775379
v 18.225758 -13.150256 0.603081
v 18.225756 -13.173775 0.576768
v 18.178732 -13.173778 0.576737
v 18.155216 -13.173775 0.600128
v 18.225756 -12.727031 0.419375
v 18.249269 -12.727033 0.413467
v 18.249269 -12.750552 0.413726
v 18.178732 -13.171919 0.751858
v 18.272774 -13.184340 0.751844
v 18.296286 -13.183432 0.751876
v 18.272793 -13.126795 0.634272
v 18.390343 -13.173781 0.605965
v 18.437372 -13.130079 0.634260
v 18.366825 -13.197292 0.599389
v 18.225758 -13.197282 0.591635
v 18.437372 -13.150258 0.624678
v 18.437363 -13.197302 0.599040
v 18.453491 -13.173783 0.610820
v 18.272783 -13.244312 0.768059
v 18.296293 -13.244311 0.798884
v 18.272783 -13.244325 0.822381
v 18.413855 -13.160487 0.422689
v 18.446310 -13.150262 0.446198
v 18.437365 -13.159240 0.446253
v 18.413855 -13.150259 0.412459
v 18.413853 -13.160028 0.446238
v 18.460882 -13.173775 0.603400
v 18.441805 -13.126756 0.634291
v 18.460882 -13.092253 0.610779
v 18.460884 -13.126750 0.580240
v 18.460882 -13.097876 0.587273
v 18.462811 -13.103237 0.587272
v 18.468014 -13.126751 0.610785
v 18.507906 -13.150261 0.623728
v 18.507931 -13.085611 0.657843
v 18.385656 -13.273359 0.775438
v 18.130890 -13.104985 0.631794
v 18.070421 -13.268080 2.408830
v 18.073418 -13.264995 2.410603
v 18.283430 -13.268148 2.407890
v 18.284927 -13.266606 2.408777
v 18.389935 -13.268182 2.407420
v 18.108187 -13.079780 0.368755
v 18.084682 -13.079719 0.359344
v 18.108200 -13.056214 0.357875
v 18.296293 -13.157789 0.422686
v 18.279881 -13.150246 0.399188
v 18.343349 -12.985654 0.401141
v 18.249256 -12.938676 0.377690
v 18.343327 -12.844591 0.411515
v 18.296293 -12.727034 0.438668
v 18.413851 -13.056217 0.375647
v 18.366831 -13.032701 0.387221
v 18.390345 -13.032700 0.363905
v 18.507893 -13.115276 0.399076
v 18.484392 -13.115663 0.422686
v 18.484394 -13.103239 0.446198
v 18.108204 -12.915106 0.379606
v 18.075384 -12.915139 0.399172
v 18.061172 -12.928270 0.399176
v 18.061169 -13.059287 0.375660
v 18.061169 -13.032699 0.399167
v 18.005478 -13.079727 0.375666
v 18.053610 -13.009183 0.422684
v 18.084684 -13.032700 0.387653
v 18.061174 -13.079706 0.358905
v 18.061172 -13.009186 0.415128
v 18.047663 -13.103234 0.305122
v 18.052679 -13.079725 0.352149
v 18.046267 -13.103237 0.328636
v 18.037657 -13.089469 0.352149
v 18.108171 -12.938732 0.359655
v 18.108212 -12.962105 0.370972
v 18.084684 -12.962164 0.375664
v 18.155212 -13.056273 0.334908
v 18.319803 -13.126753 0.371653
v 18.343315 -13.150292 0.399148
v 18.084684 -12.985676 0.389165
v 18.061171 -12.985676 0.416937
v 18.155216 -12.985671 0.361887
v 18.178747 -13.032700 0.339041
v 18.178747 -12.985696 0.356454
v 18.202257 -12.797532 0.416929
v 18.390362 -13.103225 0.381132
v 18.390352 -13.126754 0.392726
v 18.343346 -12.993463 0.399136
v 18.390318 -13.079745 0.377511
v 18.460878 -12.891625 0.411473
v 18.460878 -12.962167 0.399260
v 18.413855 -12.821088 0.413500
v 18.390345 -13.002000 0.399225
v 18.343321 -12.774064 0.412626
v 18.249269 -12.774068 0.404543
v 18.319805 -12.750554 0.411803
v 18.319807 -12.727035 0.438218
v 18.272783 -13.267823 0.589588
v 18.272783 -13.154404 0.446205
v 18.437365 -13.116842 0.399151
v 18.413851 -13.103370 0.381762
v 18.390345 -13.009188 0.396297
v 18.424641 -12.774066 0.446199
v 18.437370 -12.787766 0.446199
v 18.437368 -13.248539 0.681322
v 18.460882 -13.259989 0.657810
v 18.444956 -13.244311 0.657810
v 18.437368 -13.056214 0.369666
v 18.484385 -13.009197 0.352114
v 18.463364 -12.962162 0.399173
v 18.437361 -13.244325 0.629029
v 18.484398 -12.915135 0.436092
v 18.484392 -12.951381 0.422686
v 18.507906 -13.009189 0.360750
v 18.037657 -13.103236 0.295325
v 17.998888 -13.103237 0.305124
v 18.037657 -13.093781 0.305124
v 18.037655 -13.056217 0.465710
v 18.007704 -13.056213 0.422685
v 18.037657 -13.032695 0.493211
v 18.014147 -12.985676 0.505436
v 18.047750 -13.009188 0.493223
v 18.037657 -12.980049 0.469711
v 18.037657 -12.998073 0.493223
v 18.031725 -13.009189 0.469711
v 18.037663 -12.947100 0.471151
v 18.084717 -13.009137 0.481099
v 18.061153 -13.056250 0.475125
v 18.037657 -12.908962 0.399173
v 18.084686 -12.915139 0.389875
v 18.084684 -12.927053 0.375661
v 18.070589 -12.915138 0.375661
v 18.084660 -13.074000 0.657784
v 18.166651 -13.244316 0.728347
v 18.169891 -13.244313 0.775372
v 18.225756 -13.232555 0.587273
v 18.214003 -13.220800 0.587282
v 18.265882 -13.220803 0.587294
v 18.202242 -13.222830 0.775371
v 18.225752 -13.220772 0.777087
v 18.209335 -13.244312 0.798882
v 18.390347 -13.197286 0.622806
v 18.413857 -13.220802 0.744195
v 18.417742 -13.197284 0.751867
v 18.432194 -13.220793 0.751869
v 18.460838 -13.079824 0.477349
v 18.456442 -13.056211 0.516738
v 18.437334 -13.032793 0.479330
v 18.484400 -13.066506 0.610778
v 18.507908 -13.103239 0.460106
v 18.507896 -13.067329 0.610793
v 18.507906 -13.032708 0.555788
v 18.507917 -12.985757 0.476384
v 18.061165 -13.157052 0.681317
v 18.037651 -13.173790 0.704833
v 18.061157 -13.173814 0.703185
v 18.014149 -13.079723 0.604502
v 18.014147 -13.136738 0.634297
v 18.061171 -13.155955 0.657811
v 18.006413 -13.103235 0.328635
v 18.000608 -13.079726 0.352150
v 18.131672 -13.103330 0.471870
v 18.037651 -13.032710 0.469729
v 18.029724 -13.056212 0.587273
v 18.014149 -13.014829 0.563760
v 18.066545 -13.032688 0.540255
v 18.065147 -13.009184 0.516738
v 18.007778 -13.032700 0.446197
v 18.019629 -12.985679 0.446199
v 18.014147 -13.032700 0.465237
v 18.014147 -13.009187 0.491554
v 18.014147 -12.985676 0.472125
v 18.020741 -12.985677 0.493223
v 18.037657 -12.868112 0.264883
v 18.061169 -12.891627 0.277376
v 18.037659 -12.921813 0.328638
v 18.010403 -12.915142 0.375658
v 18.037657 -12.938650 0.358291
v 18.037657 -12.946052 0.375661
v 18.007931 -12.938652 0.399171
v 18.014149 -12.958260 0.399176
v 18.037655 -12.962163 0.412403
v 18.014151 -12.906406 0.375661
v 18.037661 -12.857541 0.281612
v 18.037655 -12.905037 0.375662
v 18.037668 -13.058505 0.610792
v 18.039965 -13.056208 0.610788
v 18.061159 -13.103268 0.728325
v 18.037655 -13.079738 0.703467
v 18.061184 -13.063051 0.587285
v 18.040453 -12.985676 0.469711
v 18.037664 -12.962153 0.480753
v 18.108164 -12.821144 0.483303
v 18.069094 -12.915138 0.352149
v 18.155212 -13.184453 0.610782
v 18.178726 -13.207641 0.657806
v 18.131704 -13.211957 0.728342
v 18.413839 -12.844628 0.489670
v 18.413824 -13.126811 0.476500
v 18.319788 -12.774091 0.490008
v 18.068167 -12.915135 0.328638
v 18.065409 -12.891621 0.281613
v 18.061171 -12.922130 0.328637
v 18.108198 -13.197270 0.803827
v 18.158379 -13.220808 0.822396
v 18.200863 -13.197315 0.775342
v 18.202248 -12.725070 0.469703
v 18.296293 -12.727022 0.473840
v 18.172167 -13.244312 0.798884
v 18.178730 -13.244314 0.813709
v 18.178732 -13.258236 0.775372
v 18.225756 -13.242889 0.822400
v 18.225758 -13.244312 0.820690
v 18.272781 -13.220780 0.785992
v 18.343321 -13.220798 0.800543
v 18.390347 -13.193400 0.775382
v 18.437374 -13.131214 0.704854
v 18.366831 -13.197285 0.778905
v 18.296293 -13.224228 0.798885
v 18.202246 -13.197289 0.597537
v 18.437372 -13.112802 0.657801
v 18.319813 -12.727026 0.471637
v 18.343327 -12.723554 0.446202
v 18.484383 -13.116116 0.657844
v 18.460878 -13.108389 0.634315
v 18.390345 -13.220799 0.779781
v 18.437378 -12.821081 0.476722
v 18.437372 -12.844598 0.481712
v 18.472315 -12.821086 0.446210
v 18.368267 -13.244310 0.728348
v 18.409060 -13.244311 0.681322
v 18.437365 -13.208904 0.681323
v 18.390345 -13.265047 0.775373
v 18.413851 -13.244303 0.769758
v 18.418173 -13.244297 0.775384
v 18.437370 -13.200227 0.728345
v 18.484379 -13.150258 0.689644
v 18.472317 -13.197285 0.657810
v 18.470301 -13.173780 0.657808
v 18.484390 -13.158586 0.681322
v 18.484400 -12.985676 0.464521
v 18.484396 -12.994843 0.469715
v 18.486471 -12.891623 0.446196
v 18.468262 -13.173771 0.610788
v 18.484388 -13.157586 0.587271
v 18.507908 -13.093672 0.469713
v 18.484398 -13.056212 0.557265
v 18.469732 -13.150262 0.610785
v 18.491716 -13.150262 0.587273
v 18.484390 -13.139461 0.634296
v 18.491142 -13.150257 0.634297
v 18.481874 -12.938649 0.375660
v 18.498760 -12.962163 0.329975
v 18.484385 -12.938648 0.392203
v 18.484390 -12.962163 0.350516
v 18.249269 -13.241540 0.610786
v 18.235283 -13.220805 0.610783
v 18.448080 -13.220802 0.657807
v 18.061171 -12.938651 0.357478
v 18.296295 -13.244306 0.601201
v 18.413855 -13.244335 0.616802
v 18.507906 -13.005717 0.352151
vt 0.989726 0.194003
vt 0.990433 0.199087
vt 0.984022 0.193652
vt 0.990427 0.203993
vt 0.984800 0.205186
vt 0.988822 0.199709
vt 0.218935 0.737155
vt 0.224705 0.737147
vt 0.217099 0.734077
vt 0.515855 0.110303
vt 0.519647 0.109554
vt 0.515836 0.105446
vt 0.274550 0.722051
vt 0.259245 0.721531
vt 0.266078 0.729672
vt 0.259228 0.725819
vt 0.228554 0.741674
vt 0.228560 0.740044
vt 0.232389 0.739529
vt 0.228593 0.731487
vt 0.236235 0.733387
vt 0.238467 0.737221
vt 0.224723 0.733325
vt 0.236212 0.740321
vt 0.225485 0.729520
vt 0.224746 0.729499
vt 0.236245 0.721881
vt 0.219526 0.733330
vt 0.220948 0.732285
vt 0.240154 0.706614
vt 0.239178 0.714269
vt 0.241784 0.706624
vt 0.992188 0.183086
vt 0.981201 0.191168
vt 0.982052 0.177412
vt 0.992773 0.188633
vt 0.986294 0.178238
vt 0.991292 0.177882
vt 0.987753 0.169918
vt 0.404376 0.027072
vt 0.406128 0.025996
vt 0.402998 0.022863
vt 0.411160 0.019540
vt 0.407473 0.025169
vt 0.399045 0.016287
vt 0.395264 0.021464
vt 0.984613 0.141538
vt 0.989362 0.135625
vt 0.984528 0.154898
vt 0.982652 0.162759
vt 0.981201 0.175288
vt 0.987034 0.134291
vt 0.530161 0.029449
vt 0.529299 0.025341
vt 0.524854 0.025922
vt 0.522995 0.030373
vt 0.520442 0.027805
vt 0.520264 0.030518
vt 0.981986 0.196317
vt 0.969858 0.198407
vt 0.959148 0.202999
vt 0.958851 0.195358
vt 0.966796 0.206299
vt 0.983935 0.206299
vt 0.957764 0.199252
vt 0.436434 0.024039
vt 0.436875 0.020201
vt 0.413951 0.019304
vt 0.540222 0.029379
vt 0.536947 0.025146
vt 0.532557 0.025684
vt 0.541338 0.029116
vt 0.552447 0.020110
vt 0.548656 0.016070
vt 0.562616 0.024326
vt 0.563951 0.019218
vt 0.989423 0.205342
vt 0.970390 0.190744
vt 0.963401 0.183490
vt 0.970518 0.186917
vt 0.969931 0.179282
vt 0.962962 0.179693
vt 0.965748 0.175729
vt 0.551181 0.030518
vt 0.562914 0.027692
vt 0.213277 0.734019
vt 0.217448 0.733292
vt 0.220945 0.729454
vt 0.217103 0.733291
vt 0.969415 0.171646
vt 0.974602 0.171350
vt 0.975103 0.178986
vt 0.973866 0.182842
vt 0.523498 0.104589
vt 0.515873 0.101793
vt 0.531090 0.113354
vt 0.512055 0.101953
vt 0.512023 0.105701
vt 0.996826 0.136293
vt 0.997346 0.151723
vt 0.996826 0.155518
vt 0.996826 0.159777
vt 0.997311 0.175161
vt 0.996826 0.178955
vt 0.971004 0.144669
vt 0.962176 0.137551
vt 0.975185 0.148223
vt 0.977171 0.171119
vt 0.965800 0.137317
vt 0.974461 0.136767
vt 0.970026 0.134422
vt 0.243895 0.732202
vt 0.247702 0.737234
vt 0.243861 0.741043
vt 0.456580 0.022898
vt 0.460577 0.018529
vt 0.460352 0.019216
vt 0.455151 0.023666
vt 0.457528 0.019422
vt 0.970418 0.133210
vt 0.961630 0.136867
vt 0.957764 0.134104
vt 0.964860 0.133681
vt 0.960097 0.134005
vt 0.960878 0.133635
vt 0.961829 0.187589
vt 0.355085 0.604736
vt 0.354599 0.604234
vt 0.320416 0.604736
vt 0.320172 0.604485
vt 0.303081 0.604736
vt 0.534597 0.159844
vt 0.538436 0.160154
vt 0.534643 0.156420
vt 0.441821 0.023444
vt 0.438070 0.026446
vt 0.496407 0.143546
vt 0.511819 0.136876
vt 0.496589 0.120690
vt 0.504365 0.101115
vt 0.484873 0.155539
vt 0.492541 0.151471
vt 0.488748 0.152174
vt 0.462772 0.022543
vt 0.466035 0.020744
vt 0.460908 0.019265
vt 0.460688 0.014942
vt 0.542461 0.124399
vt 0.534804 0.133202
vt 0.540117 0.132631
vt 0.531100 0.117905
vt 0.544718 0.128170
vt 0.542412 0.134743
vt 0.542267 0.156405
vt 0.551038 0.155237
vt 0.542269 0.151423
vt 0.551303 0.159729
vt 0.543497 0.146940
vt 0.538459 0.151758
vt 0.542262 0.160190
vt 0.542278 0.147169
vt 0.985107 0.210205
vt 0.993649 0.209242
vt 0.988273 0.208057
vt 0.998809 0.210205
vt 0.543655 0.160414
vt 0.402525 0.028687
vt 0.400292 0.030518
vt 0.401194 0.029730
vt 0.534806 0.137599
vt 0.534751 0.140979
vt 0.538573 0.140867
vt 0.511444 0.171143
vt 0.527025 0.157097
vt 0.500088 0.167030
vt 0.542158 0.164255
vt 0.506513 0.169965
vt 0.439541 0.028550
vt 0.445895 0.026057
vt 0.405443 0.028476
vt 0.408745 0.026957
vt 0.538522 0.144200
vt 0.542308 0.143357
vt 0.527082 0.144977
vt 0.523221 0.153177
vt 0.523261 0.145126
vt 0.519605 0.113155
vt 0.488623 0.162901
vt 0.488576 0.166296
vt 0.496400 0.144856
vt 0.488668 0.159264
vt 0.477393 0.128079
vt 0.477314 0.139728
vt 0.485140 0.116799
vt 0.488739 0.146167
vt 0.496685 0.109391
vt 0.512003 0.109744
vt 0.500546 0.105686
vt 0.500539 0.101104
vt 0.247864 0.698994
vt 0.244002 0.703176
vt 0.439583 0.019911
vt 0.449129 0.025026
vt 0.454231 0.023086
vt 0.449285 0.024817
vt 0.488733 0.147406
vt 0.483402 0.108255
vt 0.481311 0.110429
vt 0.555420 0.088398
vt 0.559668 0.091995
vt 0.556037 0.092200
vt 0.484799 0.162879
vt 0.481054 0.155700
vt 0.476910 0.139727
vt 0.561011 0.095754
vt 0.555420 0.096924
vt 0.473493 0.148689
vt 0.473498 0.131039
vt 0.473468 0.137248
vt 0.524170 0.368145
vt 0.530576 0.369293
vt 0.524170 0.370361
vt 0.535294 0.225830
vt 0.528076 0.221329
vt 0.528754 0.225830
vt 0.559326 0.241455
vt 0.568093 0.241455
vt 0.561913 0.238241
vt 0.529449 0.218018
vt 0.527636 0.214509
vt 0.525096 0.217970
vt 0.473389 0.132080
vt 0.481407 0.132080
vt 0.477320 0.128116
vt 0.012396 0.123387
vt 0.005263 0.128094
vt 0.009656 0.131551
vt 0.531982 0.178955
vt 0.539430 0.178955
vt 0.535736 0.175656
vt 0.533234 0.105896
vt 0.531982 0.108642
vt 0.534986 0.108643
vt 0.473742 0.316665
vt 0.481816 0.319580
vt 0.483539 0.314775
vt 0.477295 0.071240
vt 0.477369 0.077393
vt 0.483535 0.075400
vt 0.452809 0.544971
vt 0.454535 0.542894
vt 0.446243 0.543882
vt 0.442564 0.066781
vt 0.438720 0.066941
vt 0.441146 0.065959
vt 0.528141 0.171143
vt 0.524996 0.167887
vt 0.520264 0.171143
vt 0.425056 0.541263
vt 0.429468 0.541663
vt 0.425222 0.538169
vt 0.442057 0.009110
vt 0.445408 0.010986
vt 0.444501 0.007123
vt 0.540546 0.210205
vt 0.536549 0.203848
vt 0.531982 0.210205
vt 0.344482 0.252845
vt 0.345323 0.253237
vt 0.344482 0.257080
vt 0.569363 0.311767
vt 0.567283 0.308348
vt 0.561854 0.309250
vt 0.351293 0.087959
vt 0.347526 0.095686
vt 0.353018 0.095242
vt 0.347277 0.084825
vt 0.354691 0.092210
vt 0.351108 0.098195
vt 0.457512 0.305424
vt 0.462997 0.311768
vt 0.465932 0.307098
vt 0.454804 0.310424
vt 0.465233 0.311346
vt 0.343575 0.085594
vt 0.344110 0.094459
vt 0.545330 0.157908
vt 0.543928 0.163330
vt 0.550415 0.163330
vt 0.551640 0.159503
vt 0.543701 0.159503
vt 0.519003 0.298184
vt 0.516867 0.293921
vt 0.512451 0.294788
vt 0.514152 0.302647
vt 0.517009 0.303955
vt 0.524384 0.417236
vt 0.525951 0.412251
vt 0.524170 0.409304
vt 0.011425 0.143799
vt 0.022068 0.137601
vt 0.015190 0.143097
vt 0.000949 0.136911
vt 0.005914 0.132162
vt 0.005379 0.128338
vt 0.478485 0.224659
vt 0.473899 0.222019
vt 0.473962 0.225830
vt 0.395359 0.071629
vt 0.379037 0.070985
vt 0.386262 0.076297
vt 0.449951 0.311767
vt 0.379528 0.071821
vt 0.377112 0.081299
vt 0.371826 0.080124
vt 0.531118 0.413583
vt 0.537807 0.409409
vt 0.532430 0.405586
vt 0.533001 0.219613
vt 0.535772 0.221211
vt 0.541043 0.219671
vt 0.537904 0.417236
vt 0.539810 0.413109
vt 0.451935 0.102123
vt 0.450918 0.102348
vt 0.449951 0.112549
vt 0.458735 0.112549
vt 0.289795 0.202393
vt 0.310411 0.202393
vt 0.300013 0.201617
vt 0.421316 0.499267
vt 0.415902 0.497203
vt 0.410889 0.499268
vt 0.541264 0.408631
vt 0.560842 0.382080
vt 0.557408 0.381007
vt 0.555420 0.382080
vt 0.540046 0.406182
vt 0.313232 0.264500
vt 0.315975 0.264893
vt 0.326284 0.264417
vt 0.332838 0.260189
vt 0.331610 0.263415
vt 0.334504 0.262537
vt 0.338097 0.260715
vt 0.339627 0.262736
vt 0.562589 0.280997
vt 0.567777 0.279208
vt 0.563811 0.278440
vt 0.567821 0.281893
vt 0.542716 0.402292
vt 0.538511 0.402136
vt 0.563666 0.287080
vt 0.569569 0.286947
vt 0.560255 0.284851
vt 0.568885 0.288330
vt 0.331879 0.258975
vt 0.314399 0.261561
vt 0.413869 0.447407
vt 0.412964 0.450471
vt 0.429506 0.454515
vt 0.354890 0.099940
vt 0.339029 0.092315
vt 0.341878 0.084245
vt 0.333345 0.097596
vt 0.391143 0.075220
vt 0.389290 0.076911
vt 0.393849 0.077845
vt 0.398328 0.077967
vt 0.389008 0.077078
vt 0.393259 0.080686
vt 0.403076 0.182861
vt 0.403076 0.172171
vt 0.404795 0.178706
vt 0.261656 0.234150
vt 0.256820 0.221262
vt 0.253617 0.227354
vt 0.252443 0.217333
vt 0.247477 0.208501
vt 0.386217 0.081299
vt 0.437780 0.499268
vt 0.432262 0.497170
vt 0.426514 0.499268
vt 0.262785 0.249268
vt 0.261967 0.236284
vt 0.254057 0.242566
vt 0.257952 0.232537
vt 0.250394 0.239754
vt 0.485822 0.319580
vt 0.004804 0.120708
vt 0.004230 0.119864
vt 0.003910 0.124685
vt 0.001612 0.128903
vt 0.394895 0.098492
vt 0.384646 0.111266
vt 0.389648 0.109288
vt 0.373225 0.102674
vt 0.375587 0.112549
vt 0.397305 0.101923
vt 0.395345 0.112549
vt 0.372065 0.108659
vt 0.371826 0.108587
vt 0.399758 0.100657
vt 0.523911 0.213737
vt 0.520264 0.218018
vt 0.009065 0.123460
vt 0.000732 0.125012
vt 0.477295 0.108643
vt 0.481536 0.108643
vt 0.479912 0.105640
vt 0.541371 0.415313
vt 0.564245 0.238707
vt 0.552368 0.382080
vt 0.550676 0.380584
vt 0.547607 0.382080
vt 0.468386 0.222016
vt 0.466566 0.225795
vt 0.470495 0.221889
vt 0.465576 0.225830
vt 0.340667 0.260734
vt 0.342394 0.261929
vt 0.345603 0.264493
vt 0.344316 0.264893
vt 0.414755 0.464991
vt 0.432638 0.471924
vt 0.425354 0.463607
vt 0.426435 0.463839
vt 0.435544 0.468441
vt 0.407528 0.464653
vt 0.409143 0.469997
vt 0.406982 0.453265
vt 0.410809 0.455462
vt 0.409417 0.448998
vt 0.414129 0.456963
vt 0.407347 0.454403
vt 0.331372 0.106793
vt 0.337071 0.114105
vt 0.350692 0.111816
vt 0.356757 0.106146
vt 0.358848 0.103000
vt 0.364119 0.107350
vt 0.237710 0.239656
vt 0.232913 0.219376
vt 0.469482 0.315128
vt 0.061818 0.089545
vt 0.012058 0.092593
vt 0.068044 0.135090
vt 0.045114 0.080271
vt 0.069767 0.119411
vt 0.003786 0.116870
vt 0.074593 0.126480
vt 0.324370 0.262162
vt 0.316334 0.264261
vt 0.325309 0.263326
vt 0.417426 0.458539
vt 0.425797 0.460205
vt 0.559326 0.288330
vt 0.431041 0.456338
vt 0.403076 0.106033
vt 0.403680 0.106798
vt 0.403076 0.112549
vt 0.449951 0.218018
vt 0.455402 0.216622
vt 0.450135 0.216266
vt 0.460625 0.218018
vt 0.460704 0.214287
vt 0.330820 0.100343
vt 0.329562 0.105353
vt 0.243701 0.209181
vt 0.235067 0.205184
vt 0.228739 0.214182
vt 0.217496 0.219464
vt 0.359975 0.113863
vt 0.360146 0.108488
vt 0.359672 0.118340
vt 0.358118 0.119140
vt 0.361721 0.109015
vt 0.362864 0.111147
vt 0.364940 0.108249
vt 0.354308 0.113718
vt 0.046060 0.142962
vt 0.042312 0.143799
vt 0.068925 0.140746
vt 0.072698 0.140099
vt 0.025195 0.075192
vt 0.018070 0.079600
vt 0.040378 0.073383
vt 0.010494 0.089091
vt 0.342196 0.128174
vt 0.349038 0.119134
vt 0.353706 0.122007
vt 0.359825 0.114136
vt 0.355583 0.121817
vt 0.362573 0.120556
vt 0.358809 0.123242
vt 0.360478 0.124803
vt 0.522724 0.522705
vt 0.527851 0.522705
vt 0.525523 0.521019
vt 0.482748 0.077393
vt 0.516357 0.521268
vt 0.446020 0.065853
vt 0.446748 0.069580
vt 0.442309 0.066837
vt 0.492283 0.163330
vt 0.487717 0.159690
vt 0.485107 0.163330
vt 0.355312 0.124166
vt 0.445740 0.063285
vt 0.437967 0.063180
vt 0.461670 0.116455
vt 0.466891 0.116455
vt 0.461689 0.108769
vt 0.438021 0.063537
vt 0.490061 0.158911
vt 0.493795 0.162727
vt 0.226129 0.206782
vt 0.541885 0.522705
vt 0.537087 0.520564
vt 0.531983 0.522705
vt 0.224085 0.212089
vt 0.213758 0.219856
vt 0.218646 0.240431
vt 0.277886 0.003234
vt 0.282007 0.010701
vt 0.285604 0.002424
vt 0.274260 0.010986
vt 0.274170 0.007152
vt 0.438277 0.378174
vt 0.438482 0.369552
vt 0.434659 0.369738
vt 0.430420 0.378174
vt 0.445697 0.373975
vt 0.446271 0.369674
vt 0.438420 0.066784
vt 0.466824 0.097341
vt 0.461981 0.101120
vt 0.211438 0.202030
vt 0.205359 0.210535
vt 0.216069 0.204505
vt 0.198509 0.217055
vt 0.192467 0.232841
vt 0.202178 0.215913
vt 0.212783 0.209810
vt 0.216592 0.211531
vt 0.321175 0.113322
vt 0.323922 0.116081
vt 0.326446 0.113334
vt 0.324518 0.107258
vt 0.158937 0.046587
vt 0.156982 0.019508
vt 0.161549 0.019933
vt 0.161655 0.058348
vt 0.156982 0.061768
vt 0.297311 0.010986
vt 0.297159 0.005266
vt 0.289402 0.001364
vt 0.301127 0.010529
vt 0.300981 0.005094
vt 0.304857 0.006279
vt 0.436625 0.069580
vt 0.430420 0.064476
vt 0.485107 0.116455
vt 0.491429 0.116455
vt 0.489738 0.113658
vt 0.450331 0.373235
vt 0.450391 0.370028
vt 0.192796 0.240801
vt 0.185172 0.241109
vt 0.189058 0.244639
vt 0.203899 0.203247
vt 0.197739 0.213911
vt 0.065163 0.085369
vt 0.044181 0.072886
vt 0.065651 0.089101
vt 0.461145 0.369311
vt 0.455870 0.370168
vt 0.456806 0.378174
vt 0.472386 0.378174
vt 0.453857 0.375422
vt 0.371826 0.018799
vt 0.396334 0.018799
vt 0.389767 0.012135
vt 0.317844 0.006146
vt 0.392787 0.012363
vt 0.400628 0.012631
vt 0.374634 0.125841
vt 0.382718 0.131622
vt 0.389121 0.127956
vt 0.373816 0.132080
vt 0.371826 0.128637
vt 0.459581 0.358643
vt 0.460172 0.357215
vt 0.459563 0.350052
vt 0.449951 0.358643
vt 0.436378 0.002606
vt 0.433658 0.010986
vt 0.440952 0.004191
vt 0.430420 0.007645
vt 0.465260 0.327393
vt 0.461350 0.322000
vt 0.456735 0.321538
vt 0.449951 0.327393
vt 0.436457 0.002988
vt 0.441737 0.003406
vt 0.464904 0.358642
vt 0.463729 0.353520
vt 0.386385 0.120958
vt 0.380685 0.121077
vt 0.463773 0.353291
vt 0.192587 0.212667
vt 0.193909 0.220173
vt 0.184326 0.233701
vt 0.190918 0.218167
vt 0.399116 0.120793
vt 0.382697 0.117777
vt 0.395852 0.129594
vt 0.397781 0.127357
vt 0.377616 0.339200
vt 0.376693 0.335162
vt 0.375500 0.333831
vt 0.073944 0.138457
vt 0.079057 0.130048
vt 0.076399 0.110941
vt 0.076573 0.112363
vt 0.511475 0.483349
vt 0.520336 0.473935
vt 0.509400 0.477094
vt 0.525273 0.483643
vt 0.527954 0.475583
vt 0.506301 0.479894
vt 0.489798 0.379863
vt 0.484647 0.381022
vt 0.484097 0.382486
vt 0.536260 0.249268
vt 0.531120 0.245441
vt 0.528076 0.249268
vt 0.161416 0.019192
vt 0.160625 0.015977
vt 0.234655 0.178616
vt 0.236538 0.184545
vt 0.243710 0.186768
vt 0.227422 0.186749
vt 0.227295 0.178956
vt 0.189421 0.249268
vt 0.219483 0.002325
vt 0.221392 0.005641
vt 0.219483 0.010986
vt 0.191583 0.242673
vt 0.406571 0.507663
vt 0.400508 0.503338
vt 0.393692 0.507533
vt 0.407518 0.514439
vt 0.393209 0.502056
vt 0.439467 0.132080
vt 0.431998 0.118330
vt 0.430420 0.122234
vt 0.446152 0.123186
vt 0.431740 0.132080
vt 0.446625 0.128568
vt 0.074770 0.095948
vt 0.070946 0.084911
vt 0.511458 0.150707
vt 0.509142 0.154747
vt 0.509710 0.155518
vt 0.508545 0.150252
vt 0.480579 0.382022
vt 0.477917 0.386062
vt 0.483922 0.389881
vt 0.480665 0.393799
vt 0.477295 0.381422
vt 0.532295 0.244248
vt 0.539836 0.248956
vt 0.515032 0.151536
vt 0.518624 0.155517
vt 0.378575 0.344054
vt 0.374772 0.342798
vt 0.371826 0.346924
vt 0.376833 0.342655
vt 0.559326 0.311768
vt 0.558788 0.415372
vt 0.561398 0.412443
vt 0.560870 0.406858
vt 0.392043 0.506088
vt 0.385771 0.500593
vt 0.080133 0.110312
vt 0.406982 0.471924
vt 0.082764 0.085205
vt 0.083150 0.081534
vt 0.089102 0.084198
vt 0.485107 0.139893
vt 0.493478 0.139893
vt 0.487090 0.134850
vt 0.408237 0.456319
vt 0.326146 0.123880
vt 0.324201 0.118935
vt 0.321045 0.123088
vt 0.503341 0.218018
vt 0.500270 0.213589
vt 0.496826 0.218018
vt 0.555420 0.155518
vt 0.564614 0.155517
vt 0.560534 0.151481
vt 0.408656 0.460205
vt 0.334124 0.128031
vt 0.326608 0.120275
vt 0.390993 0.132080
vt 0.520626 0.124268
vt 0.527610 0.124267
vt 0.520264 0.120311
vt 0.370094 0.115012
vt 0.367920 0.128174
vt 0.367920 0.114470
vt 0.082764 0.073063
vt 0.092233 0.071230
vt 0.082777 0.076702
vt 0.369539 0.112871
vt 0.522456 0.303955
vt 0.523581 0.297567
vt 0.518478 0.295609
vt 0.333970 0.262185
vt 0.337845 0.263604
vt 0.330502 0.262369
vt 0.328778 0.259902
vt 0.465231 0.139893
vt 0.470013 0.139893
vt 0.466714 0.136047
vt 0.505717 0.382080
vt 0.502655 0.379772
vt 0.500732 0.382080
vt 0.461670 0.137884
vt 0.461685 0.139434
vt 0.479547 0.198486
vt 0.476407 0.194598
vt 0.474577 0.198486
vt 0.479953 0.190919
vt 0.473389 0.194535
vt 0.539760 0.124268
vt 0.536351 0.121769
vt 0.531982 0.124268
vt 0.324736 0.116399
vt 0.441298 0.547661
vt 0.452232 0.539256
vt 0.422074 0.549340
vt 0.445684 0.551338
vt 0.455825 0.538596
vt 0.326218 0.127797
vt 0.322094 0.128174
vt 0.492920 0.093018
vt 0.497651 0.093018
vt 0.494280 0.087004
vt 0.442667 0.553236
vt 0.438993 0.553955
vt 0.414795 0.553955
vt 0.417976 0.549343
vt 0.492383 0.389982
vt 0.497184 0.393799
vt 0.496024 0.390375
vt 0.525948 0.120623
vt 0.418203 0.543020
vt 0.496603 0.385577
vt 0.498346 0.382670
vt 0.487183 0.390494
vt 0.528076 0.335205
vt 0.538872 0.335205
vt 0.532581 0.329438
vt 0.538168 0.329099
vt 0.460401 0.276611
vt 0.450849 0.269937
vt 0.449951 0.276611
vt 0.540284 0.330471
vt 0.542919 0.334802
vt 0.518945 0.386376
vt 0.518974 0.389519
vt 0.520363 0.389785
vt 0.565749 0.417236
vt 0.567411 0.417001
vn -0.9765 -0.1571 -0.1474
vn -0.9840 0.0462 -0.1723
vn 0.0247 0.5440 0.8387
vn -0.5093 0.7158 -0.4778
vn -0.0066 1.0000 0.0046
vn -0.0059 1.0000 0.0018
vn -0.0063 1.0000 0.0049
vn -0.0063 1.0000 0.0045
vn -0.0065 1.0000 0.0046
vn -0.0064 1.0000 0.0044
vn -0.0066 1.0000 0.0044
vn -0.0067 1.0000 0.0044
vn -0.0047 1.0000 0.0046
vn -0.0067 1.0000 0.0046
vn -0.0053 1.0000 0.0045
vn -0.0012 0.9999 0.0127
vn -0.0025 0.9999 0.0107
vn -0.0252 0.9996 -0.0131
vn 0.1242 0.9874 0.0981
vn 0.0008 0.9999 0.0158
vn -0.2283 0.9727 -0.0422
vn -0.0779 0.9967 -0.0239
vn 0.0559 0.9984 0.0046
vn 0.0558 0.9984 0.0048
vn -0.9241 0.0685 0.3759
vn -0.9233 0.0527 0.3805
vn -0.4196 -0.0486 0.9064
vn -0.9732 -0.2299 -0.0090
vn -0.9852 -0.1141 -0.1278
vn -0.9266 -0.2773 -0.2540
vn -0.9266 -0.2772 -0.2541
vn -0.9527 -0.2848 -0.1060
vn -0.5459 -0.6243 -0.5588
vn -0.4237 -0.7952 -0.4338
vn -0.9266 -0.2771 -0.2542
vn -0.9618 0.2431 0.1256
vn -0.9076 0.3633 0.2107
vn -0.8694 0.4332 0.2375
vn -0.8693 0.4333 0.2378
vn -0.8689 0.4336 0.2386
vn -0.8689 0.4336 0.2389
vn -0.8970 0.3484 0.2719
vn -0.9215 0.3708 0.1159
vn -0.8107 0.3150 0.4935
vn -0.7788 0.4824 -0.4010
vn -0.7758 0.4841 -0.4048
vn -0.7762 0.4839 -0.4043
vn -0.7789 0.4820 -0.4011
vn -0.7981 0.4170 -0.4349
vn -0.8645 0.3479 -0.3628
vn -0.7340 -0.5362 0.4167
vn -0.4295 -0.5527 0.7142
vn -0.7669 -0.5457 0.3378
vn -0.0671 0.0701 -0.9953
vn 0.0367 0.1045 -0.9938
vn -0.8796 -0.0828 0.4685
vn -0.0478 0.7029 -0.7096
vn -0.9063 -0.1450 0.3971
vn -0.9095 -0.1425 0.3905
vn -0.9054 -0.1456 0.3988
vn -0.9098 -0.1423 0.3898
vn -0.1573 -0.9602 0.2309
vn -0.2199 -0.9503 -0.2203
vn 0.0458 -0.9363 -0.3481
vn -0.8635 0.2513 -0.4372
vn -0.8581 0.5133 0.0123
vn -0.9409 0.0653 -0.3323
vn -0.6036 0.5757 -0.5515
vn -0.6246 0.4975 -0.6020
vn -0.6046 0.5914 -0.5336
vn -0.5493 0.5981 -0.5836
vn -0.5281 0.5409 -0.6546
vn -0.9851 -0.1719 0.0000
vn -0.7779 -0.4702 0.4168
vn -0.1575 0.7625 -0.6275
vn -0.2008 0.7879 -0.5822
vn 0.0198 0.7101 -0.7038
vn -0.0395 0.6877 -0.7250
vn -0.4341 0.6199 -0.6537
vn -0.6887 0.7211 0.0762
vn -0.7144 0.6989 -0.0339
vn 0.6742 0.6759 0.2976
vn 0.4797 0.3637 0.7985
vn 0.0559 0.9984 0.0044
vn 0.6072 0.6608 -0.4412
vn 0.7900 0.5044 0.3485
vn -0.0004 0.2142 -0.9768
vn 0.0039 0.7422 -0.6701
vn 0.0004 0.7456 -0.6664
vn 0.0006 0.7452 -0.6668
vn 0.0043 0.7420 -0.6704
vn -0.5547 0.6175 -0.5577
vn 0.0285 0.0840 -0.9961
vn 0.0436 0.3607 -0.9317
vn -0.0168 -0.1392 -0.9901
vn -0.0934 0.2608 -0.9609
vn -0.2414 -0.1351 -0.9610
vn -0.3559 -0.0103 -0.9345
vn -0.0010 -0.0088 1.0000
vn 0.0015 0.0121 0.9999
vn 0.0621 0.3184 -0.9459
vn 0.0995 0.4631 -0.8807
vn 0.0490 0.2233 -0.9735
vn 0.0524 0.2331 -0.9710
vn 0.0501 0.2265 -0.9727
vn 0.0534 0.2362 -0.9702
vn 0.1434 0.4245 -0.8940
vn 0.1094 0.4756 -0.8728
vn -0.0564 0.4778 -0.8766
vn 0.0061 0.2672 -0.9636
vn -0.4418 0.8314 0.3370
vn -0.4853 0.8265 0.2853
vn -0.4246 0.7998 -0.4244
vn 0.5875 -0.5888 -0.5550
vn 0.5922 -0.5700 -0.5696
vn 0.0335 -0.9992 0.0196
vn -0.5430 0.6430 -0.5401
vn -0.9045 0.2827 -0.3192
vn -0.8997 0.2996 -0.3176
vn -0.7818 -0.2755 -0.5594
vn -1.0000 -0.0002 0.0000
vn -0.7068 -0.0697 -0.7040
vn -0.3007 0.4091 -0.8615
vn 0.5495 0.1975 -0.8118
vn 0.1102 0.0109 -0.9938
vn 0.1102 0.0109 -0.9939
vn -0.0037 0.5008 -0.8656
vn -0.0037 0.5008 -0.8655
vn -0.0037 0.5011 -0.8654
vn -0.0037 0.5014 -0.8652
vn -0.0025 0.5006 -0.8657
vn 0.3407 -0.3942 -0.8535
vn 0.0836 -0.9303 -0.3571
vn 0.2743 0.0706 -0.9591
vn 0.4724 -0.0097 -0.8813
vn -0.4836 -0.7269 -0.4877
vn -0.5694 -0.5861 -0.5764
vn -0.6516 -0.6707 0.3545
vn -0.4940 0.2647 -0.8282
vn -0.5379 0.2100 -0.8164
vn -0.4663 0.2787 -0.8396
vn -0.3679 0.3980 -0.8404
vn -0.2769 0.6365 -0.7199
vn -0.2758 0.6341 -0.7224
vn -0.2768 0.6363 -0.7200
vn -0.2543 0.6926 -0.6751
vn -0.2758 0.6339 -0.7226
vn -0.3444 0.6218 -0.7034
vn -0.3153 0.6077 -0.7289
vn -0.3545 0.2994 -0.8858
vn 0.0148 0.6343 -0.7730
vn -0.6369 0.4332 -0.6377
vn 0.9475 -0.3147 0.0563
vn 0.8080 -0.5570 0.1920
vn 0.5227 0.5410 -0.6588
vn 0.4506 -0.7311 -0.5123
vn 0.4496 -0.6932 -0.5633
vn -0.1756 -0.4293 -0.8859
vn -0.1479 -0.7063 -0.6923
vn -0.0864 -0.6807 -0.7275
vn -0.6451 0.2517 -0.7214
vn -0.6496 0.2716 -0.7101
vn -0.0010 -0.7600 -0.6499
vn 0.1623 -0.8970 -0.4111
vn 0.0103 -0.8188 -0.5739
vn -0.7622 0.0496 -0.6454
vn -0.8277 0.3153 -0.4642
vn -0.3606 0.0300 -0.9323
vn -0.3394 -0.3386 -0.8776
vn -0.4396 0.0289 -0.8977
vn -0.1692 -0.4908 -0.8547
vn -0.4148 0.3248 -0.8500
vn -0.5381 0.4008 -0.7415
vn -0.1900 0.3505 -0.9171
vn -0.2113 0.3396 -0.9166
vn -0.4059 -0.3829 -0.8298
vn 0.0334 0.2780 -0.9600
vn 0.3785 -0.0090 -0.9256
vn 0.0585 0.2854 -0.9566
vn 0.0499 0.3478 -0.9362
vn 0.0463 0.3522 -0.9348
vn 0.0462 0.3527 -0.9346
vn -0.1406 0.1789 -0.9738
vn 0.0390 0.7209 -0.6920
vn -0.2244 -0.0731 -0.9717
vn 0.0553 -0.1870 -0.9808
vn 0.1636 -0.0951 -0.9819
vn 0.2045 -0.0326 -0.9783
vn 0.2588 -0.4270 -0.8664
vn 0.3055 0.1570 -0.9392
vn 0.2732 0.2685 -0.9237
vn 0.0507 0.3469 -0.9365
vn -0.5935 -0.1237 -0.7953
vn 0.3433 0.2334 -0.9098
vn -0.0498 0.1704 -0.9841
vn 0.0290 0.0733 -0.9969
vn 0.0152 0.0388 -0.9991
vn -0.0250 0.0452 -0.9987
vn 0.0229 0.0157 -0.9996
vn 0.0856 0.0157 -0.9962
vn -0.1232 -0.2590 -0.9580
vn 0.0855 0.0507 -0.9950
vn 0.0470 0.2484 -0.9675
vn -0.7221 -0.1305 -0.6794
vn 0.3109 -0.8487 -0.4278
vn -0.0182 0.7443 -0.6676
vn -0.0132 0.7465 -0.6653
vn -0.0133 0.7465 -0.6653
vn -0.0254 0.3637 -0.9312
vn -0.0127 0.7468 -0.6650
vn -0.3343 0.3428 -0.8779
vn -0.6618 0.3683 -0.6530
vn -0.0777 0.9876 0.1364
vn 0.0840 -0.9696 0.2298
vn 0.0816 -0.9693 0.2321
vn 0.0807 -0.9692 0.2328
vn 0.0872 -0.9700 0.2268
vn -0.0394 -0.9886 -0.1454
vn -0.1493 -0.9886 0.0192
vn 0.3683 -0.7946 0.4827
vn -0.0009 -0.9523 -0.3052
vn 0.1814 -0.5794 -0.7946
vn 0.2199 -0.6402 -0.7361
vn -0.1129 -0.7026 -0.7026
vn 0.2186 -0.4899 -0.8439
vn 0.2305 -0.5933 -0.7713
vn -0.1860 0.1087 -0.9765
vn -0.6860 -0.1984 -0.7001
vn 0.0605 0.3230 -0.9445
vn -0.0198 0.3771 -0.9260
vn 0.4643 0.4315 -0.7735
vn 0.3336 0.4854 -0.8081
vn 0.6605 0.6729 0.3331
vn 0.6600 0.6724 0.3350
vn 0.6612 0.6717 0.3342
vn 0.6679 -0.5409 -0.5112
vn 0.5674 -0.6165 -0.5459
vn -0.2445 -0.1247 -0.9616
vn 0.0500 -0.1284 -0.9905
vn 0.0256 -0.1523 -0.9880
vn 0.0213 -0.4419 -0.8968
vn -0.1865 0.3407 -0.9215
vn -0.0351 0.0629 -0.9974
vn -0.2351 0.3001 -0.9245
vn -0.0587 0.3766 -0.9245
vn 0.0166 -0.7794 -0.6263
vn 0.6425 0.6529 -0.4012
vn 0.6414 0.6538 -0.4015
vn 0.7964 0.5670 -0.2104
vn -0.2070 -0.8650 0.4571
vn 0.0222 -0.9997 0.0057
vn -0.6353 0.3855 -0.6691
vn 0.6127 0.2741 -0.7412
vn -0.0159 0.9142 -0.4050
vn 0.0833 -0.7343 -0.6737
vn 0.0833 -0.7342 -0.6738
vn -0.1728 0.7087 -0.6840
vn -0.6619 0.5911 0.4609
vn -0.2671 0.1152 -0.9567
vn 0.9686 -0.1972 -0.1512
vn -0.2614 0.9214 0.2875
vn 0.3755 -0.2991 0.8773
vn 0.4896 0.5962 -0.6363
vn 0.5436 0.6432 -0.5392
vn 0.4864 0.8592 -0.1590
vn 0.4864 0.8592 -0.1591
vn -0.9600 0.2721 0.0661
vn 0.0002 0.0010 -1.0000
vn 0.1130 -0.7164 -0.6885
vn 1.0000 0.0001 -0.0001
vn 0.6292 -0.4526 -0.6319
vn 0.3755 0.2308 -0.8976
vn -0.8787 -0.4463 0.1695
vn 0.9381 0.3368 -0.0807
vn -0.6912 0.6314 -0.3516
vn -0.0938 -0.7644 -0.6379
vn -0.0864 -0.7039 -0.7050
vn -0.0006 -0.7073 -0.7070
vn -0.0434 -0.7929 -0.6078
vn -0.9203 -0.3234 -0.2203
vn -0.8235 -0.2201 -0.5229
vn -0.9472 -0.2269 -0.2267
vn -0.4582 -0.8636 0.2105
vn -0.4683 -0.8826 -0.0413
vn 0.0001 -1.0000 -0.0000
vn 0.0000 -1.0000 -0.0001
vn 0.0000 -1.0000 0.0000
vn 0.0000 -1.0000 0.0001
vn 0.0003 -1.0000 -0.0001
vn -0.3630 -0.8861 0.2883
vn -0.1206 -0.9646 0.2346
vn -0.2540 -0.9658 0.0525
vn -0.9757 0.2176 0.0255
vn -0.1955 -0.3561 0.9138
vn 0.0336 -0.7310 0.6815
vn -0.3024 -0.3461 0.8881
vn -0.3633 -0.2174 0.9060
vn -0.3675 -0.1568 0.9167
vn -0.7078 -0.7065 0.0007
vn -0.5288 -0.5376 -0.6567
vn -0.8327 0.1642 -0.5288
vn -0.8543 -0.4605 -0.2411
vn -0.8561 -0.4614 -0.2328
vn -0.8537 -0.4601 -0.2441
vn -0.4903 -0.5627 -0.6656
vn -0.4861 -0.6324 -0.6031
vn -0.5036 0.1270 -0.8546
vn -0.5659 0.7407 -0.3622
vn -0.9994 -0.0226 0.0261
vn -0.6905 -0.6855 0.2309
vn -0.7135 -0.4943 0.4966
vn -0.8938 -0.3344 0.2990
vn -0.9644 -0.1684 -0.2039
vn -0.9697 0.2443 0.0095
vn -0.8565 -0.4617 -0.2307
vn -0.8964 -0.3966 -0.1982
vn 0.0353 -0.9277 -0.3716
vn -0.9637 -0.2668 0.0000
vn -0.8755 -0.4464 -0.1851
vn -0.0001 -1.0000 0.0000
vn -0.8344 -0.4257 -0.3500
vn -0.3893 -0.7045 -0.5934
vn -0.7923 -0.4667 -0.3931
vn -0.7289 -0.5953 -0.3381
vn -0.7219 -0.6366 -0.2713
vn -0.6029 -0.5316 -0.5949
vn -0.6380 -0.2025 -0.7429
vn -0.4915 -0.4653 0.7361
vn -0.6991 -0.2216 0.6798
vn -0.6057 0.1638 -0.7786
vn -0.5825 0.5832 0.5663
vn -0.5971 0.5977 0.5350
vn -0.7820 0.4879 0.3879
vn -0.6624 0.2842 0.6932
vn -0.9188 0.3940 -0.0249
vn -0.9640 0.2249 -0.1418
vn -0.0520 0.8914 0.4502
vn -0.0008 -0.9677 -0.2521
vn -0.3057 -0.9392 -0.1562
vn -0.3426 -0.6645 -0.6641
vn -0.0565 -0.9849 -0.1639
vn 0.6272 -0.5246 -0.5757
vn 0.7086 -0.2739 -0.6503
vn 0.6823 -0.6686 -0.2956
vn 0.5580 -0.5591 -0.6132
vn 0.2839 -0.6254 -0.7268
vn -0.4913 0.3513 0.7970
vn -0.1040 0.7938 0.5992
vn 0.1806 0.6593 0.7299
vn 0.2042 0.6562 0.7264
vn -0.2123 -0.9769 -0.0235
vn -0.1775 -0.8175 -0.5479
vn 0.7198 0.6805 -0.1370
vn 0.5128 0.7521 0.4140
vn -0.0597 0.9962 0.0637
vn 0.3054 0.9345 0.1826
vn -0.4610 0.4772 0.7482
vn 0.1831 0.9666 -0.1793
vn -0.0010 0.0004 1.0000
vn 0.0000 0.0000 1.0000
vn -0.0002 0.0001 1.0000
vn -0.0012 0.0005 1.0000
vn -0.1875 -0.0465 0.9812
vn -0.1852 -0.1657 0.9686
vn 0.3408 0.6750 0.6544
vn 0.5940 0.6957 0.4039
vn 0.6606 0.5942 0.4589
vn 0.3727 0.6914 0.6190
vn 0.6574 0.6610 0.3619
vn 0.6611 0.6252 0.4148
vn 0.5410 -0.5395 0.6452
vn 0.4341 0.4845 0.7595
vn 0.3878 -0.8673 0.3122
vn 0.6377 -0.5744 0.5132
vn 0.4853 -0.8331 0.2654
vn 0.4166 -0.8385 0.3511
vn -0.0430 -0.0587 0.9973
vn -0.9267 0.2394 0.2896
vn -0.5944 -0.5398 -0.5961
vn -0.5632 -0.7684 -0.3040
vn -0.6770 -0.6147 -0.4047
vn -0.8476 -0.4212 -0.3229
vn -0.6879 -0.3700 -0.6244
vn -0.0380 -0.2258 -0.9734
vn -0.5116 -0.5529 -0.6577
vn -0.6424 -0.7018 -0.3078
vn 0.0737 -0.9134 -0.4004
vn -0.7057 0.0542 -0.7064
vn -0.6237 0.1816 0.7603
vn -0.6180 0.6326 0.4668
vn -0.6565 0.2215 0.7211
vn -0.6559 0.4058 0.6365
vn 0.2457 0.8011 0.5458
vn 0.6293 0.7665 0.1279
vn 0.2932 0.9559 -0.0186
vn 0.2939 0.9557 -0.0175
vn 0.2973 0.9547 -0.0124
vn -0.6721 0.7276 0.1371
vn -0.0574 0.9847 0.1644
vn -0.3324 -0.9012 -0.2782
vn -0.3270 -0.9022 -0.2813
vn -0.3335 -0.9010 -0.2775
vn -0.3766 -0.8825 -0.2818
vn -0.4116 -0.8902 -0.1955
vn -0.3785 -0.8994 -0.2187
vn 0.1251 -0.7223 -0.6802
vn -0.0176 -0.9715 -0.2365
vn 0.1707 -0.9849 0.0296
vn 0.5759 0.6692 0.4695
vn 0.4355 0.8487 0.3002
vn 0.3419 0.8222 0.4550
vn -0.9364 0.0558 0.3465
vn -0.9189 0.3946 0.0000
vn -0.0209 -0.0468 0.9987
vn -0.0235 -0.0379 0.9990
vn -0.0237 -0.0376 0.9990
vn -0.0203 -0.0466 0.9987
vn -0.0236 -0.0362 0.9991
vn 0.1370 -0.0287 0.9901
vn 0.0661 -0.0465 0.9967
vn -0.0169 -0.0096 0.9998
vn -0.0287 -0.1116 0.9933
vn 0.0160 -0.0341 0.9993
vn 0.4255 -0.7992 -0.4245
vn 0.1930 -0.8816 -0.4307
vn -0.0000 0.0002 -1.0000
vn 0.7037 0.6342 0.3204
vn 0.7486 0.6095 0.2609
vn 0.2979 0.9545 -0.0116
vn -0.9417 0.0657 0.3300
vn 0.7202 0.5864 -0.3707
vn 0.6708 0.3136 -0.6720
vn -0.7072 -0.7071 0.0000
vn -0.7063 -0.4485 0.5477
vn -0.8923 -0.4312 -0.1339
vn -0.2700 -0.8960 -0.3527
vn -0.5093 -0.7438 -0.4328
vn -0.2239 -0.3972 -0.8900
vn -1.0000 0.0000 -0.0002
vn -0.5977 -0.5661 -0.5677
vn 0.0603 0.8624 0.5027
vn 0.2399 0.6561 0.7155
vn 0.1520 0.7913 0.5923
vn 0.2410 0.7637 0.5989
vn 0.0951 0.7193 0.6882
vn -0.5387 -0.5440 -0.6433
vn -0.3155 -0.5254 -0.7902
vn 0.4600 0.2328 -0.8569
vn -0.5673 -0.2884 -0.7714
vn 0.0782 -0.7459 0.6615
vn 0.3018 -0.8097 0.5033
vn -0.0615 -0.5786 0.8133
vn 0.0309 -0.3794 0.9247
vn -0.0270 -0.6732 0.7390
vn -0.0984 -0.6020 0.7924
vn 0.0221 -0.6733 0.7390
vn -0.1074 0.2417 0.9644
vn -0.0786 0.2148 0.9735
vn -0.0354 0.3088 0.9505
vn -0.3637 0.3815 0.8498
vn -0.5406 -0.7050 -0.4591
vn -0.6082 -0.6569 -0.4456
vn -0.5183 -0.4446 -0.7306
vn -0.6547 -0.7071 -0.2671
vn 0.5030 -0.8087 -0.3049
vn -0.0007 -0.7077 -0.7065
vn -0.6088 -0.7592 0.2304
vn -0.4712 -0.8638 0.1784
vn -0.8230 -0.5624 0.0797
vn -0.5400 -0.8408 0.0372
vn -0.6658 -0.6855 0.2947
vn -0.4553 -0.5116 0.7286
vn -0.5789 -0.3675 0.7278
vn 0.6527 -0.4334 0.6214
vn -0.0453 -0.9255 -0.3761
vn -0.9571 -0.2688 -0.1081
vn -0.8413 -0.5343 0.0814
vn -0.0219 0.9987 -0.0451
vn -0.1794 0.3772 0.9086
vn 0.6468 0.5864 -0.4876
vn -1.0000 -0.0017 -0.0000
vn -0.9139 0.0346 0.4045
vn 0.5373 0.4531 0.7113
vn 0.4355 0.0448 0.8991
vn 0.3852 0.4679 0.7954
vn 0.0885 0.9042 0.4178
vn 0.0661 0.9127 0.4032
vn -0.3598 0.9106 -0.2035
vn -0.4001 0.8989 -0.1785
vn 0.1602 0.9816 0.1037
vn -0.0700 -0.0323 0.9970
vn -0.2357 -0.1079 0.9658
vn 0.1731 -0.0317 0.9844
vn -0.1490 -0.5993 0.7865
vn 0.6644 -0.4396 -0.6045
vn 0.6643 -0.4411 -0.6035
vn 0.6644 -0.4395 -0.6045
vn 0.6644 -0.4381 -0.6055
vn 0.7237 -0.4234 -0.5450
vn 0.1979 0.0885 -0.9762
vn 0.0004 -0.0001 1.0000
vn 0.0340 0.0758 0.9965
vn 0.2341 0.1843 0.9546
vn -0.0757 0.7724 0.6306
vn -0.0525 0.8263 0.5608
vn -0.1137 0.7319 0.6718
vn -0.0780 0.7529 0.6535
vn -0.2413 0.7329 0.6361
vn -0.0274 0.6835 0.7294
vn -0.1368 0.6773 0.7229
vn 0.2407 0.3235 0.9151
vn -0.0792 0.7953 0.6010
vn -0.2074 -0.5229 -0.8268
vn 0.0005 -0.6623 -0.7492
vn 0.0160 0.8061 -0.5916
vn 0.0199 0.9983 -0.0552
vn 0.0991 0.9547 -0.2804
vn 0.0001 1.0000 -0.0002
vn 0.0001 1.0000 -0.0003
vn 0.0220 0.9993 -0.0287
vn 0.0001 1.0000 -0.0001
vn 0.0000 1.0000 -0.0003
vn -0.1463 0.9892 -0.0002
vn 0.0181 0.6031 -0.7974
vn 0.5547 0.6396 -0.5322
vn -0.8101 0.0517 -0.5840
vn -0.7069 0.0000 -0.7073
vn -0.4808 -0.0000 0.8768
vn -0.7218 -0.4195 0.5505
vn -0.1717 0.8737 0.4551
vn -0.1302 0.9233 0.3612
vn 0.0652 0.9293 0.3637
vn 0.0679 0.9660 0.2494
vn 0.3865 0.2905 0.8753
vn 0.0831 0.3137 0.9459
vn 0.3700 0.4012 0.8380
vn 0.2213 0.2907 0.9309
vn 0.2430 0.3526 0.9037
vn 0.0870 0.3622 0.9280
vn 0.3138 0.1970 0.9288
vn 0.5034 0.4783 -0.7196
vn 0.3252 0.5235 -0.7876
vn 0.1144 0.7420 -0.6606
vn 0.4264 0.5710 0.7015
vn 0.4517 0.7272 0.5169
vn 0.5881 0.5464 0.5963
vn 0.5414 0.5680 0.6199
vn 0.6466 -0.5170 0.5609
vn 0.6479 -0.5181 0.5584
vn 0.6468 -0.5173 0.5604
vn 0.6374 -0.5366 0.5530
vn 0.9988 -0.0483 -0.0001
vn 0.1862 -0.0974 0.9777
vn 0.7059 -0.1206 0.6980
vn 0.6349 0.3289 -0.6990
vn 0.4869 -0.0227 -0.8731
vn 0.1119 0.7491 0.6529
vn -0.0279 0.6087 0.7929
vn 0.5434 -0.7286 -0.4169
vn 0.5387 -0.7341 -0.4134
vn 0.5431 -0.7289 -0.4169
vn 0.5896 -0.4955 0.6378
vn 0.6625 -0.3685 0.6522
vn 0.7009 -0.7014 0.1293
vn 0.4576 -0.8892 0.0028
vn 0.5238 -0.6271 -0.5765
vn 0.2728 -0.7083 -0.6510
vn 0.5387 -0.7343 -0.4131
vn 0.0733 -0.0989 0.9924
vn 0.2784 0.1522 0.9483
vn 0.1209 0.1574 0.9801
vn 0.4318 0.4343 0.7906
vn 0.6446 0.3068 0.7003
vn 0.6384 0.3490 0.6861
vn 0.5930 0.3645 0.7180
vn 0.4564 0.6064 0.6511
vn 0.7401 -0.1987 0.6425
vn 0.8023 -0.4618 0.3782
vn 0.8898 0.0759 -0.4499
vn -0.3853 -0.6524 0.6526
vn 0.7066 -0.3223 0.6299
vn 0.5331 -0.4317 0.7276
vn 0.4234 -0.4381 0.7930
vn 0.4329 -0.4266 0.7941
vn 0.3138 -0.0123 0.9494
vn 0.3181 -0.0099 0.9480
vn 0.3203 -0.0087 0.9473
vn 0.3121 -0.0132 0.9499
vn -0.2147 0.4816 0.8497
vn 0.7946 0.1596 -0.5857
vn 0.4608 0.3308 -0.8235
vn 0.4347 0.4556 -0.7769
vn 0.7917 0.1809 -0.5835
vn 0.6131 -0.4995 -0.6121
vn -0.2972 -0.4218 -0.8566
vn -0.6053 0.6292 -0.4876
vn -0.5146 0.6912 -0.5073
vn -0.6619 0.5109 0.5485
vn -0.6469 0.4994 0.5763
vn -0.4430 0.8355 0.3250
vn -0.2828 0.7912 0.5423
vn -0.0006 0.0006 1.0000
vn -0.6223 0.6457 0.4426
vn -0.1712 -0.8533 0.4925
vn -0.3925 -0.8790 0.2707
vn -0.1658 -0.8444 0.5094
vn -0.4300 0.6643 0.6114
vn -0.6147 0.6790 0.4014
vn -0.4086 0.6651 0.6251
vn -0.6245 0.6516 0.4307
vn 0.6599 0.1301 0.7400
vn 0.6609 0.1320 0.7388
vn 0.6611 0.1326 0.7385
vn 0.6597 0.1297 0.7403
vn 0.6496 0.1577 0.7438
vn 0.5897 -0.5901 0.5513
vn 0.6940 -0.4402 0.5697
vn 0.7068 -0.0443 -0.7060
vn 0.9145 -0.4027 -0.0397
vn 0.8583 -0.0538 -0.5104
vn 0.8520 -0.4850 -0.1972
vn 0.8342 0.0610 -0.5481
vn 0.1274 -0.1272 -0.9837
vn 0.3834 0.2356 -0.8930
vn 0.7294 0.0532 0.6820
vn 0.8077 0.4966 0.3178
vn -0.4665 -0.8723 -0.1467
vn -0.5061 -0.3165 -0.8023
vn 0.0191 0.5309 -0.8472
vn -0.7253 0.4652 -0.5074
vn -0.8288 -0.5184 -0.2108
vn -0.3805 -0.6727 0.6346
vn -0.3759 -0.6743 0.6356
vn -0.3726 -0.6731 0.6389
vn -0.3852 -0.6538 0.6512
vn -0.4005 0.4518 0.7971
vn -0.7417 0.3606 0.5656
vn -0.7417 0.3606 0.5655
vn -0.2363 0.9687 0.0756
vn -0.3469 -0.6512 0.6750
vn 0.0000 1.0000 0.0000
vn -0.0019 1.0000 -0.0021
vn -0.0003 1.0000 -0.0004
vn 0.2361 -0.8053 -0.5438
vn -0.5033 0.6993 -0.5076
vn 0.7409 0.5435 -0.3945
vn -0.0025 1.0000 -0.0027
vn -0.6749 -0.6792 -0.2883
vn -0.5912 -0.5951 -0.5444
vn -0.4601 -0.8276 -0.3217
vn -0.3257 -0.9024 -0.2821
vn -0.3557 -0.7931 -0.4945
vn -0.5758 -0.5774 -0.5788
vn 0.5757 -0.5934 0.5625
vn 0.4096 -0.8971 0.1655
vn 0.6483 -0.5183 0.5577
vn 0.5927 0.6278 -0.5045
vn -0.3258 0.8876 -0.3255
vn -0.5225 0.7585 -0.3895
vn 0.8948 0.4062 -0.1853
vn 0.5622 0.5952 -0.5742
vn -0.1886 -0.7174 0.6706
vn -0.0001 -0.8630 0.5053
vn 0.4478 -0.6903 0.5683
vn -0.7155 -0.3480 -0.6058
vn -0.2626 -0.7664 -0.5862
vn -0.3006 -0.8775 -0.3738
vn -0.0165 -0.8694 -0.4939
vn -0.0117 -0.8676 -0.4970
vn -0.0122 -0.8679 -0.4966
vn -0.0171 -0.8695 -0.4936
vn -0.0269 -0.6283 -0.7775
vn 0.0364 -0.5884 -0.8078
vn 0.6757 -0.3719 -0.6365
vn 0.6450 0.7630 -0.0410
vn 0.9132 -0.3536 -0.2026
vn 0.7068 -0.7068 -0.0280
vn -0.1958 0.6329 -0.7491
vn 0.0275 0.8263 -0.5626
vn -0.2711 0.7378 -0.6183
vn 1.0000 0.0006 -0.0023
vn -0.6178 -0.5528 0.5592
vn -0.5954 -0.5957 0.5392
vn -0.7061 -0.4763 0.5241
vn 0.1845 -0.3127 -0.9318
vn 0.0529 0.2678 -0.9620
vn 0.1280 -0.2292 -0.9649
vn 0.6450 0.4050 -0.6480
vn 0.0002 0.1819 -0.9833
vn 0.4277 0.0187 -0.9037
vn -0.2332 0.2884 -0.9287
vn -0.7519 -0.5071 -0.4213
vn -0.9045 -0.2980 -0.3051
vn -0.7907 -0.2607 -0.5539
vn -0.7453 -0.1411 -0.6517
vn 0.3743 0.7713 -0.5148
vn -0.4645 0.7195 -0.5163
vn 0.4462 0.1656 -0.8795
vn 0.0761 0.8167 -0.5721
vn 0.0561 0.8120 -0.5810
vn 0.4536 0.1821 -0.8724
vn 0.9505 -0.1263 0.2840
vn 0.0930 0.6228 0.7769
vn -0.3802 -0.5387 -0.7518
vn -0.4484 -0.1109 -0.8869
vn 0.9035 -0.4269 -0.0393
vn 0.6474 -0.6596 -0.3818
vn 0.9603 -0.1500 -0.2351
vn 0.4018 -0.4924 -0.7720
vn 0.0002 -0.0001 -1.0000
vn 0.9590 -0.1274 -0.2530
vn -0.9179 -0.0133 -0.3966
vn -0.8728 0.3099 -0.3772
vn 0.7687 0.1091 -0.6302
vn -0.7245 0.6804 0.1100
vn -0.6707 0.6844 0.2860
vn 0.1365 -0.9186 -0.3709
vn 0.0066 -0.0340 -0.9994
vn -0.7433 -0.4208 -0.5200
usemtl 85fc032eaee04650914faeb8ddd6a71e_013.jpg
s 1
f 1/1/1 2/2/1 3/3/1
f 4/4/2 5/5/2 6/6/2
f 7/7/3 8/8/3 9/9/3
f 10/10/4 11/11/4 12/12/4
f 21/13/5 22/14/5 19/15/5
f 22/14/5 23/16/5 19/15/5
f 15/17/6 24/18/7 8/8/8
f 24/18/7 25/19/9 8/8/8
f 25/19/9 26/20/10 8/8/8
f 25/19/9 27/21/11 26/20/10
f 25/19/9 28/22/12 27/21/11
f 26/20/10 29/23/13 8/8/8
f 25/19/9 30/24/14 28/22/12
f 26/20/10 31/25/15 29/23/13
f 31/25/15 32/26/16 29/23/13
f 31/25/15 33/27/17 32/26/16
f 34/28/18 37/29/18 35/30/18
f 37/29/19 32/26/19 35/30/19
f 32/26/16 33/27/17 35/30/20
f 33/27/21 38/31/21 35/30/21
f 38/31/22 39/32/22 35/30/22
f 37/29/23 29/23/23 32/26/24
f 40/33/25 41/34/25 42/35/25
f 40/33/26 43/36/26 41/34/26
f 42/35/27 44/37/27 40/33/27
f 45/38/28 44/37/28 46/39/28
f 45/38/29 40/33/29 44/37/29
f 47/40/30 48/41/31 49/42/31
f 50/43/32 49/42/32 51/44/32
f 50/43/33 52/45/33 49/42/33
f 52/45/34 53/46/34 49/42/34
f 49/42/31 48/41/31 51/44/35
f 54/47/36 55/48/36 56/49/36
f 56/49/37 57/50/37 54/47/37
f 56/49/38 46/39/39 57/50/40
f 46/39/39 58/51/41 57/50/40
f 46/39/42 44/37/42 58/51/42
f 54/47/43 59/52/43 55/48/43
f 44/37/44 42/35/44 58/51/44
f 60/53/45 61/54/46 62/55/47
f 62/55/47 59/56/48 60/53/45
f 62/55/49 63/57/49 59/56/49
f 63/57/50 55/58/50 59/56/50
f 41/34/51 1/1/51 3/3/51
f 41/34/52 43/36/52 1/1/52
f 3/3/53 64/59/53 41/34/53
f 65/60/54 66/61/54 67/62/54
f 65/60/55 68/63/55 66/61/55
f 64/59/56 5/5/56 69/64/56
f 67/62/57 66/61/57 70/65/57
f 2/2/58 64/59/59 3/3/60
f 2/2/58 5/5/61 64/59/59
f 71/66/62 72/67/62 73/68/62
f 73/68/63 51/44/63 71/66/63
f 73/68/64 50/43/64 51/44/64
f 60/53/65 74/69/65 75/70/65
f 75/70/66 76/71/66 60/53/66
f 76/71/67 61/54/67 60/53/67
f 77/72/68 78/73/68 79/74/68
f 79/74/69 75/70/69 77/72/69
f 77/72/70 80/75/70 78/73/70
f 80/75/71 81/76/71 78/73/71
f 75/70/72 74/69/72 77/72/72
f 82/77/73 5/5/73 4/4/73
f 82/77/74 69/64/74 5/5/74
f 83/78/75 84/79/75 85/80/75
f 83/78/76 65/60/76 84/79/76
f 84/79/77 86/81/77 85/80/77
f 84/79/78 87/82/78 86/81/78
f 87/82/79 88/83/79 86/81/79
f 80/75/80 89/84/80 90/85/80
f 80/75/81 77/72/81 89/84/81
f 82/86/82 9/9/82 91/87/82
f 91/87/83 92/88/83 82/86/83
f 37/29/23 8/8/84 29/23/23
f 37/29/85 9/9/85 8/8/85
f 37/29/86 91/87/86 9/9/86
f 37/29/87 93/89/87 91/87/87
f 94/90/88 95/91/89 96/92/90
f 96/92/90 86/81/91 94/90/88
f 96/92/92 97/93/92 86/81/92
f 97/93/93 85/80/93 86/81/93
f 81/94/94 12/12/94 11/11/94
f 81/94/95 98/95/95 12/12/95
f 11/11/96 78/96/96 81/94/96
f 98/95/97 99/97/97 12/12/97
f 99/97/98 100/98/98 12/12/98
f 101/99/99 102/100/99 103/101/99
f 104/102/100 87/103/100 84/104/100
f 88/83/101 105/105/101 94/90/101
f 88/83/102 106/106/102 105/105/102
f 105/105/103 107/107/104 94/90/105
f 107/107/104 108/108/106 94/90/105
f 106/106/107 109/109/107 105/105/107
f 109/109/108 110/110/108 105/105/108
f 109/109/109 111/111/109 110/110/109
f 94/90/110 86/81/110 88/83/110
f 112/112/111 28/22/111 113/113/111
f 112/112/112 27/21/112 28/22/112
f 114/114/113 113/113/113 28/22/113
f 115/115/114 116/116/114 117/117/114
f 115/115/115 118/118/115 116/116/115
f 117/117/116 119/119/116 115/115/116
f 110/110/117 111/111/117 120/120/117
f 121/121/118 122/122/118 123/123/118
f 123/123/119 109/109/119 121/121/119
f 123/123/120 120/120/120 109/109/120
f 122/122/121 124/124/121 123/123/121
f 120/120/122 111/111/122 109/109/122
f 121/121/123 109/109/123 106/106/123
f 123/123/124 124/124/124 125/125/124
f 130/126/125 65/60/126 67/62/126
f 84/79/125 65/60/126 130/126/125
f 131/127/127 132/128/128 133/129/129
f 133/129/129 134/130/130 135/131/131
f 133/129/129 132/128/128 134/130/130
f 136/132/132 137/133/132 138/134/132
f 139/135/133 71/66/133 140/136/133
f 141/137/134 142/138/134 143/139/134
f 144/140/135 100/98/135 99/97/135
f 145/141/136 146/142/136 147/143/136
f 148/144/137 14/145/137 149/146/137
f 14/145/138 150/147/138 149/146/138
f 75/148/139 151/149/139 152/150/139
f 75/148/140 79/151/140 151/149/140
f 152/150/141 76/152/141 75/148/141
f 152/150/142 153/153/142 76/152/142
f 154/154/143 53/155/144 155/156/145
f 154/154/146 156/157/146 53/155/146
f 53/155/144 157/158/147 155/156/145
f 155/156/148 158/159/148 154/154/148
f 158/159/149 138/134/149 154/154/149
f 138/134/150 137/133/150 154/154/150
f 137/133/151 159/160/151 154/154/151
f 157/158/152 160/161/152 155/156/152
f 161/162/153 162/163/153 163/164/153
f 161/162/154 154/165/154 162/163/154
f 154/154/155 159/160/155 162/166/155
f 159/167/156 47/40/156 164/168/156
f 164/168/157 162/169/157 159/167/157
f 165/170/158 166/171/158 167/172/158
f 71/173/159 168/174/159 169/175/159
f 71/173/160 51/176/160 168/174/160
f 51/176/161 136/132/161 168/174/161
f 169/175/162 140/177/162 71/173/162
f 169/178/163 170/179/163 140/136/163
f 47/40/164 137/180/164 136/181/164
f 47/40/165 159/167/165 137/180/165
f 171/182/166 160/161/166 172/183/166
f 171/182/167 155/156/167 160/161/167
f 171/182/168 173/184/168 158/159/168
f 171/182/169 166/171/169 173/184/169
f 158/159/170 155/156/170 171/182/170
f 171/182/171 167/172/171 166/171/171
f 138/134/172 173/184/172 168/174/172
f 138/134/173 158/159/173 173/184/173
f 173/184/174 174/185/174 168/174/174
f 173/184/175 175/186/175 174/185/175
f 168/174/176 136/132/176 138/134/176
f 151/149/177 176/187/177 142/138/177
f 151/149/178 79/151/178 176/187/178
f 176/187/179 143/139/179 142/138/179
f 142/138/180 175/186/181 151/149/182
f 175/186/183 166/171/183 151/149/183
f 79/151/184 78/96/184 176/187/184
f 175/186/185 173/184/185 166/171/185
f 78/96/186 11/11/186 176/187/186
f 169/175/187 174/185/187 177/188/187
f 169/175/188 168/174/188 174/185/188
f 177/188/189 178/189/189 169/175/189
f 174/185/190 142/138/190 179/190/190
f 179/190/191 177/188/191 174/185/191
f 174/185/192 175/186/181 142/138/180
f 179/190/193 180/191/193 177/188/193
f 142/138/194 141/137/194 179/190/194
f 181/192/195 182/193/195 141/137/195
f 141/137/196 143/139/196 181/192/196
f 143/139/197 183/194/197 181/192/197
f 182/193/198 184/195/198 141/137/198
f 143/139/199 185/196/199 183/194/199
f 143/139/200 186/197/200 185/196/200
f 143/139/201 176/187/201 186/197/201
f 186/197/202 187/198/202 185/196/202
f 184/195/203 179/190/203 141/137/203
f 176/187/204 11/11/204 10/10/204
f 10/10/205 186/197/205 176/187/205
f 100/98/206 144/140/207 187/198/208
f 187/198/209 186/197/209 100/98/209
f 144/140/207 188/199/210 187/198/208
f 186/197/211 12/12/211 100/98/211
f 36/200/212 35/30/212 189/201/212
f 35/30/213 39/32/213 189/201/213
f 71/66/214 190/202/215 72/67/216
f 71/66/214 139/135/217 190/202/215
f 170/179/218 119/119/218 190/202/218
f 170/179/219 115/115/219 119/119/219
f 190/202/220 139/135/220 170/179/220
f 139/135/221 140/136/221 170/179/221
f 170/179/222 178/203/222 115/115/222
f 170/179/223 169/178/223 178/203/223
f 178/203/224 118/118/224 115/115/224
f 178/203/225 191/204/225 118/118/225
f 178/203/226 192/205/226 191/204/226
f 180/191/227 146/142/227 145/141/227
f 180/191/228 179/190/228 146/142/228
f 179/190/229 184/195/229 146/142/229
f 184/195/230 193/206/230 146/142/230
f 183/194/231 194/207/231 195/208/231
f 183/194/232 185/196/232 194/207/232
f 196/209/233 197/210/234 198/211/235
f 191/204/236 150/147/236 116/116/236
f 116/116/237 118/118/237 191/204/237
f 192/212/238 145/141/238 199/213/238
f 192/212/239 180/191/239 145/141/239
f 192/212/240 177/188/240 180/191/240
f 192/212/241 178/189/241 177/188/241
f 184/195/242 201/214/242 199/213/242
f 184/195/243 182/193/243 201/214/243
f 199/213/244 145/141/244 184/195/244
f 145/141/245 193/206/245 184/195/245
f 148/144/246 191/204/246 192/205/246
f 20/215/247 198/211/247 197/210/248
f 20/215/249 202/216/249 198/211/249
f 191/204/250 149/146/250 150/147/250
f 191/204/251 148/144/251 149/146/251
f 200/217/252 199/213/252 201/214/252
f 182/193/253 203/218/253 204/219/253
f 204/219/254 201/214/254 182/193/254
f 51/44/255 48/41/255 136/181/256
f 48/41/255 47/40/256 136/181/256
usemtl 85fc032eaee04650914faeb8ddd6a71e_014.jpg
f 206/220/257 207/221/257 208/222/257
f 209/223/258 210/224/258 52/225/258
f 211/226/259 212/227/259 213/228/259
f 214/229/260 215/230/260 216/231/260
f 59/232/261 54/233/261 217/234/261
f 218/235/262 211/236/262 219/237/262
f 76/238/263 153/239/263 220/240/263
f 221/241/264 222/242/264 223/243/264
f 130/244/265 67/245/266 224/246/266
f 225/247/267 31/248/267 226/249/267
f 227/250/268 228/251/268 229/252/268
f 230/253/269 231/254/269 232/255/269
f 108/256/270 95/257/270 94/258/270
f 233/259/271 107/260/271 105/261/271
f 234/262/272 235/263/272 236/264/272
f 237/265/273 238/266/273 239/267/273
f 125/268/274 124/269/274 122/270/274
f 125/271/275 122/272/275 240/273/275
f 40/274/276 245/275/276 246/276/276
f 40/274/277 45/277/277 245/275/277
f 246/276/278 43/278/278 40/274/278
f 245/275/279 247/279/279 246/276/279
f 46/280/280 68/281/280 45/282/280
f 46/280/281 248/283/281 68/281/281
f 68/281/282 249/284/282 45/282/282
f 45/277/283 249/285/283 250/286/283
f 250/286/284 245/275/284 45/277/284
f 206/287/285 163/288/286 251/289/287
f 251/289/287 207/290/288 206/287/285
f 206/287/285 161/291/289 163/288/286
f 164/292/290 47/293/290 49/294/290
f 49/294/291 156/295/291 164/292/291
f 156/295/292 252/296/292 164/292/292
f 52/297/293 210/298/293 53/299/293
f 50/300/294 253/301/294 219/237/294
f 50/300/295 73/302/295 253/301/295
f 219/237/296 52/303/296 50/300/296
f 219/237/297 209/304/297 52/303/297
f 219/237/298 254/305/298 209/304/298
f 219/306/299 211/307/299 254/308/299
f 46/309/300 56/310/300 255/311/300
f 255/312/301 248/283/301 46/280/301
f 56/310/302 256/313/303 255/311/304
f 256/313/305 257/314/305 255/311/305
f 256/313/306 258/315/306 257/314/306
f 259/316/307 260/317/307 157/318/307
f 157/318/308 53/299/308 259/316/308
f 53/299/309 210/298/309 259/316/309
f 259/319/310 209/223/310 261/320/310
f 259/319/311 210/224/311 209/223/311
f 261/320/312 262/321/312 259/319/312
f 262/322/313 263/323/313 260/317/313
f 260/317/314 259/316/314 262/322/314
f 256/324/303 56/325/302 212/326/315
f 212/326/316 211/327/316 256/324/316
f 56/328/317 55/329/317 212/330/317
f 55/331/318 263/332/318 212/333/318
f 55/334/319 260/317/319 263/323/319
f 263/335/320 264/336/320 212/337/320
f 55/334/321 63/338/321 260/317/321
f 265/339/322 266/340/322 267/341/322
f 267/341/323 268/342/323 265/339/323
f 267/341/324 269/343/324 268/342/324
f 269/343/325 270/344/325 268/342/325
f 270/344/326 271/345/326 268/342/326
f 270/344/327 272/346/327 271/345/327
f 62/347/328 272/348/328 273/349/328
f 62/347/329 271/350/329 272/348/329
f 62/351/330 273/352/330 63/338/330
f 271/350/331 62/347/331 220/353/331
f 220/353/332 268/354/332 271/350/332
f 62/347/333 61/355/333 220/353/333
f 220/353/334 274/356/334 268/354/334
f 268/342/335 274/357/335 275/358/335
f 275/358/336 265/339/336 268/342/336
f 274/359/337 276/360/337 275/361/337
f 43/278/338 246/276/338 1/362/338
f 65/363/339 250/286/339 249/285/339
f 249/285/340 68/364/340 65/363/340
f 65/363/341 83/365/341 250/286/341
f 248/366/342 277/367/342 66/368/342
f 66/368/343 68/369/343 248/366/343
f 248/366/344 255/311/344 277/367/344
f 277/367/345 278/370/345 66/368/345
f 278/370/346 70/371/346 66/368/346
f 42/372/347 279/373/347 280/374/347
f 42/375/348 41/376/348 279/377/348
f 41/376/349 64/378/349 279/377/349
f 64/378/350 69/379/350 279/377/350
f 255/311/351 281/380/351 277/367/351
f 255/311/352 257/314/352 281/380/352
f 70/381/353 278/382/353 57/383/353
f 57/384/354 58/385/354 70/386/354
f 70/386/355 280/387/355 224/388/355
f 70/386/356 58/385/356 280/387/356
f 58/385/357 42/375/357 280/387/357
f 224/246/358 67/245/358 70/389/358
f 282/390/359 214/391/360 216/392/361
f 216/392/361 254/305/362 282/390/359
f 216/392/363 261/393/363 254/305/363
f 261/393/364 209/304/364 254/305/364
f 54/394/365 257/395/365 258/396/365
f 54/394/366 57/397/366 257/395/366
f 57/397/367 281/398/367 257/395/367
f 258/396/368 283/399/368 54/394/368
f 258/396/369 218/400/369 283/399/369
f 57/397/370 278/401/370 281/398/370
f 278/401/371 277/402/371 281/398/371
f 283/399/372 217/403/372 54/394/372
f 216/231/373 215/230/373 262/404/373
f 262/404/374 261/405/374 216/231/374
f 211/236/375 218/235/375 258/406/375
f 258/406/376 256/407/376 211/236/376
f 262/408/377 215/409/377 264/410/377
f 264/411/378 263/323/378 262/322/378
f 215/412/379 213/228/379 212/227/379
f 212/413/380 264/414/380 215/415/380
f 215/416/381 282/417/381 213/418/381
f 215/416/382 214/419/382 282/417/382
f 273/352/383 157/318/383 260/317/383
f 273/420/384 172/421/384 157/422/384
f 260/317/385 63/338/385 273/352/385
f 273/420/386 270/344/386 172/421/386
f 273/420/387 272/346/387 270/344/387
f 172/421/388 160/423/388 157/422/388
f 60/424/389 284/425/389 74/426/389
f 284/425/390 77/427/390 74/426/390
f 284/425/391 89/428/391 77/427/391
f 60/424/392 59/429/392 217/430/392
f 153/431/393 223/432/393 276/360/393
f 276/360/394 220/433/394 153/431/394
f 223/432/395 285/434/396 276/360/397
f 153/431/398 152/435/398 223/432/398
f 276/360/399 274/359/399 220/433/399
f 286/436/400 287/437/401 288/438/402
f 288/438/403 247/279/403 286/436/403
f 288/438/404 6/439/404 247/279/404
f 6/439/405 1/362/405 247/279/405
f 6/439/406 2/440/406 1/362/406
f 1/362/407 246/276/407 247/279/407
f 6/439/408 5/441/408 2/440/408
f 84/442/409 224/388/409 279/377/409
f 279/377/410 101/443/410 84/442/410
f 84/444/265 130/244/265 224/246/266
f 224/388/411 280/387/411 279/377/411
f 254/308/412 213/418/412 282/417/412
f 254/308/413 211/307/413 213/418/413
f 253/301/414 289/445/415 284/446/416
f 253/301/414 290/447/417 289/445/415
f 289/445/415 291/448/418 284/446/416
f 284/446/419 218/235/419 253/301/419
f 290/447/420 239/449/420 289/445/420
f 284/446/421 283/450/421 218/235/421
f 218/235/422 219/237/422 253/301/422
f 290/447/423 237/451/423 239/449/423
f 292/452/424 266/340/424 293/453/424
f 292/452/425 267/341/425 266/340/425
f 292/452/426 294/454/426 267/341/426
f 275/361/427 276/360/427 292/455/427
f 292/455/428 293/456/428 275/361/428
f 276/360/397 285/434/396 292/455/429
f 76/457/430 220/353/430 61/355/430
f 265/458/431 275/361/431 293/456/431
f 293/459/432 266/460/432 265/461/432
f 4/462/433 9/463/433 82/464/433
f 4/462/434 34/465/434 9/463/434
f 34/465/435 7/466/435 9/463/435
f 247/279/436 250/286/436 83/365/436
f 83/365/437 286/436/437 247/279/437
f 83/365/438 85/467/438 286/436/438
f 247/279/439 245/275/439 250/286/439
f 85/467/440 97/468/440 286/436/440
f 101/443/441 69/379/441 295/469/441
f 101/443/442 279/377/442 69/379/442
f 295/469/443 296/470/443 101/443/443
f 296/470/444 297/471/444 101/443/444
f 297/471/445 102/472/445 101/443/445
f 6/439/446 288/438/446 93/473/446
f 93/473/447 4/474/447 6/439/447
f 93/473/448 34/475/448 4/474/448
f 93/473/449 37/476/449 34/475/449
f 82/477/450 295/478/450 69/479/450
f 82/477/451 92/480/451 295/478/451
f 190/481/452 290/447/452 253/301/452
f 253/301/453 72/482/453 190/481/453
f 190/481/454 119/483/454 290/447/454
f 253/301/455 73/302/455 72/482/455
f 119/483/456 117/484/456 290/447/456
f 284/446/457 298/485/457 90/486/457
f 284/446/458 291/448/458 298/485/458
f 291/448/459 299/487/459 298/485/459
f 90/486/460 89/488/460 284/446/460
f 287/437/461 33/489/461 225/490/461
f 225/490/462 288/438/462 287/437/462
f 33/489/463 31/491/463 225/490/463
f 225/490/464 92/480/464 288/438/464
f 92/480/465 93/473/465 288/438/465
f 92/480/466 91/492/466 93/473/466
f 92/480/467 226/493/467 296/494/467
f 296/494/468 295/478/468 92/480/468
f 226/493/469 300/495/469 296/494/469
f 92/480/470 225/490/470 226/493/470
f 300/495/471 301/496/471 296/494/471
f 302/497/472 31/498/472 26/499/472
f 302/500/473 226/249/473 31/248/473
f 26/499/474 230/501/474 302/497/474
f 24/502/475 302/503/475 25/504/475
f 24/505/476 300/506/476 302/507/476
f 300/495/477 226/493/477 302/508/477
f 301/509/478 303/510/478 232/255/478
f 301/511/479 15/512/479 303/513/479
f 303/510/480 304/514/480 232/255/480
f 301/515/481 24/505/481 15/516/481
f 301/515/482 300/506/482 24/505/482
f 232/517/483 297/471/483 296/470/483
f 296/518/484 301/519/484 232/520/484
f 232/517/485 231/521/485 297/471/485
f 101/443/486 103/522/486 104/523/486
f 104/523/487 84/442/487 101/443/487
f 81/524/488 298/525/488 98/526/488
f 81/524/489 90/527/489 298/525/489
f 81/524/490 80/528/490 90/527/490
f 27/529/491 231/530/491 230/531/491
f 230/531/492 26/532/492 27/529/492
f 27/529/493 112/533/493 231/530/493
f 112/533/494 305/534/494 231/530/494
f 302/503/495 230/253/496 232/255/497
f 232/255/497 25/504/498 302/503/495
f 232/255/499 304/514/499 25/504/499
f 304/514/500 30/535/500 25/504/500
f 303/513/501 16/536/501 114/537/501
f 303/513/502 15/512/502 16/536/502
f 16/538/503 306/539/503 114/540/503
f 307/541/504 308/542/504 103/522/504
f 103/522/505 309/543/505 307/541/505
f 103/522/506 306/539/506 309/543/506
f 103/522/507 310/544/507 306/539/507
f 103/522/508 305/545/508 310/544/508
f 103/522/509 102/472/509 305/545/509
f 102/472/510 231/521/510 305/545/510
f 102/472/511 297/471/511 231/521/511
f 310/544/512 114/540/512 306/539/512
f 95/546/513 108/547/513 311/548/513
f 311/548/514 96/549/514 95/546/514
f 104/550/515 312/551/515 106/552/515
f 106/552/516 88/553/516 104/550/516
f 88/553/517 87/554/517 104/550/517
f 98/526/518 299/555/519 144/556/519
f 98/526/520 298/525/520 299/555/520
f 144/556/519 99/557/521 98/526/518
f 299/555/519 313/558/519 144/556/519
f 313/558/519 188/559/522 144/556/519
f 313/558/523 314/560/523 188/559/523
f 28/561/524 303/510/524 114/562/524
f 28/561/525 304/514/525 303/510/525
f 28/561/526 30/535/526 304/514/526
f 114/563/527 310/564/527 113/565/527
f 305/534/528 113/566/528 310/567/528
f 305/534/529 112/533/529 113/566/529
f 104/523/530 103/522/530 308/542/530
f 308/542/531 312/568/531 104/523/531
f 308/542/532 315/569/532 312/568/532
f 315/569/533 316/570/533 312/568/533
f 306/539/534 17/571/534 317/572/534
f 306/539/535 16/538/535 17/571/535
f 317/572/536 309/543/536 306/539/536
f 291/448/537 289/445/537 318/573/537
f 318/573/538 313/574/538 291/448/538
f 313/574/539 299/487/539 291/448/539
f 289/445/540 319/575/540 318/573/540
f 185/576/541 187/577/541 314/578/541
f 314/578/542 194/579/542 185/576/542
f 187/577/543 188/580/543 314/578/543
f 313/581/544 318/582/544 194/583/544
f 194/584/545 314/560/545 313/558/545
f 318/582/546 195/585/546 194/583/546
f 318/582/547 320/586/547 195/585/547
f 321/587/548 322/588/549 323/589/550
f 321/587/551 22/590/551 322/588/551
f 321/587/552 23/591/552 22/590/552
f 129/592/553 324/593/553 317/594/553
f 317/594/554 17/595/554 129/592/554
f 19/596/555 321/597/555 325/598/555
f 19/596/556 23/599/556 321/597/556
f 21/600/557 196/601/557 322/602/557
f 322/602/558 22/603/558 21/600/558
f 324/604/559 325/598/560 326/605/561
f 324/593/562 19/606/562 325/607/562
f 324/593/563 129/592/563 19/606/563
f 323/589/564 327/608/564 234/609/564
f 234/609/565 321/587/565 323/589/565
f 234/262/566 325/598/566 321/597/566
f 234/262/567 236/264/567 325/598/567
f 236/264/568 326/605/561 325/598/560
f 317/594/569 324/593/569 326/610/569
f 326/611/570 307/541/570 317/572/570
f 307/541/571 309/543/571 317/572/571
f 235/612/572 328/613/572 308/542/572
f 308/542/573 307/541/573 235/612/573
f 307/541/574 326/611/574 235/612/574
f 326/611/575 236/614/575 235/612/575
f 328/613/576 315/569/576 308/542/576
f 327/608/577 328/615/577 235/616/577
f 327/608/578 329/617/578 328/615/578
f 329/617/579 330/618/579 328/615/579
f 330/619/580 331/620/580 328/621/580
f 235/616/581 234/609/581 327/608/581
f 116/622/582 150/623/582 237/451/582
f 237/451/583 290/447/583 116/622/583
f 290/447/584 117/484/584 116/622/584
f 289/445/585 332/624/586 319/575/587
f 289/445/585 239/449/588 332/624/586
f 239/449/589 333/625/589 332/624/589
f 181/626/590 320/627/590 334/628/590
f 181/626/591 183/629/591 320/627/591
f 183/629/592 195/630/592 320/627/592
f 334/628/593 203/631/593 181/626/593
f 110/632/594 120/633/594 335/634/594
f 123/635/595 336/636/595 120/637/595
f 121/638/596 312/551/596 316/639/596
f 121/638/597 106/552/597 312/551/597
f 128/640/598 315/641/598 328/642/598
f 128/640/599 122/643/599 315/641/599
f 128/640/600 242/644/600 122/643/600
f 122/645/601 316/570/601 315/569/601
f 242/646/602 240/647/602 122/648/602
f 122/645/603 121/649/603 316/570/603
f 238/650/604 237/651/604 337/652/604
f 337/652/605 338/653/605 238/650/605
f 237/651/606 150/654/606 337/652/606
f 238/655/607 244/656/607 333/657/607
f 238/655/608 243/658/608 244/656/608
f 333/657/609 239/659/609 238/655/609
f 238/655/610 338/660/610 243/658/610
f 319/575/611 334/661/612 320/662/613
f 319/575/611 332/624/614 334/661/612
f 320/662/615 318/573/615 319/575/615
f 339/663/616 336/664/616 340/665/616
f 339/663/617 120/666/617 336/664/617
f 339/667/618 335/634/618 120/633/618
f 335/634/619 341/668/619 330/669/619
f 335/634/620 339/667/620 341/668/620
f 341/668/621 331/670/621 330/669/621
f 339/667/622 126/671/622 341/668/622
f 340/672/623 336/636/623 123/635/623
f 123/635/624 125/673/624 340/672/624
f 340/665/625 126/674/625 339/663/625
f 340/665/626 125/675/626 126/674/626
f 127/676/627 341/677/627 126/678/627
f 127/676/628 342/679/628 341/677/628
f 125/271/629 240/273/629 242/680/629
f 344/681/630 346/682/630 343/683/630
f 342/679/631 331/620/631 341/677/631
f 241/684/632 150/654/633 14/685/634
f 241/684/635 337/652/635 150/654/635
f 332/624/636 333/625/636 244/686/636
f 60/424/637 217/430/638 284/425/638
f 217/430/638 283/687/638 284/425/638
f 207/688/639 251/689/639 208/690/639
f 156/691/640 49/692/640 53/693/640
f 223/432/641 152/435/642 221/694/643
f 347/695/644 227/696/644 229/697/644
f 147/698/645 146/699/645 193/700/645
f 193/701/646 145/702/646 147/703/646
f 151/704/647 221/694/643 152/435/642
f 38/705/648 33/489/648 287/437/648
f 287/437/649 348/706/649 38/705/649
f 287/437/650 311/548/650 348/706/650
f 287/437/401 286/436/400 311/548/651
f 286/436/652 96/549/652 311/548/652
f 286/436/653 97/468/653 96/549/653
f 323/589/654 349/707/654 329/617/654
f 329/617/655 327/608/655 323/589/655
f 323/708/550 322/709/549 349/710/656
f 208/711/657 154/712/657 161/713/657
f 208/690/658 156/714/658 154/715/658
f 208/690/659 251/689/659 156/714/659
f 251/689/660 252/716/660 156/714/660
f 161/713/661 206/717/661 208/711/661
f 251/718/662 164/292/662 252/296/662
f 251/718/663 163/719/663 164/292/663
f 163/719/664 162/720/664 164/292/664
f 172/421/665 167/721/665 171/722/665
f 172/421/666 270/344/666 167/721/666
f 270/344/667 269/343/667 167/721/667
f 267/341/668 294/454/669 350/723/670
f 350/723/670 269/343/671 267/341/668
f 350/723/672 167/721/672 269/343/672
f 350/723/673 165/724/673 167/721/673
f 285/725/674 222/726/674 350/727/674
f 285/728/675 223/729/675 222/730/675
f 350/727/676 294/731/676 285/725/676
f 294/731/677 292/732/677 285/725/677
f 165/733/678 222/734/678 151/735/678
f 165/733/679 350/736/679 222/734/679
f 222/734/680 221/737/680 151/735/680
f 166/738/681 165/739/681 151/740/681
f 228/741/682 348/706/682 311/548/682
f 228/741/683 227/696/683 348/706/683
f 227/696/684 347/695/684 348/706/684
f 229/252/685 107/260/685 351/742/685
f 229/252/686 108/743/686 107/260/686
f 107/260/687 352/744/687 351/742/687
f 107/260/688 233/259/688 352/744/688
f 229/252/689 228/251/689 108/743/689
f 351/742/690 189/745/690 229/252/690
f 228/251/691 311/746/691 108/743/691
f 38/705/692 348/706/692 347/695/692
f 347/695/693 39/747/693 38/705/693
f 347/695/694 189/748/694 39/747/694
f 347/695/695 229/697/695 189/748/695
f 186/749/696 10/750/696 12/751/696
f 189/745/697 351/742/697 36/752/697
f 18/753/698 352/744/698 20/754/698
f 18/753/699 351/742/699 352/744/699
f 18/753/700 36/752/700 351/742/700
f 352/744/701 202/755/701 20/754/701
f 349/756/702 196/757/702 198/758/702
f 349/710/703 322/709/703 196/759/703
f 110/760/704 233/259/704 105/261/704
f 110/760/705 352/744/705 233/259/705
f 335/634/706 330/669/706 349/756/706
f 349/756/707 110/632/707 335/634/707
f 349/756/708 202/761/708 110/632/708
f 202/761/709 352/762/709 110/632/709
f 330/669/710 329/763/710 349/756/710
f 349/756/711 198/758/711 202/761/711
f 200/764/712 201/765/712 346/766/712
f 201/765/713 343/767/713 346/766/713
f 182/768/714 181/769/714 203/770/714
f 345/771/715 343/767/715 201/765/715
f 201/765/716 204/772/716 345/771/716
f 200/773/717 353/774/717 205/775/717
f 353/776/718 200/777/718 346/682/718
f 346/682/719 344/681/719 353/776/719
