# Blender v2.91.2 OBJ File: ''
# www.blender.org
mtllib table_4.mtl
o table_4_part_2.003_85fc032eaee04650914faeb8ddd6a71e.004_part_2.003_.036
v 6.963315 -5.814393 0.340589
v 6.939793 -5.814370 0.365581
v 6.986623 -5.814025 0.363786
v 7.010384 -5.931950 0.340546
v 6.963313 -5.955468 0.365745
v 6.986766 -5.931968 0.365178
v 7.057466 -6.096498 0.341415
v 7.033891 -6.073022 0.342033
v 7.080816 -6.073047 0.340187
v 7.221949 -6.449235 0.351946
v 7.198440 -6.425710 0.344083
v 7.245512 -6.441733 0.375759
v 7.386539 -6.355177 0.341698
v 7.363027 -6.331669 0.341515
v 7.410051 -6.331666 0.341218
v 7.386536 -6.308149 0.340939
v 7.457077 -5.696827 0.000722
v 7.457077 -5.673317 0.028224
v 7.433565 -5.673316 0.000688
v 7.480588 -5.673317 0.000704
v 7.574634 -5.884934 0.340782
v 7.551126 -5.884930 0.316885
v 7.551156 -5.861411 0.340771
v 7.457077 -5.649807 0.000670
v 6.887885 -5.861349 0.375559
v 7.010334 -6.049520 0.365992
v 7.042778 -6.190624 0.375689
v 7.080869 -6.167081 0.365623
v 7.104370 -6.167090 0.365498
v 6.963305 -5.931958 0.365812
v 7.033837 -6.026012 0.365617
v 7.104379 -6.190596 0.366074
v 7.174778 -6.425739 0.417174
v 6.892845 -5.814316 0.411548
v 7.129797 -6.402313 0.352301
v 7.051614 -6.237668 0.352224
v 7.173218 -6.449285 0.399256
v 6.881734 -5.814423 0.375709
v 6.939976 -5.838210 0.349095
v 6.986807 -5.884903 0.340264
v 7.080859 -5.711828 0.375653
v 7.221786 -5.673026 0.364828
v 7.268996 -5.615899 0.375685
v 7.268960 -5.649766 0.366330
v 7.245425 -5.696747 0.365208
v 7.104405 -5.720302 0.410293
v 7.468754 -6.308121 0.415144
v 7.504059 -6.108254 0.413109
v 7.245388 -6.026006 0.413106
v 7.269023 -6.402255 0.416898
v 7.621722 -5.743828 0.409438
v 7.504085 -5.555755 0.408183
v 7.315998 -5.626272 0.409037
v 7.057363 -6.026002 0.340387
v 7.127832 -6.167109 0.340230
v 7.033883 -6.049513 0.341361
v 7.057363 -6.237624 0.346304
v 7.151415 -6.425712 0.344589
v 7.080876 -6.190593 0.340846
v 7.292461 -6.331639 0.340928
v 7.280707 -6.343398 0.341216
v 7.351261 -6.296382 0.340065
v 7.504135 -6.237636 0.339212
v 7.280734 -6.378690 0.342799
v 7.198387 -6.355128 0.340917
v 7.104388 -6.214110 0.344938
v 7.127872 -6.190606 0.340699
v 7.174925 -6.445243 0.351964
v 7.174928 -6.450807 0.399179
v 7.198451 -6.449251 0.405019
v 7.515877 -6.296379 0.415006
v 7.292492 -6.431274 0.375633
v 7.269004 -6.428507 0.374080
v 7.363034 -6.355192 0.366288
v 7.245473 -6.425736 0.372525
v 7.386531 -6.378670 0.366278
v 7.457076 -6.346198 0.370951
v 7.433567 -6.331670 0.365790
v 7.504096 -6.319895 0.366274
v 7.551135 -6.261148 0.365691
v 7.527614 -6.296396 0.366029
v 7.410069 -6.308193 0.366042
v 7.268979 -5.696829 0.340394
v 7.292492 -5.649773 0.343822
v 7.292461 -5.626226 0.375689
v 7.527611 -5.519535 0.375657
v 7.504073 -5.555751 0.343154
v 7.598147 -5.767376 0.341658
v 7.527681 -5.814361 0.340747
v 7.386435 -5.673135 0.340600
v 7.245411 -5.720139 0.347601
v 7.539364 -5.908387 0.411075
v 7.524701 -5.755579 0.409747
v 7.427681 -5.767330 0.410056
v 7.551121 -6.314540 0.375610
v 7.527611 -6.310888 0.394373
v 7.539369 -6.303659 0.368610
v 7.274824 -6.325755 0.340491
v 7.554029 -6.275780 0.414601
v 7.615742 -6.249311 0.414128
v 7.551166 -6.214155 0.339407
v 7.468818 -6.108283 0.312202
v 7.598191 -6.155342 0.339637
v 7.386431 -5.884741 0.292527
v 7.363029 -5.884933 0.271805
v 7.363017 -5.861398 0.296218
v 7.410057 -5.837912 0.308952
v 7.409861 -5.861314 0.293306
v 7.386380 -5.814138 0.310601
v 7.527598 -5.884935 0.328714
v 7.198609 -5.720640 0.341695
v 7.198312 -5.931842 0.304401
v 7.033759 -5.884746 0.338191
v 7.409767 -5.884652 0.292525
v 7.245392 -5.955497 0.281358
v 7.292498 -5.931958 0.264582
v 7.221908 -6.002514 0.292135
v 7.269015 -6.120051 0.285920
v 7.527622 -5.931952 0.328602
v 7.527637 -6.002490 0.323536
v 7.410058 -5.908451 0.307204
v 7.292421 -6.120038 0.284537
v 7.315999 -5.955463 0.288852
v 7.557017 -6.102405 0.326035
v 7.222122 -5.697127 0.343957
v 7.221952 -5.720343 0.365232
v 7.576408 -5.579270 0.352163
v 7.527611 -5.532228 0.355595
v 7.598151 -5.955465 0.340580
v 7.574638 -5.955466 0.317609
v 7.574662 -5.931947 0.340681
v 7.645201 -5.750909 0.375681
v 7.626620 -5.743851 0.352126
v 7.762766 -6.002468 0.345539
v 7.645172 -5.861423 0.341328
v 7.677582 -5.837888 0.375689
v 7.762730 -6.190502 0.413113
v 7.762755 -6.072996 0.412105
v 7.598151 -5.696828 0.409063
v 7.809781 -6.143496 0.412191
v 7.809750 -6.197806 0.375587
v 7.621661 -6.261121 0.366269
v 7.824267 -6.167109 0.375528
v 7.527610 -5.542931 0.399192
v 7.621632 -6.002497 0.340482
v 7.768436 -6.025942 0.349643
v 7.645216 -6.096528 0.339867
v 7.809783 -6.143539 0.344646
v 7.621686 -6.237585 0.340725
v 7.815203 -6.096489 0.349489
v 7.527638 -6.237587 0.339468
v 7.598148 -5.626295 0.349621
v 7.598151 -5.649805 0.389616
v 7.604228 -5.649806 0.375666
v 7.621699 -5.720329 0.399191
v 7.815350 -6.143566 0.399180
v 7.639303 -6.243440 0.414059
v 7.598058 -6.002516 0.329053
v 7.316000 -5.931951 0.265610
vt 0.889034 0.004845
vt 0.883785 0.006757
vt 0.889689 0.007080
vt 0.708952 0.180771
vt 0.708674 0.189423
vt 0.710651 0.184393
vt 0.681368 0.184470
vt 0.686403 0.186459
vt 0.683340 0.179456
vt 0.618169 0.182959
vt 0.623150 0.184900
vt 0.617920 0.179053
vt 0.965145 0.168252
vt 0.967010 0.163610
vt 0.960067 0.166471
vt 0.961932 0.161820
vt 0.927117 0.002681
vt 0.923202 0.007080
vt 0.928326 0.007080
vt 0.922607 0.001993
vt 0.679325 0.093575
vt 0.680689 0.096984
vt 0.684357 0.095544
vt 0.727671 0.194580
vt 0.691600 0.188538
vt 0.668522 0.192929
vt 0.669490 0.185675
vt 0.667962 0.182171
vt 0.712180 0.187893
vt 0.693576 0.183501
vt 0.664461 0.183703
vt 0.980663 0.592404
vt 0.973389 0.636204
vt 0.973389 0.526625
vt 0.980451 0.533178
vt 0.985039 0.629593
vt 0.984984 0.599928
vt 0.976847 0.639549
vt 0.979321 0.525852
vt 0.727558 0.185199
vt 0.717495 0.181221
vt 0.735067 0.192442
vt 0.828857 0.040961
vt 0.833963 0.017672
vt 0.836912 0.062192
vt 0.828857 0.006617
vt 0.828999 0.077393
vt 0.875732 0.007080
vt 0.833994 0.009130
vt 0.731237 0.183740
vt 0.838856 0.016069
vt 0.989014 0.552278
vt 0.989014 0.514609
vt 0.995330 0.517519
vt 0.994559 0.553955
vt 0.850579 0.141311
vt 0.823143 0.122910
vt 0.793887 0.156014
vt 0.848760 0.192815
vt 0.851461 0.177239
vt 0.776621 0.081426
vt 0.740883 0.086572
vt 0.739014 0.119212
vt 0.691878 0.179890
vt 0.666263 0.178572
vt 0.689904 0.184926
vt 0.631151 0.193645
vt 0.660367 0.193696
vt 0.626206 0.191914
vt 0.660774 0.194580
vt 0.665816 0.187105
vt 0.977429 0.159244
vt 0.979968 0.160139
vt 0.966339 0.158005
vt 0.939753 0.159341
vt 0.624808 0.169562
vt 0.633655 0.180299
vt 0.660810 0.185147
vt 0.662761 0.180098
vt 0.621818 0.189710
vt 0.995980 0.483164
vt 0.989014 0.476934
vt 0.983433 0.639060
vt 0.985452 0.634542
vt 0.976793 0.639893
vt 0.853805 0.190826
vt 0.852145 0.194580
vt 0.852485 0.194425
vt 0.948380 0.065674
vt 0.954196 0.061877
vt 0.954289 0.065556
vt 0.946045 0.058879
vt 0.948851 0.054642
vt 0.954324 0.004617
vt 0.956576 0.048234
vt 0.947671 0.046947
vt 0.948689 0.050308
vt 0.968529 0.168431
vt 0.990689 0.171213
vt 0.997733 0.166458
vt 0.991766 0.173598
vt 0.987399 0.173132
vt 0.984114 0.175049
vt 0.966665 0.173056
vt 0.954011 0.173278
vt 0.956508 0.169527
vt 0.945287 0.172281
vt 0.934326 0.167152
vt 0.940208 0.170517
vt 0.958371 0.164918
vt 0.841814 0.012532
vt 0.836819 0.005605
vt 0.955436 0.225830
vt 0.997464 0.225830
vt 0.991541 0.219325
vt 0.953857 0.219578
vt 0.831918 0.004022
vt 0.995870 0.237549
vt 0.959752 0.231114
vt 0.953857 0.237549
vt 0.992415 0.231990
vt 0.695331 0.082417
vt 0.692895 0.095980
vt 0.723122 0.107843
vt 0.733001 0.082668
vt 0.732727 0.120342
vt 0.727214 0.126899
vt 0.725318 0.131961
vt 0.739100 0.156899
vt 0.739185 0.194580
vt 0.795706 0.104510
vt 0.771990 0.096643
vt 0.767360 0.111861
vt 0.946045 0.000866
vt 0.949872 0.003974
vt 0.851930 0.133523
vt 0.937944 0.175049
vt 0.938960 0.172392
vt 0.979633 0.157336
vt 0.851372 0.126488
vt 0.851489 0.115559
vt 0.982372 0.165034
vt 0.630060 0.167261
vt 0.631049 0.164742
vt 0.633068 0.166987
vt 0.884177 0.002056
vt 0.728235 0.176728
vt 0.729535 0.180133
vt 0.631755 0.118509
vt 0.652702 0.123783
vt 0.637472 0.107668
vt 0.873305 0.002503
vt 0.869153 0.003113
vt 0.872990 0.007080
vt 0.696805 0.114924
vt 0.693222 0.116414
vt 0.701898 0.116913
vt 0.682297 0.100540
vt 0.728242 0.138948
vt 0.696519 0.152596
vt 0.714456 0.174202
vt 0.733994 0.132485
vt 0.696271 0.123416
vt 0.691246 0.121430
vt 0.689744 0.117945
vt 0.689779 0.147023
vt 0.690115 0.138399
vt 0.684367 0.153630
vt 0.663742 0.154236
vt 0.675285 0.103598
vt 0.664733 0.108169
vt 0.686276 0.119511
vt 0.662215 0.150739
vt 0.631307 0.127050
vt 0.856201 0.007080
vt 0.685250 0.136523
vt 0.647945 0.110305
vt 0.318657 0.956299
vt 0.316207 0.951797
vt 0.313232 0.956299
vt 0.313232 0.964111
vt 0.318366 0.964111
vt 0.316070 0.959457
vt 0.285889 0.948486
vt 0.291015 0.948486
vt 0.287093 0.944084
vt 0.291605 0.943397
vt 0.466981 0.077393
vt 0.456339 0.074431
vt 0.453857 0.077393
vt 0.219724 0.129721
vt 0.218069 0.125823
vt 0.214617 0.127953
vt 0.457764 0.374268
vt 0.467587 0.374268
vt 0.461969 0.371533
vt 0.238236 0.150481
vt 0.209251 0.143158
vt 0.208080 0.150235
vt 0.074726 0.086996
vt 0.000732 0.105343
vt 0.026625 0.120400
vt 0.055639 0.085793
vt 0.380589 0.944580
vt 0.372068 0.943776
vt 0.344482 0.944580
vt 0.067570 0.078873
vt 0.061045 0.948486
vt 0.054877 0.946017
vt 0.051514 0.948486
vt 0.988316 0.823207
vt 0.942139 0.823982
vt 0.948749 0.831299
vt 0.378112 0.490595
vt 0.392961 0.493172
vt 0.379429 0.488100
vt 0.429078 0.496767
vt 0.425295 0.493334
vt 0.996826 0.822501
vt 0.998756 0.825848
vt 0.996826 0.831299
vt 0.367920 0.213124
vt 0.370286 0.217068
vt 0.367920 0.221924
vt 0.192139 0.142906
vt 0.207720 0.131241
vt 0.228279 0.129844
vt 0.242078 0.149749
vt 0.243734 0.126681
vt 0.262244 0.147429
vt 0.262761 0.113404
vt 0.254347 0.104758
vt 0.255725 0.151611
vt 0.256123 0.099697
vt 0.254471 0.096269
vt 0.158610 0.943772
vt 0.155707 0.948486
vt 0.161267 0.948486
vt 0.153076 0.943763
vt 0.375783 0.503174
vt 0.379423 0.502256
vt 0.382044 0.495926
vt 0.371826 0.073486
vt 0.392811 0.064106
vt 0.373459 0.067482
vt 0.409520 0.073486
vt 0.401247 0.064161
vt 0.411484 0.068144
vt 0.364014 0.280518
vt 0.364014 0.258658
vt 0.368388 0.279095
vt 0.844361 0.971924
vt 0.871526 0.970522
vt 0.864564 0.966298
vt 0.393984 0.498536
vt 0.852724 0.959996
vt 0.861160 0.959667
vt 0.844005 0.968847
vt 0.840576 0.964676
vt 0.864996 0.963860
vt 0.193038 0.151611
vt 0.876591 0.968332
vt 0.880070 0.970521
vt 0.880539 0.961679
vt 0.478084 0.354736
vt 0.472104 0.350460
vt 0.469482 0.354736
vt 0.427824 0.503174
vt 0.938341 0.971924
vt 0.927994 0.960004
vt 0.897823 0.964860
vt 0.882743 0.964308
vt 0.931853 0.960945
vt 0.960108 0.967231
vt 0.952325 0.968903
vt 0.951919 0.971169
vt 0.076396 0.079359
vt 0.945422 0.960171
vt 0.952097 0.961086
vt 0.956477 0.965512
vt 0.058732 0.128174
vt 0.086454 0.121766
vt 0.082069 0.107585
vt 0.082782 0.111472
vt 0.992466 0.831299
vt 0.991621 0.826865
vt 0.371826 0.490052
vt 0.376641 0.492222
vt 0.001653 0.121223
vt 0.089411 0.128174
vt 0.235107 0.948486
vt 0.242786 0.948486
vt 0.238536 0.945161
vt 0.278361 0.948486
vt 0.280594 0.944336
vt 0.275937 0.944383
vt 0.226620 0.126175
vt 0.211300 0.120858
vt 0.992920 0.989862
vt 0.995379 0.994432
vt 0.992920 0.999268
vt 0.204403 0.124147
vt 0.076594 0.974948
vt 0.087002 0.977591
vt 0.090373 0.976237
vt 0.071045 0.983643
vt 0.088378 0.982631
vt 0.072869 0.978112
vt 0.105330 0.983643
vt 0.318594 0.971924
vt 0.316235 0.967770
vt 0.313232 0.971924
vt 0.274170 0.948486
vt 0.098586 0.978154
vt 0.221647 0.115818
vt 0.249041 0.115720
vt 0.238374 0.113152
vn -0.0077 0.9999 -0.0081
vn -0.5904 0.5756 -0.5657
vn -0.0370 -0.0155 -0.9992
vn -0.0393 -0.0132 -0.9991
vn -0.0389 -0.0137 -0.9991
vn 0.6021 0.3642 -0.7105
vn -0.0063 -0.0141 -0.9999
vn -0.0063 -0.0161 -0.9998
vn -0.0063 -0.0182 -0.9998
vn -0.6056 -0.6049 0.5171
vn 0.6054 -0.6050 0.5172
vn 0.5810 0.5796 -0.5714
vn -0.3295 -0.1672 -0.9292
vn -0.2711 -0.1279 -0.9540
vn -0.1895 -0.1106 -0.9756
vn -0.0053 -0.0001 -1.0000
vn -0.1256 0.0028 -0.9921
vn -0.0089 -0.0071 -0.9999
vn -0.0270 0.0028 -0.9996
vn -0.0053 -0.0245 -0.9997
vn -0.7988 -0.3639 0.4791
vn -0.7481 -0.3517 0.5627
vn -0.8180 -0.3836 0.4286
vn -0.8017 -0.3805 0.4609
vn -0.8311 -0.3008 0.4677
vn -0.9475 -0.1252 0.2941
vn -0.4230 -0.2600 -0.8680
vn -0.3490 -0.2480 -0.9037
vn -0.4331 -0.0539 -0.8997
vn -0.1400 0.2407 -0.9605
vn -0.1569 0.3080 -0.9384
vn -0.1111 0.2151 -0.9702
vn -0.0092 0.9988 -0.0473
vn -0.1001 0.2650 -0.9590
vn -0.1426 0.5622 -0.8146
vn 0.0266 0.0105 -0.9996
vn -0.3613 0.8189 0.4459
vn -0.4536 0.8805 0.1380
vn 0.0031 0.0096 0.9999
vn -0.0036 0.0263 0.9996
vn 0.0071 0.0114 0.9999
vn 0.0080 0.0117 0.9999
vn 0.0018 0.0082 1.0000
vn -0.6872 -0.3422 -0.6409
vn -0.3193 -0.3176 -0.8929
vn -0.5952 -0.5838 -0.5522
vn -0.7473 -0.5965 -0.2929
vn -0.7056 -0.7086 0.0013
vn -0.7227 -0.0200 -0.6909
vn -0.5893 0.5785 -0.5640
vn -0.5983 0.5737 -0.5594
vn -0.5986 0.5747 -0.5580
vn -0.5890 0.5798 -0.5630
vn -0.5786 -0.2823 -0.7652
vn -0.6779 -0.3222 -0.6607
vn -0.6562 0.2345 -0.7172
vn -0.6921 0.2682 -0.6701
vn -0.5332 0.6136 -0.5824
vn 0.0108 -0.0422 -0.9991
vn 0.0089 -0.0350 -0.9993
vn 0.0083 -0.0329 -0.9994
vn 0.0107 -0.0422 -0.9991
vn 0.0100 -0.0448 -0.9989
vn 0.0095 -0.0383 -0.9992
vn -0.0107 -0.0448 -0.9989
vn -0.0524 -0.0171 -0.9985
vn -0.0325 0.0069 -0.9994
vn -0.1242 -0.0546 -0.9908
vn 0.0383 -0.1340 -0.9902
vn -0.0100 -0.3638 -0.9314
vn -0.0295 -0.3432 -0.9388
vn 0.5942 0.5835 -0.5535
vn 0.6239 0.5226 -0.5811
vn -0.3060 0.6973 0.6482
vn -0.4020 0.7882 0.4660
vn -0.7336 -0.0168 -0.6794
vn -0.7328 -0.0150 -0.6803
vn -0.7327 -0.0148 -0.6804
vn -0.7337 -0.0169 -0.6793
vn -0.6262 0.5211 -0.5799
vn -0.6870 -0.7215 -0.0865
vn -0.6640 -0.7001 0.2627
vn -0.6642 -0.7425 -0.0874
vn 0.0970 -0.3783 0.9206
vn -0.1793 -0.5882 0.7886
vn -0.2129 -0.2865 0.9341
vn 0.0943 -0.9887 -0.1165
vn -0.0845 -0.9957 -0.0377
vn 0.2141 -0.9722 0.0945
vn 0.3014 -0.6909 0.6572
vn 0.3013 -0.6908 0.6572
vn -0.1338 -0.8448 0.5180
vn 0.4595 -0.7573 0.4641
vn 0.4253 -0.7621 0.4882
vn 0.3702 -0.6736 -0.6397
vn 0.3790 -0.6804 -0.6273
vn 0.5099 -0.1692 -0.8434
vn 0.0414 -0.1979 -0.9793
vn 0.3943 -0.7888 -0.4715
vn 0.3943 -0.7887 -0.4717
vn 0.0103 -0.0207 -0.9997
vn 0.0090 -0.0173 -0.9998
vn 0.0103 -0.0208 -0.9997
vn 0.0082 -0.0151 -0.9999
vn 0.0093 -0.0179 -0.9998
vn -0.0045 0.0062 -1.0000
vn -0.0637 -0.0633 -0.9960
vn -0.6422 0.3698 -0.6715
vn -0.6775 0.3548 -0.6443
vn -0.3361 0.7406 -0.5818
vn -0.3380 0.7567 -0.5595
vn -0.4942 0.6989 -0.5169
vn 0.1165 0.2643 -0.9574
vn -0.3360 0.7407 0.5818
vn -0.3397 0.9091 0.2411
vn 0.0084 0.0076 -0.9999
vn 0.0035 0.0022 -1.0000
vn 0.0086 0.0080 -0.9999
vn 0.0102 0.0116 -0.9999
vn 0.0015 0.0022 -1.0000
vn -0.0231 0.0449 -0.9987
vn -0.0143 0.0798 -0.9967
vn 0.0748 -0.3628 -0.9289
vn -0.0001 -0.0006 -1.0000
vn 0.5817 -0.5921 -0.5577
vn 0.5817 -0.5931 -0.5567
vn 0.5817 -0.5906 -0.5593
vn 0.5818 -0.5881 -0.5619
vn 0.5836 0.5905 -0.5575
vn 0.5876 0.5877 -0.5561
vn 0.5834 0.5899 -0.5582
vn 0.5920 0.5854 -0.5539
vn 0.1821 -0.5522 -0.8136
vn 0.4591 -0.7763 -0.4318
vn 0.0015 0.0099 0.9999
vn 0.0459 -0.1636 -0.9855
vn 0.0026 0.0093 1.0000
vn 0.0021 0.0089 1.0000
vn 0.0030 0.0096 0.9999
vn 0.3382 -0.7492 0.5696
vn -0.0037 0.0264 0.9996
vn 0.1763 -0.3908 -0.9034
vn 0.3943 -0.7887 -0.4718
vn 0.0096 -0.0418 -0.9991
vn -0.6592 0.4243 -0.6208
vn 0.5171 -0.6884 -0.5086
vn 0.1619 -0.1256 -0.9788
vn 0.5198 0.6152 -0.5927
vn 0.4452 0.4951 -0.7461
vn 0.0001 -1.0000 -0.0002
vn -0.3327 0.6722 -0.6614
vn -0.1506 0.1721 -0.9735
vn -0.1950 0.2163 -0.9567
vn -0.3172 0.5349 -0.7831
vn -0.1224 0.1727 -0.9773
vn 0.1093 0.4189 -0.9014
vn -0.0425 0.3101 -0.9498
vn -0.1171 0.2067 -0.9714
vn -0.0429 0.3146 -0.9483
vn 0.1342 0.3124 -0.9404
vn -0.0594 0.3174 -0.9464
vn -0.0619 0.0950 -0.9936
vn -0.0002 0.0334 -0.9994
vn -0.3969 0.0990 -0.9125
vn -0.1894 -0.0902 -0.9778
vn -0.2149 -0.0511 -0.9753
vn -0.0518 -0.0242 -0.9984
vn -0.3864 0.1216 -0.9143
vn -0.0305 -0.0110 -0.9995
vn -0.6870 0.3073 -0.6585
vn -0.0393 -0.0286 -0.9988
vn -0.3333 -0.0839 -0.9391
vn -0.2605 -0.1306 -0.9566
vn -0.3534 -0.0193 -0.9353
vn -0.3014 -0.1304 -0.9445
vn -0.2876 -0.0752 -0.9548
vn -0.0347 -0.0178 -0.9992
vn 0.1922 0.0703 -0.9788
vn 0.1795 0.0024 -0.9837
vn 0.1752 0.0244 -0.9842
vn 0.2268 0.1634 -0.9601
vn 0.3194 0.1589 -0.9342
vn 0.9997 -0.0026 -0.0247
vn 0.9998 -0.0023 -0.0220
vn 0.9999 0.0004 -0.0130
vn 0.9997 -0.0032 -0.0250
vn -0.0270 -0.4677 -0.8835
vn -0.0374 -0.4675 -0.8832
vn -0.0353 -0.4675 -0.8833
vn -0.0241 -0.4677 -0.8836
vn -0.0575 -0.2110 -0.9758
vn 0.0980 -0.2690 -0.9581
vn 0.1201 -0.2325 -0.9651
vn -0.3784 0.6663 -0.6425
vn -0.3032 0.6254 -0.7190
vn 0.1536 0.0205 -0.9879
vn 0.0366 0.0863 -0.9956
vn -0.0590 0.0291 -0.9978
vn 0.1017 -0.2703 -0.9574
vn 0.0019 -0.5249 -0.8511
vn 0.2015 0.2661 -0.9426
vn 0.2046 0.2036 -0.9574
vn 0.1536 0.0204 -0.9879
vn 0.5996 -0.5431 -0.5878
vn 0.5591 0.5472 -0.6229
vn -0.6051 0.6056 0.5167
vn 0.6050 0.6057 0.5168
vn 0.6136 0.6673 -0.4222
vn 0.5722 0.5740 -0.5857
vn 0.6193 -0.4696 -0.6292
vn 0.5113 0.4036 -0.7587
vn 0.0014 0.0089 1.0000
vn 0.0015 0.0087 1.0000
vn 0.0088 0.0086 0.9999
vn 0.0105 0.0133 0.9999
vn 0.0110 0.0086 0.9999
vn 0.3876 0.8807 -0.2723
vn 0.3382 -0.7491 0.5696
vn 0.0596 -0.0301 -0.9978
vn -0.4899 0.7367 -0.4661
vn -0.1164 0.7044 0.7002
vn 0.0058 0.0057 -1.0000
vn 0.0055 0.0047 -1.0000
vn 0.0358 0.0000 -0.9994
vn 0.0354 -0.1638 -0.9859
vn 0.0659 0.0231 -0.9976
vn 0.0457 0.0584 -0.9972
vn 0.0260 -0.0104 -0.9996
vn 0.0139 -0.0144 -0.9998
vn 0.0112 -0.0108 -0.9999
vn 0.0158 -0.0087 -0.9998
vn -0.0005 0.0026 -1.0000
vn 0.1279 0.0870 -0.9880
vn -0.0022 0.0021 -1.0000
vn 0.0128 -0.0155 -0.9998
vn 0.0109 -0.0136 -0.9998
vn -0.5849 -0.5873 -0.5595
vn -0.5849 -0.5872 -0.5595
vn -0.5842 -0.5886 -0.5588
vn -0.5856 -0.5859 -0.5602
vn 0.0089 -0.7399 -0.6727
vn 0.0067 -0.7369 -0.6760
vn 0.3052 0.0537 -0.9508
vn 0.1102 0.0560 -0.9923
vn 0.1636 0.1285 -0.9781
vn 0.2092 0.2853 -0.9353
vn 0.3002 0.1133 0.9471
vn 0.4916 0.3328 0.8047
vn 0.0085 -0.7391 -0.6736
vn 0.0058 -0.7354 -0.6776
vn 0.8873 0.3976 0.2336
vn 0.7687 0.4683 0.4357
vn 0.7702 0.4523 0.4497
vn 0.7583 0.5620 0.3303
vn 0.5284 0.1966 -0.8259
vn 0.5857 0.2955 -0.7548
vn 0.9045 0.1629 0.3940
vn 0.6537 0.3802 0.6543
vn 0.6169 0.3151 0.7212
vn 0.9718 0.2352 -0.0153
vn 0.9718 0.2353 -0.0156
vn 0.9718 0.2354 -0.0160
vn 0.9719 0.2351 -0.0147
vn 0.6382 0.7133 -0.2898
vn 0.3445 -0.6613 -0.6663
vn 0.3489 -0.6894 -0.6349
vn 0.8476 0.3665 0.3838
vn 0.8455 0.3665 0.3884
vn 0.8462 0.3665 0.3868
vn 0.8482 0.3665 0.3824
vn 0.8111 0.3020 0.5008
vn 0.9180 0.2722 0.2885
vn 0.8210 0.2289 0.5230
vn 0.8878 -0.2576 0.3814
vn 0.4984 -0.4847 0.7188
vn 0.7477 0.4986 0.4385
vn 0.7473 0.4990 0.4387
vn 0.7487 0.4953 0.4406
vn 0.7485 0.4952 0.4411
vn 0.8495 0.3843 0.3615
vn 0.9895 -0.1036 -0.1011
vn 0.8974 0.4317 -0.0914
vn 0.7183 -0.3385 0.6078
vn 0.0099 -0.0197 -0.9998
vn -0.0104 0.9999 -0.0023
vn -0.6429 0.4609 -0.6118
vn -0.3926 -0.3972 -0.8295
vn 0.1803 0.6887 -0.7023
vn -0.4997 0.5631 -0.6582
vn -0.2087 -0.2145 -0.9542
vn 0.4333 0.1145 -0.8939
vn 0.2486 0.0023 -0.9686
vn 0.2487 0.0024 -0.9686
vn 0.2485 0.0022 -0.9686
vn 0.0435 0.0876 -0.9952
vn 0.3082 -0.2594 -0.9153
vn 0.4472 -0.8944 -0.0009
vn -0.4818 -0.5901 -0.6478
vn 0.5838 0.4881 -0.6489
vn 0.0313 -0.7027 -0.7108
vn 0.0780 -0.6774 -0.7315
vn 0.5648 -0.5296 -0.6329
vn 0.6231 -0.5499 -0.5563
vn 0.4260 0.2145 -0.8789
vn 0.6885 0.1713 -0.7047
usemtl 85fc032eaee04650914faeb8ddd6a71e_065.jpg
s 1
f 1/1/1 2/2/1 3/3/1
f 4/4/2 5/5/2 6/6/2
f 7/7/3 8/8/4 9/9/5
f 10/10/6 11/11/6 12/12/6
f 13/13/7 14/14/8 15/15/8
f 15/15/8 14/14/8 16/16/9
f 17/17/10 18/18/10 19/19/10
f 20/20/11 18/18/11 17/17/11
f 21/21/12 22/22/12 23/23/12
f 25/24/13 5/5/13 26/25/13
f 26/25/14 27/26/14 25/24/14
f 26/25/15 28/27/15 27/26/15
f 26/25/16 29/28/16 28/27/16
f 25/24/17 30/29/17 5/5/17
f 5/5/18 31/30/18 26/25/18
f 30/29/19 6/6/19 5/5/19
f 29/28/20 32/31/20 28/27/20
f 27/32/21 33/33/21 34/34/21
f 34/34/22 25/35/22 27/32/22
f 27/32/23 35/36/23 33/33/23
f 27/32/24 36/37/24 35/36/24
f 35/36/25 37/38/25 33/33/25
f 34/34/26 38/39/26 25/35/26
f 30/29/27 39/40/27 40/41/27
f 30/29/28 25/24/28 39/40/28
f 25/24/29 38/42/29 39/40/29
f 41/43/30 42/44/30 3/45/30
f 41/43/31 43/46/31 42/44/31
f 3/45/32 38/47/32 41/43/32
f 3/3/33 2/2/33 38/48/33
f 43/46/34 44/49/34 42/44/34
f 2/50/35 39/40/35 38/42/35
f 44/49/36 45/51/36 42/44/36
f 34/52/37 46/53/37 41/54/37
f 41/54/38 38/55/38 34/52/38
f 47/56/39 48/57/39 49/58/39
f 33/59/40 50/60/40 47/56/40
f 51/61/41 52/62/42 53/63/43
f 4/4/44 54/64/44 31/30/44
f 31/30/45 5/5/45 4/4/45
f 29/28/46 7/7/46 55/65/46
f 29/28/47 26/25/47 7/7/47
f 26/25/48 8/8/48 7/7/48
f 26/25/49 56/66/49 8/8/49
f 56/66/50 31/30/51 54/64/52
f 56/66/50 26/25/53 31/30/51
f 35/67/54 57/68/54 58/69/54
f 35/67/55 36/70/55 57/68/55
f 36/70/56 27/26/56 59/71/56
f 59/71/57 57/68/57 36/70/57
f 27/26/58 28/27/58 59/71/58
f 60/72/59 16/16/60 61/73/61
f 62/74/62 63/75/62 16/16/60
f 64/76/63 11/11/63 65/77/64
f 11/11/65 58/69/65 65/77/65
f 58/69/66 57/68/66 65/77/66
f 57/68/67 66/78/67 65/77/67
f 66/78/68 67/79/68 65/77/68
f 57/68/69 59/71/69 66/78/69
f 11/11/70 68/80/70 58/69/70
f 11/11/71 10/10/71 68/80/71
f 32/31/72 59/71/72 28/27/72
f 32/31/73 66/78/73 59/71/73
f 43/81/74 46/53/74 53/82/74
f 43/81/75 41/54/75 46/53/75
f 67/79/76 29/28/77 55/65/78
f 67/79/76 32/31/79 29/28/77
f 67/79/80 66/78/80 32/31/80
f 35/36/81 68/83/81 37/38/81
f 35/36/82 58/84/82 68/83/82
f 68/83/83 69/85/83 37/38/83
f 33/59/84 70/86/84 50/60/84
f 33/59/85 37/87/85 70/86/85
f 37/87/86 69/88/86 70/86/86
f 68/89/87 70/90/87 69/91/87
f 68/89/88 10/92/88 70/90/88
f 10/92/89 12/93/89 70/90/89
f 71/94/90 50/95/91 72/96/91
f 50/95/92 73/97/92 72/96/92
f 50/95/93 12/93/93 73/97/93
f 50/95/94 70/90/94 12/93/94
f 14/14/95 74/98/95 75/99/95
f 75/99/96 11/100/96 14/14/96
f 75/99/97 12/101/97 11/100/97
f 75/99/98 73/102/98 12/101/98
f 72/103/99 76/104/99 77/105/100
f 76/104/101 78/106/102 79/107/103
f 78/106/102 80/108/104 81/109/105
f 78/106/106 82/110/106 80/108/106
f 72/103/107 74/98/107 76/104/107
f 83/111/108 44/49/108 84/112/108
f 83/111/109 45/51/109 44/49/109
f 85/113/110 86/114/110 87/115/110
f 87/115/111 84/116/111 85/113/111
f 84/112/112 44/49/112 85/117/112
f 44/49/113 43/46/113 85/117/113
f 85/118/114 52/119/114 86/120/114
f 85/118/115 53/121/115 52/119/115
f 88/122/116 89/123/117 90/124/118
f 90/124/118 87/125/119 88/122/116
f 88/122/116 21/21/120 89/123/117
f 90/124/121 84/126/121 87/125/121
f 90/124/122 83/127/122 84/126/122
f 90/124/123 91/128/123 83/127/123
f 21/21/120 23/23/124 89/123/117
f 13/13/125 15/15/126 78/106/127
f 78/106/127 76/104/128 13/13/125
f 15/15/129 82/110/130 78/106/131
f 15/15/129 16/16/132 82/110/130
f 82/110/133 63/75/133 80/108/133
f 82/110/134 16/16/134 63/75/134
f 53/63/135 46/129/135 33/59/135
f 46/129/135 34/130/135 33/59/135
f 72/103/136 73/102/136 74/98/136
f 73/102/136 75/99/136 74/98/136
f 49/58/39 92/131/137 53/63/39
f 92/131/137 93/132/138 94/133/138
f 33/59/139 47/56/39 49/58/39
f 72/96/140 95/134/140 96/135/140
f 49/58/39 48/57/39 92/131/137
f 47/56/40 50/60/40 71/136/141
f 96/135/90 71/94/90 72/96/91
f 72/103/142 77/105/142 95/137/142
f 77/105/100 79/107/100 97/138/143
f 94/133/138 51/61/41 53/63/43
f 98/139/62 62/74/62 60/72/59
f 47/56/40 71/136/141 99/140/40
f 47/56/39 100/141/39 48/57/39
f 77/105/100 76/104/99 79/107/100
f 79/107/103 78/106/102 81/109/105
f 14/14/144 64/142/63 61/73/61
f 77/105/142 97/138/142 95/137/142
f 47/56/40 99/140/40 100/141/40
f 61/143/61 64/76/63 65/77/64
f 61/73/61 16/16/60 14/14/144
f 65/77/64 60/144/59 61/143/61
f 60/72/59 62/74/62 16/16/60
f 65/77/64 98/145/62 60/144/59
f 2/2/145 1/1/145 39/146/145
f 3/147/146 39/40/146 1/148/146
f 101/149/147 102/150/147 103/151/147
f 104/152/148 105/153/148 106/154/148
f 107/155/149 108/156/149 109/157/149
f 21/21/150 110/158/150 22/22/150
f 22/22/151 110/158/151 23/23/151
f 111/159/152 112/160/152 113/161/152
f 113/161/153 3/147/153 111/159/153
f 3/147/154 42/162/154 111/159/154
f 111/159/155 106/163/155 112/160/155
f 111/159/156 91/128/156 106/163/156
f 91/128/157 109/157/157 106/163/157
f 91/128/158 90/124/158 109/157/158
f 113/161/159 40/41/159 3/147/159
f 40/41/160 39/40/160 3/147/160
f 109/157/161 108/156/161 106/163/161
f 108/156/162 104/164/162 106/163/162
f 108/156/163 114/165/163 104/164/163
f 9/9/164 112/160/164 115/166/164
f 9/9/165 54/64/165 112/160/165
f 54/64/166 113/161/166 112/160/166
f 54/64/167 4/4/167 113/161/167
f 112/160/168 116/167/168 115/166/168
f 9/9/169 56/66/169 54/64/169
f 4/4/170 6/6/170 113/161/170
f 9/9/171 8/8/171 56/66/171
f 55/65/172 117/168/172 118/169/172
f 55/65/173 9/9/173 117/168/173
f 118/169/174 67/79/174 55/65/174
f 118/169/175 65/77/175 67/79/175
f 9/9/176 115/166/176 117/168/176
f 55/65/177 7/7/3 9/9/5
f 119/170/178 120/171/178 121/172/178
f 121/172/179 110/158/179 119/170/179
f 121/172/180 107/155/180 110/158/180
f 107/155/181 89/123/181 110/158/181
f 89/123/182 23/23/182 110/158/182
f 121/172/183 108/156/184 107/155/185
f 121/172/183 114/165/186 108/156/184
f 40/41/187 113/161/188 6/6/189
f 6/6/189 30/29/190 40/41/187
f 65/77/191 118/169/191 122/173/191
f 122/173/192 63/174/192 65/77/192
f 122/173/193 101/149/193 63/174/193
f 106/154/194 105/153/194 116/175/194
f 116/167/195 112/160/195 106/163/195
f 121/172/196 102/150/196 122/173/196
f 122/173/197 117/168/197 121/172/197
f 122/173/198 118/169/198 117/168/198
f 117/168/199 115/166/199 123/176/199
f 104/164/200 114/165/200 121/172/200
f 109/157/201 89/123/201 107/155/201
f 109/157/202 90/124/202 89/123/202
f 101/149/147 122/173/147 102/150/147
f 120/171/196 124/177/203 102/150/196
f 121/172/196 120/171/196 102/150/196
f 103/151/147 102/150/147 124/177/147
usemtl 85fc032eaee04650914faeb8ddd6a71e_066.jpg
f 125/178/204 126/179/204 111/180/204
f 45/181/205 125/182/205 42/183/205
f 19/184/206 18/185/206 24/186/206
f 24/186/207 18/185/207 20/187/207
f 127/188/208 128/189/208 86/190/208
f 129/191/209 130/192/209 131/193/209
f 132/194/210 88/195/210 133/196/210
f 134/197/211 135/198/211 136/199/211
f 137/200/212 51/201/213 92/202/137
f 137/200/212 138/203/214 51/201/213
f 51/204/41 139/205/215 52/206/42
f 137/200/212 140/207/216 138/203/214
f 53/208/217 85/209/217 43/210/217
f 95/211/140 141/212/218 137/213/218
f 97/214/142 142/215/142 95/216/142
f 142/215/219 143/217/219 141/218/219
f 86/219/220 128/220/220 87/221/220
f 52/222/221 144/223/221 86/224/221
f 88/225/116 135/198/222 21/226/120
f 135/198/222 145/227/223 21/226/120
f 135/198/224 134/197/224 145/227/224
f 134/197/225 146/228/225 145/227/225
f 146/228/226 147/229/226 145/227/226
f 146/228/227 148/230/227 147/229/227
f 148/230/228 149/231/228 147/229/228
f 149/231/229 101/232/230 147/229/231
f 145/227/223 129/191/232 21/226/120
f 146/228/233 150/233/233 148/230/233
f 129/191/232 131/193/234 21/226/120
f 149/231/229 151/234/235 101/232/230
f 151/234/235 63/235/236 101/232/230
f 13/236/237 74/237/238 14/238/239
f 13/236/237 76/239/240 74/237/238
f 63/240/241 151/241/241 80/242/242
f 88/243/243 152/244/243 133/245/243
f 88/243/244 87/246/244 152/244/244
f 87/246/245 127/247/245 152/244/245
f 87/246/246 128/248/246 127/247/246
f 52/249/247 153/250/247 144/251/247
f 52/252/248 139/253/248 153/254/248
f 149/255/249 142/215/250 80/242/242
f 80/242/242 151/241/241 149/255/249
f 127/256/251 153/254/251 152/257/251
f 127/256/252 144/258/252 153/254/252
f 127/256/253 86/259/253 144/258/253
f 153/254/254 154/260/254 152/257/254
f 88/225/255 132/261/255 136/199/255
f 136/199/256 135/198/256 88/225/256
f 154/260/257 153/254/257 139/253/257
f 139/253/258 155/262/258 154/260/258
f 139/253/259 51/263/259 155/262/259
f 133/264/260 154/260/261 155/262/262
f 133/264/260 152/257/263 154/260/261
f 155/265/264 132/266/264 133/267/264
f 149/255/265 148/268/265 143/217/265
f 143/217/266 142/215/266 149/255/266
f 138/269/267 134/270/268 136/271/269
f 136/271/269 51/263/270 138/269/267
f 136/271/271 132/272/271 51/263/271
f 138/269/272 146/273/272 134/270/272
f 132/272/273 155/262/273 51/263/273
f 141/274/274 156/275/274 140/276/274
f 140/207/275 137/200/275 141/277/275
f 138/269/276 140/276/277 150/278/278
f 150/278/278 146/273/279 138/269/276
f 140/276/280 156/275/280 150/278/280
f 148/279/281 150/278/281 156/275/281
f 156/275/282 143/280/282 148/279/282
f 156/275/283 141/274/283 143/280/283
f 48/281/39 137/200/212 92/202/137
f 99/282/40 157/283/40 100/284/40
f 95/216/142 142/215/142 141/218/142
f 100/284/39 137/200/212 48/281/39
f 137/213/90 71/285/90 96/286/90
f 96/286/140 95/211/140 137/213/218
f 100/284/40 157/283/40 137/200/40
f 79/287/103 81/288/105 142/215/284
f 81/288/105 80/242/104 142/215/284
f 92/202/137 51/201/213 93/289/138
f 97/214/143 79/287/100 142/215/143
f 99/282/40 71/290/141 157/283/40
f 91/291/285 111/292/285 126/293/285
f 45/294/286 83/295/286 91/296/286
f 158/297/287 119/298/287 130/192/287
f 119/298/288 131/193/288 130/192/288
f 42/299/289 125/300/289 111/301/289
f 119/298/290 158/297/290 147/229/290
f 158/297/291 145/227/291 147/229/291
f 110/302/292 131/193/292 119/298/293
f 110/302/292 21/226/294 131/193/292
f 105/303/295 159/304/295 116/305/295
f 121/306/296 123/307/296 104/308/296
f 121/306/297 117/309/297 123/307/297
f 91/310/298 126/311/298 125/312/298
f 125/313/299 45/294/299 91/296/299
f 123/307/300 116/305/300 159/304/300
f 123/307/301 115/314/301 116/305/301
f 123/307/302 105/303/302 104/308/302
f 123/307/303 159/304/303 105/303/303
f 158/297/304 129/191/304 145/227/304
f 158/297/305 130/192/305 129/191/305
f 119/298/178 147/229/178 120/315/178
f 103/316/147 124/317/147 147/229/147
f 120/315/196 147/229/203 124/317/203
