####
#
# OBJ File Generated by Meshlab
#
####
# Object office_chair_3.obj
#
# Vertices: 345
# Faces: 550
#
####
mtllib ./office_chair_3.obj.mtl

vn 1.148777 0.380595 1.574728
v -5.614709 -2.153852 -0.038972
vn 1.526077 0.345259 1.459431
v -5.634674 -2.133848 -0.029242
vn 1.863116 -0.221252 1.849089
v -5.645590 -2.333844 0.027058
vn 2.860324 0.214552 4.831713
v -5.694688 -2.253852 0.084910
vn 3.508522 -0.524485 4.930376
v -5.694691 -2.273855 0.084266
vn -0.760646 -2.866970 5.383491
v -5.810937 -2.453857 0.047020
vn 0.592346 1.702430 0.949193
v -5.734717 -2.107938 0.027004
vn 2.099972 0.403276 1.585412
v -5.700401 -2.153842 0.067038
vn 3.089312 1.412192 4.273438
v -5.714673 -2.173838 0.089041
vn 0.882544 1.930600 1.757000
v -5.714706 -2.133845 0.059778
vn 2.258804 2.022530 5.107041
v -5.754706 -2.173849 0.110082
vn -2.031295 -2.822496 5.058391
v -5.814709 -2.451798 0.047023
vn -0.902722 -3.537411 4.717916
v -5.814711 -2.393853 0.087015
vn 0.262020 3.915284 0.741743
v -5.834709 -2.479196 0.087014
vn -0.509646 1.473450 1.920663
v -5.854711 -2.493853 0.130861
vn -2.045937 -0.862547 3.003445
v -5.854710 -2.513853 0.133357
vn -3.817043 1.892604 -0.038387
v -5.864052 -2.493853 0.107013
vn -5.441098 -2.212224 -1.898436
v -5.822969 -2.553853 0.107013
vn -4.432551 -2.035371 -0.610744
v -5.862374 -2.513853 0.107013
vn 1.642638 -2.191525 5.458663
v -5.774706 -2.353858 0.105504
vn 1.321028 4.698792 3.661245
v -5.854704 -2.099656 0.087028
vn 0.347754 4.013356 4.482393
v -5.874705 -2.113843 0.107026
vn 1.022494 2.983636 5.194456
v -5.854706 -2.153845 0.132450
vn 0.280367 5.307589 2.977997
v -5.874708 -2.083627 0.067015
vn 0.216025 2.040371 1.208314
v -5.874711 -2.055568 -0.012987
vn 0.060179 4.205024 1.922353
v -5.874711 -2.073857 0.047013
vn 2.247432 -0.209065 5.785027
v -5.826262 -2.253853 0.147058
vn 0.342217 2.091155 5.675406
v -5.874709 -2.173850 0.144259
vn 1.302487 0.901561 5.910459
v -5.834697 -2.213850 0.147040
vn -2.010748 5.013572 2.886890
v -5.914710 -2.093851 0.073213
vn -1.939701 -4.128739 3.638196
v -5.874711 -2.393854 0.032764
vn 0.396565 1.316300 1.400593
v -5.894712 -2.033853 -0.029989
vn 1.444091 -1.136969 5.838495
v -5.834705 -2.278289 0.147031
vn 1.114659 -0.097324 6.083183
v -5.834700 -2.253858 0.149586
vn -2.163405 4.436277 3.366773
v -5.914714 -2.102486 0.087017
vn -0.009349 0.129041 6.059220
v -5.934710 -2.253852 0.160620
vn 0.491273 4.627923 4.094349
v -5.914713 -2.053859 -0.005524
vn 0.172094 0.883740 1.447870
v -5.934699 -2.033849 -0.015362
vn -0.266693 -3.549951 5.128866
v -5.834710 -2.362093 0.107002
vn 0.662636 -2.965734 5.356327
v -5.834710 -2.333856 0.127016
vn -1.054724 -4.486258 4.151510
v -5.854710 -2.357196 0.107009
vn 0.855564 -3.796988 4.854115
v -6.074711 -2.393854 0.067015
vn 0.288073 -2.659756 5.337349
v -5.894709 -2.310435 0.147029
vn -0.850587 2.448256 3.417438
v -5.934714 -2.053848 -0.008522
vn -0.807922 5.351661 3.017604
v -5.914714 -2.061386 0.007021
vn -2.897558 4.486431 3.280980
v -5.954727 -2.093837 0.027022
vn -1.799000 3.824749 4.132280
v -5.914718 -2.119313 0.107029
vn -0.767608 2.211698 5.481559
v -5.914707 -2.182043 0.147014
vn -1.492439 2.490633 5.304434
v -6.094706 -2.173851 0.019075
vn -2.487914 4.126783 3.791080
v -6.034709 -2.173863 0.047007
vn -2.429639 3.691928 4.384872
v -6.002591 -2.213843 0.127031
vn -1.504049 4.255326 4.066645
v -6.114711 -2.233857 0.095836
vn -0.633946 0.204333 5.880719
v -5.994713 -2.273858 0.157989
vn -0.234701 -2.874599 5.156592
v -5.994712 -2.313855 0.148374
vn -1.518319 0.713798 5.527008
v -6.034715 -2.273850 0.151051
vn 0.308669 4.442383 3.122729
v -6.134171 -2.231355 0.092975
vn -1.131998 -0.063207 5.959682
v -6.154719 -2.293848 0.116328
vn 0.325150 5.976291 1.596309
v -6.174699 -2.222450 0.046996
vn 0.555421 -1.643562 5.732273
v -6.174710 -2.273854 0.114156
vn -1.174957 4.818235 3.271194
v -6.150377 -2.213840 0.027020
vn -0.494787 0.560744 4.591990
v -6.154711 -2.193852 0.007029
vn -0.075038 2.977582 1.747208
v -6.174706 -2.215767 0.027009
vn -1.368486 -2.211724 3.431961
v -6.194709 -2.273853 0.111810
vn -0.915093 -0.578739 1.958574
v -6.230050 -2.273856 0.087025
vn -2.087042 -1.593341 5.636778
v -6.174717 -2.293859 0.110962
vn -1.041147 -3.092969 4.941968
v -6.134710 -2.353847 0.107017
vn -1.055115 -4.089317 4.553113
v -6.113903 -2.393854 0.067015
vn -1.341509 -1.893136 3.889258
v -6.154714 -2.353849 0.101133
vn -1.048253 -0.497586 2.804396
v -6.254711 -2.313854 0.069968
vn -0.989398 -0.990274 3.512301
v -6.254711 -2.353864 0.062869
vn -0.567511 -1.487168 2.663627
v -6.274713 -2.353861 0.058609
vn -1.151684 2.648789 4.841250
v -6.014710 -2.113849 0.005277
vn 2.889801 -1.821006 5.111472
v -5.731582 -2.353859 0.087031
vn 1.962693 -2.876592 5.082196
v -5.754699 -2.378101 0.087044
vn 1.813939 -1.080123 2.500767
v -5.688295 -2.373857 0.047024
vn 0.086142 -0.700636 2.615538
v -5.774711 -2.453852 0.061511
vn -1.221988 -1.734867 4.248791
v -5.794710 -2.453851 0.051837
vn 1.747629 -2.132631 3.667372
v -5.754713 -2.433854 0.052663
vn 1.286277 3.023329 -0.177091
v -5.814710 -2.478620 0.067014
vn 0.284459 -4.622757 3.779197
v -5.954708 -2.375330 0.047026
vn 0.309777 -4.632027 4.209275
v -6.066348 -2.353833 0.106997
vn -0.307335 -5.081862 3.614131
v -5.914711 -2.347624 0.107026
vn 1.806331 2.339316 5.247786
v -6.154710 -2.253853 0.107013
vn -1.373106 2.229773 1.735621
v -6.024717 -2.133844 0.023048
vn -0.001181 0.000559 0.086756
v -6.294697 -2.633859 0.012579
vn -4.806330 -1.753501 -0.476214
v -6.317932 -2.353853 1.027013
vn 1.644395 0.807818 1.048893
v -6.294711 -2.273854 1.018370
vn -2.069247 -0.251005 0.030581
v -6.260319 -2.373850 0.787012
vn 4.482392 -0.450116 0.651890
v -6.016172 -2.593944 0.766975
vn 0.269590 2.656795 -4.022275
v -5.814710 -2.493853 0.048539
vn 0.969662 -1.041148 0.166446
v -5.772193 -2.513856 0.527014
vn 1.091248 1.353678 1.353694
v -6.214710 -2.230771 0.107013
vn -0.276011 -0.192191 4.657997
v -6.194698 -2.613849 0.013811
vn 1.241840 -0.406629 1.227166
v -6.174710 -2.493853 0.521164
vn -0.483915 0.225325 1.155382
v -6.184199 -2.253853 0.507015
vn 3.592486 1.588172 4.671994
v -6.154710 -2.473853 0.502364
vn -2.486739 -4.333962 -0.939662
v -6.134709 -2.656502 0.967013
vn -0.119368 -2.271719 -0.746936
v -6.074710 -2.602213 0.607012
vn 4.937438 3.593685 0.346657
v -6.094823 -2.573931 0.989059
vn 1.603854 -4.312869 -0.699788
v -6.074708 -2.629595 0.807012
vn 2.599088 2.195382 0.607105
v -6.034509 -2.543448 0.687073
vn 2.130214 0.225144 0.066371
v -6.045272 -2.613853 0.967013
vn 0.417263 0.221308 0.772250
v -5.666332 -2.253845 0.487026
vn 2.030204 -2.488297 -2.280324
v -5.774710 -2.593853 0.049908
vn 0.952409 -5.597044 2.519555
v -5.774710 -2.468974 0.027013
vn 3.619186 1.417497 4.816287
v -5.754712 -2.533854 0.020905
vn -0.699834 -0.361019 2.759473
v -6.274711 -2.453853 1.063726
vn -2.668856 -0.919083 0.093040
v -6.254686 -2.408379 0.807011
vn 1.004510 1.823791 1.396397
v -6.214710 -2.233853 0.110095
vn -2.477510 -1.533435 0.082801
v -6.214719 -2.486954 0.827013
vn 0.260360 1.213872 2.295445
v -6.194710 -2.253853 0.127013
vn -1.948917 -4.056347 -1.071063
v -6.114774 -2.653907 0.946996
vn -3.594559 -1.444710 -1.979982
v -6.137452 -2.653777 0.967037
vn 2.280812 -0.948413 1.943600
v -6.138524 -2.473853 0.487013
vn 2.069766 -3.739137 -2.050026
v -6.054711 -2.603264 0.607013
vn 1.178436 2.554903 0.060969
v -6.094701 -2.564234 1.007023
vn -1.423671 -2.501478 -0.952262
v -6.094692 -2.629367 0.807015
vn 0.838329 -6.126956 -0.626766
v -6.074714 -2.627576 0.787265
vn 2.292990 1.622990 0.284160
v -6.074717 -2.497812 0.667012
vn 5.186361 3.390267 0.955766
v -6.087309 -2.493674 0.747091
vn 5.133054 2.824567 1.793681
v -6.084462 -2.593807 0.987032
vn 5.697355 -0.084545 2.200560
v -6.085779 -2.613853 1.007013
vn 0.116900 0.088790 0.640906
v -5.794712 -2.152322 0.527010
vn -0.043178 2.662076 0.310327
v -6.194710 -2.225191 0.067013
vn 0.118644 -0.434734 1.749558
v -6.114682 -2.613845 0.014900
vn 0.027199 -0.899240 6.026023
v -6.134713 -2.573850 0.026995
vn 1.447517 -1.171247 0.380109
v -6.149458 -2.493853 0.487013
vn 2.125789 -2.361274 2.068555
v -6.154710 -2.493853 0.507013
vn -0.690117 1.581420 5.277191
v -6.134708 -2.273853 0.531644
vn -1.408643 0.776063 1.547839
v -6.163830 -2.453853 0.487013
vn 1.390546 0.142194 1.128276
v -6.174710 -2.473853 0.527013
vn 0.712731 -0.987892 -0.987362
v -6.054708 -2.593856 0.597602
vn 3.925182 2.783041 3.639362
v -6.114656 -2.566197 1.027029
vn 0.180266 0.589384 1.955141
v -6.114710 -2.265477 0.527016
vn 0.900969 0.482684 3.245699
v -5.754716 -2.193857 0.525469
vn 0.563129 -0.174906 -0.618328
v -6.054879 -2.613968 0.949625
vn 0.447115 3.343828 1.721320
v -6.194710 -2.226894 0.087013
vn 0.733552 -0.050917 3.054325
v -5.694708 -2.433884 0.528862
vn 2.955986 -2.314235 -0.546527
v -6.029380 -2.593851 0.667013
vn 3.000993 1.222391 0.270895
v -6.025316 -2.553781 0.687044
vn 0.751601 -0.752100 0.091449
v -5.774710 -2.523667 0.467013
vn -2.295502 -1.240868 -0.923743
v -6.301093 -2.373852 1.027013
vn -1.605279 -0.297361 -0.247845
v -6.314710 -2.333853 1.000080
vn 2.419100 2.469851 1.750579
v -6.274710 -2.273853 0.987013
vn -2.297634 -1.301906 -1.086177
v -6.254720 -2.373851 0.653203
vn -5.722642 -0.951231 -0.916202
v -6.259371 -2.393852 0.687014
vn -2.916342 -2.103384 1.053319
v -6.254745 -2.518946 1.047009
vn -2.773388 -1.406543 4.175951
v -6.254712 -2.499235 1.067020
vn -5.587757 -2.731422 0.536051
v -6.234765 -2.462594 0.707018
vn 4.315530 3.408388 1.377903
v -5.804987 -2.493854 0.067012
vn 2.118167 5.241420 0.303806
v -5.794706 -2.503539 0.047016
vn -0.556094 -4.232855 2.726703
v -5.794712 -2.598357 0.047009
vn 4.973331 -0.811592 0.784248
v -5.774713 -2.573852 0.047008
vn 3.295348 -2.868835 4.153881
v -5.786778 -2.473853 0.027012
vn 2.920556 -3.957686 1.839296
v -5.776730 -2.473846 0.007284
vn 0.128196 0.583662 3.505126
v -5.734711 -2.513851 0.009013
vn 1.313375 1.978724 4.706346
v -5.754712 -2.513849 0.007142
vn -0.016890 -0.012196 3.605488
v -6.134711 -2.113853 0.007986
vn 0.211637 -0.398658 4.295575
v -5.734703 -2.613854 0.010731
vn -0.002546 -0.007008 1.446432
v -6.184710 -2.113852 0.007898
vn -0.081874 0.973321 2.874995
v -6.174711 -2.193855 0.007528
vn 0.006726 0.332843 2.907997
v -6.094704 -2.093835 0.008280
vn 0.217188 -0.415656 3.684130
v -5.974754 -2.473856 0.015651
vn -1.170260 -0.643863 2.486869
v -5.834647 -2.613833 0.018552
vn -0.410550 -0.069454 2.137212
v -6.214733 -2.493838 0.013124
vn -0.924547 -0.634654 6.042247
v -5.874702 -2.453849 0.017615
vn 0.191371 -1.452445 2.010345
v -5.794668 -2.633842 0.018465
vn -1.321776 -1.824639 2.914322
v -6.134708 -2.413838 0.034230
vn -0.045749 -0.171969 0.214688
v -6.294705 -2.387985 0.027015
vn -1.084690 -1.129326 5.672287
v -6.134707 -2.433843 0.026960
vn -4.824687 -0.948594 2.484416
v -6.314710 -2.353853 1.040273
vn -2.345406 -0.388047 1.839869
v -6.303037 -2.393852 1.047013
vn -4.144885 0.973988 3.098556
v -6.314711 -2.333853 1.038736
vn -2.403087 0.404757 1.462726
v -6.318478 -2.313853 1.027013
vn 1.115021 1.905351 2.721829
v -6.294710 -2.293853 1.033771
vn 1.423137 2.321584 4.830380
v -6.274709 -2.333852 1.051211
vn -2.198285 1.165132 5.175397
v -6.294710 -2.353853 1.056931
vn -0.708031 0.007457 3.696730
v -6.274710 -2.433853 1.067016
vn 0.572023 1.412179 5.772126
v -6.274710 -2.413853 1.062441
vn 0.647939 0.588034 5.174560
v -6.274710 -2.373852 1.064651
vn -1.729525 2.500935 5.348669
v -6.263758 -2.413853 1.065982
vn 4.168918 2.755809 3.311114
v -6.245879 -2.333861 1.027006
vn 4.235009 3.348017 2.950324
v -6.252690 -2.293854 0.987012
vn 1.362687 1.746997 0.743801
v -6.274710 -2.262756 0.967014
vn 3.232268 0.446501 2.258621
v -6.232129 -2.293854 0.967012
vn -4.596675 -1.394576 -1.940631
v -6.262808 -2.413853 0.567013
vn -6.140785 -0.534306 0.830544
v -6.254706 -2.420654 0.647013
vn -3.118497 -0.021005 0.346827
v -6.262148 -2.373852 0.587013
vn -2.586109 -0.680437 0.071473
v -6.254710 -2.453853 0.607013
vn -4.335845 -1.367968 0.830516
v -6.249820 -2.453848 0.627012
vn -2.650100 -0.083259 -0.978317
v -6.263810 -2.373852 0.567013
vn -5.833809 -1.773854 -0.713634
v -6.250380 -2.413856 0.687014
vn -3.024539 -0.271560 -0.019376
v -6.250993 -2.373852 0.647013
vn -1.085880 -0.052506 -1.085994
v -6.254710 -2.373852 0.557914
vn -2.927912 -0.029254 -2.940412
v -6.254710 -2.393852 0.558881
vn -4.055854 -1.953213 -3.798620
v -6.244372 -2.413853 0.547329
vn -2.061895 -1.083211 0.384212
v -6.234656 -2.491181 0.627009
vn 2.416912 1.410452 0.794159
v -6.213056 -2.293853 0.907013
vn 2.000611 2.956784 1.097111
v -6.242818 -2.273853 0.907013
vn 2.315895 3.644394 2.072062
v -6.235667 -2.272611 0.896836
vn 0.685299 -0.471468 4.880561
v -6.154692 -2.593844 1.067050
vn 1.625679 1.054179 5.209491
v -6.234707 -2.453851 1.070013
vn 0.958272 1.930582 4.500677
v -6.254710 -2.413853 1.068908
vn 3.181555 1.464556 5.083859
v -6.254709 -2.393852 1.053810
vn 1.885162 0.391155 5.638544
v -6.219479 -2.393857 1.027009
vn 4.471970 1.938455 3.268948
v -6.224095 -2.373866 1.027002
vn -3.165133 -3.177218 0.018013
v -6.154748 -2.573881 0.727016
vn -3.988041 -3.053914 -0.331698
v -6.168847 -2.553865 0.827004
vn -4.765761 -4.026948 -0.551574
v -6.152873 -2.573897 0.827004
vn -0.813127 -0.422167 -0.761551
v -6.234710 -2.413853 0.537013
vn 0.223240 6.233917 0.569430
v -6.174705 -2.224299 0.067050
vn 0.125894 5.088673 2.591998
v -6.174710 -2.226141 0.087014
vn -3.557674 -3.165593 1.754719
v -6.194711 -2.596696 1.047012
vn -3.029851 -3.336912 -0.761006
v -6.114744 -2.613873 0.814942
vn -2.591592 -3.879920 2.761916
v -6.154710 -2.632109 1.047013
vn 0.892441 -2.242352 4.904309
v -6.134712 -2.633856 1.051775
vn -0.369376 -4.395767 3.438880
v -6.134713 -2.639733 1.047017
vn 2.169189 1.362824 4.935143
v -6.214655 -2.420102 1.027059
vn 4.360850 2.669670 3.194781
v -6.194980 -2.438892 1.026942
vn 5.279539 3.014187 1.525458
v -6.163992 -2.453945 0.946974
vn 5.537935 2.472235 1.627869
v -6.202192 -2.373858 0.947009
vn 5.833652 1.159301 1.895692
v -6.217499 -2.313865 0.927003
vn 5.260906 1.025251 1.042882
v -6.213064 -2.313854 0.907012
vn -0.791953 -1.350888 4.464536
v -6.094704 -2.453850 0.039253
vn 3.681612 1.454423 0.610145
v -6.204058 -2.293836 0.827027
vn 5.723211 2.137639 1.427996
v -6.154740 -2.353868 0.747005
vn 2.333419 0.772840 0.606080
v -6.162109 -2.313855 0.727012
vn 3.446923 1.307302 0.024347
v -6.209874 -2.273870 0.866999
vn 1.112818 1.164837 0.209652
v -6.234710 -2.245523 0.847013
vn 2.649708 3.146641 1.039393
v -6.214711 -2.268970 0.867013
vn 4.460141 0.293541 3.149075
v -6.090218 -2.613847 1.027026
vn 5.387360 2.969268 1.247874
v -6.118126 -2.453930 0.786977
vn 5.739786 2.387775 0.694820
v -6.138066 -2.393843 0.727020
vn 1.073308 5.007415 3.032941
v -6.174710 -2.249868 0.107012
vn 1.179470 1.404178 2.630213
v -6.174710 -2.253853 0.128388
vn 2.239735 -1.404689 2.595734
v -6.174710 -2.260361 0.127014
vn -0.251343 -1.801291 2.914723
v -6.134709 -2.467462 0.487013
vn -4.685115 -0.569754 3.395099
v -6.154709 -2.433853 0.496045
vn -3.805967 -2.460985 4.334596
v -6.114712 -2.453854 0.518375
vn -2.139392 -0.859460 3.067273
v -6.152623 -2.413854 0.507016
vn -3.845385 -3.359895 3.056306
v -6.114710 -2.473854 0.507014
vn -2.140091 -3.094389 0.573507
v -6.120474 -2.473853 0.487013
vn -2.271116 0.511996 0.534403
v -6.156834 -2.433853 0.487013
vn -2.097090 -1.247164 5.269181
v -6.094706 -2.453850 0.534727
vn -1.031582 -0.256651 5.904848
v -6.114711 -2.373852 0.534866
vn -1.146547 -0.181760 2.837732
v -6.174708 -2.333852 0.516152
vn -0.717535 -5.663638 0.974524
v -6.114711 -2.660051 1.007013
vn 5.135040 3.310570 1.444135
v -6.068022 -2.553899 0.846995
vn 5.540119 1.611816 0.066841
v -6.060362 -2.613771 0.947047
vn 4.729741 -0.481878 1.374185
v -6.022623 -2.593928 0.786981
vn 2.257061 0.960663 0.296123
v -6.134729 -2.383185 0.667010
vn -0.423262 -5.734976 -0.899695
v -6.074721 -2.625505 0.767012
vn -0.323673 -3.532073 -0.277954
v -6.094707 -2.611696 0.667013
vn 0.209215 -4.822967 2.785964
v -6.114710 -2.653855 1.027013
vn 3.623686 -2.022047 2.961624
v -6.094709 -2.644024 1.027014
vn 3.058264 -3.619496 1.148123
v -6.074710 -2.653854 0.967013
vn 2.277774 -4.610434 0.698656
v -6.094709 -2.659867 0.987013
vn 2.293251 -2.877229 0.052265
v -6.074710 -2.656386 0.927013
vn 3.548990 -3.422537 1.364440
v -6.094709 -2.653854 1.013335
vn 0.747932 -3.058819 5.209501
v -6.074718 -2.453847 0.038424
vn 1.617619 -2.454696 5.098430
v -6.034713 -2.413852 0.034435
vn 0.922187 -2.419405 5.289097
v -5.994712 -2.408646 0.026994
vn -4.186970 -3.445968 2.805396
v -6.094714 -2.493856 0.507017
vn -1.896271 -1.559575 0.448577
v -6.104178 -2.493855 0.467014
vn -0.043590 0.183640 3.902544
v -6.074712 -2.413854 0.533582
vn -1.541712 -2.222036 0.543391
v -6.034712 -2.595982 0.467014
vn -2.304205 -3.874030 2.535357
v -6.023034 -2.593858 0.507017
vn -0.647725 -2.795334 4.548879
v -6.014711 -2.570605 0.527019
vn 3.173779 -4.856271 0.232614
v -6.034713 -2.613856 0.767013
vn -0.551252 -1.630388 5.837229
v -5.994710 -2.553854 0.534483
vn -0.208027 -0.411092 3.953603
v -5.994710 -2.460195 0.546999
vn 4.938032 -2.999687 1.903879
v -6.066028 -2.633852 0.967015
vn 4.571237 -3.661075 0.195020
v -6.070170 -2.633854 0.867013
vn 5.106293 -1.889573 0.417371
v -6.054707 -2.633852 0.927014
vn 1.318380 -2.601823 -0.702638
v -6.074709 -2.638295 0.827013
vn 2.808606 -3.997454 0.342084
v -6.050719 -2.633851 0.847013
vn 3.978629 -1.080479 1.060812
v -6.033209 -2.613856 0.847012
vn 4.208518 -1.817253 3.975589
v -6.035360 -2.613855 0.849289
vn 5.199464 -2.137908 2.045253
v -6.052093 -2.613853 0.867013
vn 5.567472 1.960391 1.731054
v -6.050958 -2.593853 0.867013
vn -0.229919 -2.783564 -0.181580
v -5.974710 -2.605781 0.467013
vn -0.400184 -4.272038 2.016676
v -5.974710 -2.610490 0.507012
vn 1.276362 -2.862922 4.696200
v -5.908558 -2.573866 0.527046
vn 2.488883 -3.127197 2.253572
v -5.914712 -2.593851 0.515589
vn -0.045531 -0.632091 6.246961
v -5.854710 -2.473855 0.539879
vn -0.022914 -0.105927 3.091961
v -5.874710 -2.413853 0.542421
vn -0.049218 -2.707692 5.332739
v -5.894715 -2.398699 0.026989
vn -1.805469 -2.509279 4.371649
v -5.874708 -2.399678 0.027002
vn 0.417055 -0.471828 3.761796
v -5.754704 -2.473854 0.541458
vn -0.260354 -0.701875 6.214811
v -5.814710 -2.453854 0.544430
vn 0.463745 -0.229099 6.143435
v -5.774708 -2.433853 0.548076
vn 1.243243 -2.967338 0.745707
v -5.914710 -2.599496 0.487013
vn 2.012758 -2.997783 0.598786
v -5.794709 -2.541221 0.487014
vn 1.866361 -3.395544 2.834201
v -5.794712 -2.533848 0.527010
vn -2.932858 -1.345400 5.112645
v -5.834708 -2.453852 0.031171
vn -1.737997 -2.402221 4.699600
v -5.814709 -2.613853 0.031158
vn -0.120223 0.047257 3.601316
v -5.814711 -2.393852 0.545781
vn -4.688608 -2.665850 -2.627627
v -5.822310 -2.533855 0.087012
vn -4.727190 0.433885 -2.698927
v -5.814712 -2.513854 0.047012
vn -5.852588 -1.864872 -0.600049
v -5.811408 -2.553852 0.067014
vn -3.520429 0.829809 -2.556092
v -5.844498 -2.493852 0.067014
vn -4.729165 -2.783796 -0.085654
v -5.817653 -2.573853 0.107013
vn -0.548411 -3.931218 1.338773
v -5.794712 -2.585397 0.087012
vn -6.141493 -0.238908 1.076849
v -5.813710 -2.534085 0.045460
vn -2.767103 1.224484 -3.321356
v -5.834711 -2.493853 0.055573
vn -2.179529 -4.711242 1.374841
v -5.790128 -2.593852 0.067014
vn -1.795452 -2.930256 0.665527
v -5.814710 -2.578965 0.107013
vn 0.770877 0.175039 3.105870
v -5.774710 -2.313853 0.545740
vn 2.030666 1.014743 5.824833
v -5.734703 -2.273852 0.529702
vn 0.749165 -3.270220 5.174063
v -5.794709 -2.613854 0.030991
vn -4.344178 -1.175031 2.623781
v -5.814710 -2.593853 0.036934
vn -4.260931 1.506266 3.252245
v -5.814709 -2.513853 0.043872
vn -0.155900 -0.527183 5.590070
v -5.814712 -2.473853 0.042539
vn -4.866328 -1.783320 3.266295
v -5.808789 -2.573853 0.047012
vn -6.100594 -0.491386 1.251945
v -5.812734 -2.553853 0.047011
vn -2.718255 -1.917413 5.261891
v -5.814711 -2.453853 0.045840
vn 2.898868 -1.344968 2.381596
v -5.790775 -2.573853 0.107013
vn 4.715914 2.534090 2.720934
v -5.783109 -2.513853 0.047012
vn -0.168070 -0.488008 2.672281
v -5.834710 -2.533853 0.131355
vn 1.648262 0.092223 2.701318
v -5.814713 -2.553855 0.128776
vn -2.625821 -1.643594 1.580392
v -5.830820 -2.553849 0.127018
vn 3.280400 1.976358 4.381499
v -5.794708 -2.493852 0.029922
vn 0.631117 0.046673 3.879848
v -5.774705 -2.353852 0.543336
vn 1.836902 0.169948 5.643181
v -5.734709 -2.573855 0.012802
vn -0.623031 0.221214 6.244927
v -5.714713 -2.573855 0.013798
vn 2.272103 -1.899567 0.616449
v -5.766274 -2.593853 0.067013
vn 5.348719 -0.509010 2.534903
v -5.788354 -2.573853 0.087013
vn 3.887188 1.176310 1.102859
v -5.765460 -2.573853 0.067013
vn 4.881770 0.531232 2.561695
v -5.784270 -2.533853 0.047013
vn 5.050774 1.600202 3.089834
v -5.774711 -2.553853 0.047012
vn 0.435254 -0.048173 1.830674
v -5.694707 -2.453852 0.528529
vn 1.013886 0.272737 3.250079
v -5.694708 -2.353853 0.527021
vn 2.035509 2.455884 4.658654
v -5.714704 -2.273853 0.523856
vn 0.666751 0.103710 3.083230
v -5.694710 -2.393852 0.529530
vn 0.597711 0.177282 0.704788
v -5.674711 -2.262220 0.487013
vn -0.069372 0.025552 0.233745
v -5.709325 -2.693852 0.027008
vn -0.978990 0.336639 3.860486
v -5.714710 -2.613858 0.016665
vn -1.093428 0.101920 -0.441174
v -5.736872 -2.593842 0.107011
vn -1.961123 0.312017 -0.791296
v -5.714715 -2.593853 0.052093
vn -0.606761 -0.013664 -0.244801
v -5.714709 -2.673853 0.056543
vn -1.774668 1.104504 -0.716227
v -5.714623 -2.584041 0.066996
vn -0.167651 0.125104 1.878828
v -5.694709 -2.593859 0.016915
vn 0.817586 -1.041156 1.688506
v -5.734703 -2.453865 0.009712
vn 0.433211 -2.271936 5.024678
v -5.754710 -2.473851 0.007076
vn 1.037399 -1.544443 2.245388
v -5.774711 -2.473844 0.003319
# 345 vertices, 0 vertices normals


usemtl material_0
vt 0.924882 0.116455
vt 0.921867 0.114212
vt 0.916879 0.116455
f 142/1/142 86/2/86 143/3/143
vt 0.433915 0.153493
vt 0.427815 0.153790
vt 0.414468 0.163330
f 145/4/145 146/5/146 88/6/88
vt 0.409155 0.160045
vt 0.419740 0.144776
vt 0.399989 0.148583
f 108/7/108 149/8/149 110/9/110
vt 0.835672 0.073476
vt 0.833763 0.069056
vt 0.835063 0.073135
f 109/10/109 137/11/137 92/12/92
vt 0.252284 0.193764
vt 0.252010 0.206784
vt 0.258589 0.203664
f 93/13/93 125/14/125 126/15/126
vt 0.821045 0.284424
vt 0.827958 0.284424
vt 0.824832 0.283176
f 94/16/94 127/17/127 128/18/128
vt 0.858455 0.414480
vt 0.852903 0.422201
vt 0.853062 0.425049
f 95/19/95 129/20/129 134/21/134
vt 0.831879 0.229243
vt 0.827574 0.229326
vt 0.827182 0.229736
f 112/22/112 97/23/97 113/24/113
vt 0.637793 0.163452
vt 0.637451 0.167236
vt 0.638933 0.166413
f 98/25/98 132/26/132 115/27/115
vt 0.676514 0.069580
vt 0.676514 0.062495
vt 0.678268 0.066758
f 99/28/99 133/29/133 116/30/116
vt 0.667289 0.148639
vt 0.665403 0.152769
vt 0.668424 0.151624
f 117/31/117 118/32/118 100/33/100
vt 0.475690 0.425049
vt 0.477025 0.412131
vt 0.465974 0.422736
f 119/34/119 120/35/120 101/36/101
vt 0.458439 0.425049
vt 0.463781 0.422927
vt 0.457094 0.410068
f 139/37/139 140/38/140 89/39/89
vt 0.801502 0.037897
vt 0.801953 0.035117
vt 0.804277 0.038330
f 90/40/90 150/41/150 151/42/151
vt 0.266977 0.268957
vt 0.267046 0.265702
vt 0.263792 0.265635
f 156/43/156 157/44/157 106/45/106
vt 0.955162 0.593016
vt 0.942139 0.609295
vt 0.948650 0.606037
f 161/46/161 162/47/162 158/48/158
vt 0.249371 0.177423
f 125/14/125 93/13/93 85/49/85
vt 0.251052 0.252353
vt 0.277222 0.246384
vt 0.274310 0.230035
f 164/50/164 166/51/166 163/52/163
vt 0.271882 0.190915
vt 0.281371 0.204145
vt 0.284628 0.204215
f 165/53/165 170/54/170 168/55/168
vt 0.923024 0.112526
vt 0.929307 0.115212
f 171/56/171 142/1/142 172/57/172
f 171/56/171 86/2/86 142/1/142
vt 0.920120 0.111165
vt 0.916308 0.111048
f 143/3/143 173/58/173 174/59/174
f 143/3/143 86/2/86 173/58/173
f 86/2/86 171/56/171 173/58/173
vt 0.867334 0.275935
vt 0.873448 0.279881
vt 0.874673 0.273348
f 175/60/175 173/61/173 176/62/176
vt 0.869721 0.280518
f 175/60/175 174/63/174 173/61/173
vt 0.877743 0.276490
f 173/61/173 177/64/177 176/62/176
vt 0.883283 0.279884
vt 0.876607 0.280518
f 172/65/172 177/64/177 171/66/171
vt 0.890876 0.275940
f 172/65/172 178/67/178 177/64/177
f 177/64/177 173/61/173 171/66/171
vt 0.887564 0.275525
vt 0.881511 0.273865
f 177/64/177 179/68/179 180/69/180
vt 0.188232 0.003174
vt 0.201754 0.003174
vt 0.198529 0.002308
f 177/70/177 178/71/178 179/72/179
f 180/69/180 176/62/176 177/64/177
vt 0.632135 0.182278
vt 0.633530 0.185510
vt 0.634572 0.183987
f 178/73/178 181/74/181 179/75/179
vt 0.511391 0.364988
vt 0.520897 0.362639
vt 0.513572 0.359975
f 182/76/182 175/77/175 176/78/176
vt 0.517753 0.371732
f 182/76/182 183/79/183 175/77/175
vt 0.522329 0.371188
f 183/79/183 144/80/144 175/77/175
vt 0.523798 0.365444
f 144/80/144 87/81/87 175/77/175
vt 0.523973 0.374525
f 183/79/183 184/82/184 144/80/144
vt 0.516207 0.375734
f 183/79/183 185/83/185 184/82/184
vt 0.444225 0.143202
vt 0.431821 0.147322
vt 0.443839 0.149453
f 186/84/186 187/85/187 188/86/188
vt 0.435555 0.140449
f 186/84/186 189/87/189 187/85/187
vt 0.432478 0.141456
f 189/87/189 190/88/190 187/85/187
vt 0.446820 0.148185
f 188/86/188 191/89/191 186/84/186
vt 0.426264 0.150610
vt 0.434710 0.152757
f 187/85/187 192/90/192 193/91/193
f 193/91/193 188/86/188 187/85/187
vt 0.447882 0.146810
vt 0.446458 0.144427
f 191/89/191 194/92/194 195/93/195
f 195/93/195 186/84/186 191/89/191
vt 0.446559 0.140329
f 195/93/195 196/94/196 186/84/186
f 146/5/146 145/4/145 193/91/193
f 193/91/193 192/90/192 146/5/146
f 146/5/146 149/8/149 108/7/108
f 108/7/108 88/6/88 146/5/146
f 146/5/146 192/90/192 149/8/149
f 192/90/192 190/88/190 149/8/149
vt 0.429631 0.135653
f 190/88/190 197/95/197 149/8/149
f 192/90/192 187/85/187 190/88/190
vt 0.514896 0.385893
vt 0.520077 0.385013
f 185/83/185 198/96/198 199/97/199
f 199/97/199 184/82/184 185/83/185
vt 0.519726 0.386931
f 198/96/198 200/98/200 199/97/199
vt 0.621867 0.178592
vt 0.599816 0.182199
vt 0.625621 0.185535
f 148/99/148 201/100/201 202/101/202
vt 0.629552 0.180246
f 202/101/202 107/102/107 148/99/148
f 202/101/202 178/73/178 107/102/107
vt 0.632669 0.186768
f 202/101/202 203/103/203 178/73/178
f 203/103/203 181/74/181 178/73/178
vt 0.503437 0.359210
vt 0.500764 0.364905
vt 0.503978 0.365114
f 204/104/204 205/105/205 206/106/206
vt 0.507822 0.357067
f 206/106/206 180/107/180 204/104/204
f 180/107/180 206/106/206 182/76/182
f 182/76/182 176/78/176 180/107/180
vt 0.407280 0.126062
vt 0.394329 0.136668
f 207/108/207 208/109/208 110/9/110
f 110/9/110 149/8/149 207/108/207
f 149/8/149 197/95/197 207/108/207
vt 0.392567 0.132920
f 207/108/207 209/110/209 208/109/208
vt 0.447782 0.138823
f 210/111/210 196/94/196 195/93/195
vt 0.832560 0.065057
vt 0.831130 0.067961
f 137/11/137 211/112/211 124/113/124
vt 0.835198 0.066159
f 137/11/137 212/114/212 211/112/211
vt 0.366888 0.163330
vt 0.368709 0.128445
f 147/115/147 208/109/208 112/116/112
vt 0.360107 0.148942
f 112/116/112 213/117/213 147/115/147
f 208/109/208 209/110/209 112/116/112
vt 0.390631 0.124088
f 209/110/209 214/118/214 112/116/112
vt 0.621214 0.999268
vt 0.616775 0.997132
vt 0.598389 0.999268
f 112/119/112 113/120/113 213/121/213
vt 0.619011 0.175898
vt 0.603132 0.176074
f 148/99/148 147/122/147 213/123/213
f 213/123/213 201/100/201 148/99/148
vt 0.594618 0.177745
f 213/123/213 215/124/215 201/100/201
vt 0.592463 0.180290
f 215/124/215 216/125/216 201/100/201
vt 0.591633 0.179537
f 215/124/215 217/126/217 216/125/216
vt 0.500537 0.356453
vt 0.493261 0.356330
vt 0.496640 0.364569
f 203/127/203 202/128/202 218/129/218
f 218/129/218 204/104/204 203/127/203
f 218/129/218 205/105/205 204/104/204
vt 0.492421 0.365055
vt 0.488090 0.378529
vt 0.502507 0.378506
f 219/130/219 220/131/220 221/132/221
f 221/132/221 206/106/206 219/130/219
f 221/132/221 183/79/183 206/106/206
vt 0.512327 0.382182
f 221/132/221 222/133/222 183/79/183
f 183/79/183 182/76/182 206/106/206
vt 0.137329 0.003174
vt 0.134052 0.002530
vt 0.125732 0.003174
f 206/134/206 205/135/205 219/136/219
vt 0.129832 0.001501
f 205/135/205 218/137/218 219/136/219
f 222/133/222 198/96/198 185/83/185
vt 0.357958 0.112130
vt 0.356201 0.116455
vt 0.356201 0.104673
f 185/138/185 183/139/183 222/140/222
vt 0.512042 0.385484
f 222/133/222 223/141/223 198/96/198
vt 0.277980 0.210588
f 165/53/165 126/15/126 224/142/224
f 224/142/224 170/54/170 165/53/165
f 165/53/165 93/13/93 126/15/126
vt 0.514435 0.398725
f 221/132/221 225/143/225 223/141/223
vt 0.502251 0.412082
f 221/132/221 226/144/226 225/143/225
vt 0.508599 0.415691
f 226/144/226 227/145/227 225/143/225
vt 0.517620 0.392664
f 225/143/225 228/146/228 223/141/223
f 223/141/223 222/133/222 221/132/221
vt 0.523667 0.395277
vt 0.518697 0.392552
f 229/147/229 230/148/230 228/146/228
f 228/146/228 225/143/225 229/147/229
vt 0.467034 0.357394
vt 0.467972 0.365918
f 201/149/201 133/150/133 219/130/219
f 219/130/219 202/128/202 201/149/201
vt 0.459261 0.366002
f 201/149/201 231/151/231 133/150/133
f 219/130/219 218/129/218 202/128/202
vt 0.484987 0.405404
f 221/132/221 220/131/220 232/152/232
f 232/152/232 226/144/226 221/132/221
vt 0.495302 0.415096
f 232/152/232 233/153/233 226/144/226
vt 0.840726 0.072683
vt 0.839418 0.068597
f 109/10/109 111/154/111 234/155/234
f 234/155/234 137/11/137 109/10/109
f 234/155/234 212/114/212 137/11/137
vt 0.842388 0.069900
f 111/154/111 235/156/235 234/155/234
vt 0.829186 0.409594
vt 0.822876 0.410213
vt 0.824132 0.415828
f 238/157/238 237/158/237 239/159/239
vt 0.832227 0.411570
f 239/159/239 240/160/240 238/157/238
vt 0.820974 0.414116
f 237/158/237 241/161/241 239/159/239
vt 0.871579 0.296583
vt 0.869166 0.296730
vt 0.868491 0.300049
f 237/162/237 242/163/242 241/164/241
vt 0.823180 0.419768
vt 0.836523 0.420645
f 240/160/240 244/165/244 245/166/245
f 240/160/240 239/159/239 244/165/244
vt 0.845758 0.412789
f 245/166/245 246/167/246 240/160/240
f 129/20/129 246/167/246 245/166/245
f 129/20/129 95/19/95 246/167/246
vt 0.824863 0.222547
vt 0.814827 0.223856
f 113/24/113 247/168/247 215/169/215
vt 0.809326 0.229736
f 215/169/215 213/170/213 113/24/113
f 113/24/113 97/23/97 247/168/247
vt 0.466623 0.396194
f 220/131/220 248/171/248 232/152/232
vt 0.465432 0.372525
f 220/131/220 99/172/99 248/171/248
f 220/131/220 133/150/133 99/172/99
f 220/131/220 219/130/219 133/150/133
vt 0.457178 0.379738
f 99/172/99 249/173/249 248/171/248
f 248/171/248 120/35/120 232/152/232
f 248/171/248 89/39/89 120/35/120
f 89/39/89 101/36/101 120/35/120
vt 0.457541 0.406677
f 248/171/248 250/174/250 89/39/89
f 89/39/89 140/38/140 101/36/101
vt 0.461791 0.372882
f 99/172/99 121/175/121 249/173/249
f 227/145/227 226/144/226 233/153/233
vt 0.496742 0.424794
f 233/153/233 251/176/251 227/145/227
f 207/108/207 214/118/214 209/110/209
vt 0.395714 0.116061
f 207/108/207 252/177/252 214/118/214
vt 0.651407 0.145838
vt 0.645854 0.156867
vt 0.662304 0.153942
f 207/178/207 253/179/253 252/180/252
vt 0.390200 0.120010
f 252/177/252 117/181/117 214/118/214
f 252/180/252 118/32/118 117/31/117
f 233/153/233 120/35/120 119/34/119
f 119/34/119 251/176/251 233/153/233
f 233/153/233 232/152/232 120/35/120
vt 0.822170 0.220598
vt 0.817145 0.221257
f 247/168/247 254/182/254 217/183/217
f 217/183/217 215/169/215 247/168/247
vt 0.586670 0.183340
vt 0.590021 0.186768
f 216/125/216 255/184/255 231/185/231
f 231/185/231 201/100/201 216/125/216
vt 0.833438 0.222397
vt 0.829275 0.222373
f 112/22/112 256/186/256 257/187/257
vt 0.838402 0.226629
f 112/22/112 258/188/258 256/186/256
f 257/187/257 97/23/97 112/22/112
f 257/187/257 247/168/247 97/23/97
vt 0.825823 0.219735
f 257/187/257 259/189/259 247/168/247
f 259/189/259 254/182/254 247/168/247
f 224/142/224 126/15/126 125/14/125
vt 0.277912 0.213840
f 163/52/163 260/190/260 224/142/224
vt 0.284282 0.220486
f 163/52/163 261/191/261 260/190/260
vt 0.284991 0.227012
f 163/52/163 262/192/262 261/191/261
vt 0.863893 0.300040
f 263/193/263 241/164/241 242/163/242
vt 0.864994 0.293441
f 242/163/242 264/194/264 263/193/263
vt 0.828211 0.424306
f 245/166/245 265/195/265 134/21/134
f 134/21/134 129/20/129 245/166/245
f 245/166/245 244/165/244 265/195/265
vt 0.587454 0.179893
f 216/125/216 217/126/217 254/196/254
f 254/196/254 255/184/255 216/125/216
vt 0.930420 0.280124
vt 0.933399 0.278926
vt 0.931335 0.277166
f 254/197/254 259/198/259 255/199/255
vt 0.845439 0.292771
vt 0.844306 0.299454
f 263/193/263 266/200/266 267/201/267
f 263/193/263 264/194/264 266/200/266
vt 0.816823 0.415991
vt 0.800882 0.425049
f 263/202/263 268/203/268 244/165/244
vt 0.797607 0.421419
f 263/202/263 267/204/267 268/203/268
f 244/165/244 241/161/241 263/202/263
f 244/165/244 239/159/239 241/161/241
vt 0.664516 0.160316
f 269/205/269 252/180/252 253/179/253
f 253/179/253 115/27/115 269/205/269
f 253/179/253 98/25/98 115/27/115
vt 0.966200 0.444740
vt 0.962298 0.446188
vt 0.956554 0.460439
f 268/206/268 270/207/270 271/208/271
vt 0.970778 0.467211
f 271/208/271 244/209/244 268/206/268
vt 0.965234 0.471924
f 271/208/271 265/210/265 244/209/244
vt 0.935111 0.272833
vt 0.942042 0.275193
vt 0.943077 0.270761
f 122/211/122 272/212/272 102/213/102
vt 0.937483 0.280518
f 122/211/122 257/214/257 272/212/272
vt 0.941508 0.278665
f 257/214/257 256/215/256 272/212/272
vt 0.931782 0.272611
vt 0.938481 0.270513
f 231/216/231 122/211/122 121/217/121
f 231/216/231 255/199/255 122/211/122
f 255/199/255 259/198/259 122/211/122
f 259/198/259 257/214/257 122/211/122
vt 0.947771 0.280165
vt 0.957585 0.278391
vt 0.948797 0.275441
f 258/218/258 273/219/273 274/220/274
vt 0.963644 0.280518
f 258/218/258 275/221/275 273/219/273
vt 0.671517 0.150245
vt 0.675905 0.152891
vt 0.677851 0.148885
f 275/222/275 276/223/276 273/224/273
f 258/218/258 274/220/274 272/212/272
f 272/212/272 256/215/256 258/218/258
vt 0.668146 0.161690
vt 0.676798 0.156170
f 100/33/100 250/225/250 277/226/277
f 100/33/100 269/205/269 250/225/250
f 277/226/277 276/223/276 100/33/100
f 276/223/276 275/222/275 100/33/100
vt 0.665462 0.163749
f 269/205/269 89/227/89 250/225/250
vt 0.455344 0.396473
vt 0.455505 0.396026
vt 0.453857 0.395307
f 277/228/277 278/229/278 276/230/276
vt 0.453930 0.382689
vt 0.456760 0.392544
vt 0.459526 0.393002
f 274/231/274 279/232/279 280/233/280
vt 0.958509 0.274172
f 274/220/274 273/219/273 279/234/279
vt 0.961535 0.277419
vt 0.961988 0.273351
f 279/234/279 276/235/276 278/236/278
f 279/234/279 273/219/273 276/235/276
f 280/233/280 248/171/248 249/173/249
f 249/173/249 274/231/274 280/233/280
f 280/233/280 277/228/277 248/171/248
f 277/228/277 250/174/250 248/171/248
vt 0.454695 0.375976
f 249/173/249 272/237/272 274/231/274
vt 0.945590 0.272522
f 249/238/249 102/213/102 272/212/272
vt 0.945410 0.272040
f 249/238/249 136/239/136 102/213/102
vt 0.649471 0.167236
f 269/205/269 139/240/139 89/227/89
f 269/205/269 115/27/115 139/240/139
vt 0.451570 0.232204
vt 0.449951 0.233643
vt 0.449951 0.221617
f 115/241/115 132/242/132 139/243/139
vt 0.837149 0.293723
vt 0.836670 0.300049
f 267/201/267 281/244/281 282/245/282
f 267/201/267 266/200/266 281/244/281
vt 0.962430 0.435886
vt 0.950637 0.437768
f 282/246/282 283/247/283 270/207/270
vt 0.952613 0.434899
f 282/246/282 284/248/284 283/247/283
vt 0.968548 0.441318
f 270/207/270 267/249/267 282/246/282
f 270/207/270 268/206/268 267/249/267
vt 0.936493 0.449682
vt 0.935684 0.459907
f 271/208/271 285/250/285 286/251/286
f 271/208/271 270/207/270 285/250/285
vt 0.286266 0.243318
f 163/52/163 166/51/166 287/252/287
f 287/252/287 262/192/262 163/52/163
vt 0.286038 0.246571
f 166/51/166 288/253/288 287/252/287
vt 0.921665 0.443608
f 283/247/283 289/254/289 285/250/285
f 285/250/285 270/207/270 283/247/283
vt 0.929359 0.450325
f 289/254/289 290/255/290 285/250/285
vt 0.922207 0.450946
f 289/254/289 291/256/291 290/255/290
vt 0.849187 0.347802
vt 0.848573 0.352499
vt 0.858476 0.351991
f 292/257/292 284/258/284 282/259/282
vt 0.858345 0.345765
f 282/259/282 281/260/281 292/257/292
vt 0.827519 0.346783
vt 0.826701 0.353342
vt 0.846058 0.354736
f 293/261/293 294/262/294 283/263/283
f 283/263/283 292/257/292 293/261/293
f 283/263/283 284/258/284 292/257/292
vt 0.931168 0.436775
f 289/254/289 283/247/283 294/264/294
vt 0.277086 0.252894
vt 0.250982 0.255599
f 295/265/295 164/50/164 296/266/296
f 295/265/295 166/51/166 164/50/164
f 295/265/295 288/253/288 166/51/166
vt 0.925555 0.459300
f 286/251/286 290/255/290 297/267/297
f 286/251/286 285/250/285 290/255/290
vt 0.806537 0.030794
vt 0.804485 0.037749
vt 0.810432 0.033817
f 298/268/298 299/269/299 300/270/300
vt 0.799342 0.034368
f 298/268/298 301/271/301 299/269/299
vt 0.812573 0.026888
f 300/270/300 302/272/302 298/268/298
vt 0.816009 0.030306
f 300/270/300 303/273/303 302/272/302
vt 0.807569 0.037620
f 299/269/299 304/274/304 300/270/300
vt 0.800107 0.036389
f 301/271/301 305/275/305 299/269/299
vt 0.817773 0.033435
f 300/270/300 306/276/306 303/273/303
vt 0.813526 0.026843
f 303/273/303 307/277/307 302/272/302
vt 0.746826 0.108643
vt 0.755932 0.106124
vt 0.759345 0.093171
f 308/278/308 309/279/309 135/280/135
vt 0.757054 0.084091
f 135/280/135 123/281/123 308/278/308
vt 0.247659 0.258790
vt 0.250913 0.258854
f 296/266/296 167/282/167 310/283/310
vt 0.254237 0.255669
f 310/283/310 311/284/311 296/266/296
vt 0.898069 0.206299
vt 0.881922 0.203419
vt 0.871826 0.206299
f 296/285/296 312/286/312 295/287/295
vt 0.819488 0.038330
vt 0.816460 0.037796
vt 0.804518 0.038253
f 296/288/296 311/289/311 312/290/312
vt 0.875454 0.202951
f 312/286/312 313/291/313 295/287/295
vt 0.941048 0.409424
vt 0.937448 0.408301
vt 0.934326 0.409424
f 311/292/311 314/293/314 315/294/315
vt 0.872226 0.202294
f 313/291/313 316/295/316 295/287/295
vt 0.732624 0.204647
vt 0.723500 0.215057
vt 0.727992 0.218640
f 317/296/317 318/297/318 150/298/150
vt 0.739658 0.212370
f 150/298/150 319/299/319 317/296/317
vt 0.737549 0.208295
f 319/299/319 320/300/320 317/296/317
vt 0.724553 0.217283
f 318/297/318 151/301/151 150/298/150
vt 0.723558 0.366455
vt 0.723389 0.363489
vt 0.725830 0.362604
f 319/302/319 321/303/321 320/304/320
f 299/269/299 90/40/90 151/42/151
f 299/269/299 305/275/305 90/40/90
vt 0.813779 0.036684
f 306/276/306 300/270/300 314/305/314
vt 0.818346 0.036470
f 314/305/314 152/306/152 306/276/306
vt 0.810551 0.037002
f 300/270/300 304/274/304 315/307/315
f 315/307/315 314/305/314 300/270/300
vt 0.667505 0.407546
vt 0.670650 0.409424
vt 0.671989 0.408591
f 312/308/312 151/309/151 322/310/322
f 312/308/312 299/308/299 151/309/151
vt 0.926904 0.226478
vt 0.925068 0.222528
vt 0.922553 0.223646
f 313/311/313 322/312/322 154/313/154
vt 0.929520 0.223220
f 313/311/313 312/314/312 322/312/322
vt 0.917014 0.462761
f 291/256/291 323/315/323 297/267/297
f 297/267/297 290/255/290 291/256/291
vt 0.250704 0.268616
vt 0.257355 0.262247
f 159/316/159 153/317/153 310/283/310
vt 0.257213 0.268752
f 159/316/159 324/318/324 153/317/153
f 310/283/310 167/282/167 159/316/159
vt 0.257145 0.272006
f 159/316/159 325/319/325 324/318/324
vt 0.729862 0.205194
vt 0.725349 0.201598
vt 0.725000 0.204479
f 327/320/327 326/321/326 328/322/328
vt 0.633545 0.056188
vt 0.635647 0.056618
vt 0.633545 0.061768
f 327/323/327 303/324/303 326/325/326
vt 0.723884 0.212197
f 327/320/327 329/326/329 318/297/318
f 318/297/318 317/296/317 327/320/327
vt 0.634288 0.053501
f 317/327/317 303/324/303 327/323/327
vt 0.723169 0.208677
f 327/320/327 328/322/328 330/328/330
f 330/328/330 329/326/329 327/320/327
vt 0.821923 0.353402
f 293/261/293 91/329/91 294/262/294
vt 0.823411 0.343652
f 293/261/293 141/330/141 91/329/91
vt 0.724064 0.202714
f 104/331/104 328/322/328 326/321/326
vt 0.723435 0.205746
f 104/331/104 153/332/153 328/322/328
f 153/332/153 330/328/330 328/322/328
vt 0.717572 0.211284
f 153/332/153 106/333/106 330/328/330
f 153/317/153 324/318/324 106/45/106
f 324/318/324 156/43/156 106/45/106
vt 0.904825 0.457493
vt 0.902633 0.470566
vt 0.914507 0.468779
f 332/334/332 333/335/333 308/336/308
f 308/336/308 323/315/323 332/334/332
vt 0.907424 0.451589
f 323/315/323 334/337/334 332/334/332
f 323/315/323 291/256/291 334/337/334
vt 0.911234 0.442623
f 291/256/291 289/254/289 331/338/331
vt 0.905713 0.471924
f 333/335/333 309/339/309 308/336/308
vt 0.758911 0.107706
vt 0.769139 0.108643
f 309/279/309 333/340/333 103/341/103
f 103/341/103 135/280/135 309/279/309
vt 0.237602 0.272473
vt 0.250636 0.271870
f 159/316/159 336/342/336 337/343/337
f 337/343/337 325/319/325 159/316/159
vt 0.908928 0.494905
vt 0.908484 0.486016
vt 0.921495 0.485741
f 338/344/338 339/345/339 340/346/340
vt 0.907081 0.488557
f 338/344/338 341/347/341 339/345/339
vt 0.253821 0.275193
f 156/43/156 325/319/325 342/348/342
f 156/43/156 324/318/324 325/319/325
vt 0.276738 0.269165
vt 0.273554 0.265840
f 343/349/343 344/350/344 156/43/156
f 344/350/344 157/44/157 156/43/156
vt 0.273624 0.262585
f 344/350/344 345/351/345 157/44/157
f 325/319/325 337/343/337 342/348/342
vt 0.895264 0.469000
f 335/352/335 333/335/333 332/334/332
f 311/289/311 315/307/315 304/274/304
f 311/289/311 304/274/304 312/290/312
f 279/232/279 278/229/278 280/233/280
f 278/229/278 277/228/277 280/233/280
vt 0.909966 0.445607
f 291/256/291 331/338/331 138/353/138
f 291/256/291 138/353/138 334/337/334
f 200/98/200 229/147/229 199/97/199
f 230/148/230 229/147/229 200/98/200
f 100/33/100 118/32/118 269/205/269
f 118/32/118 252/180/252 269/205/269
f 196/94/196 189/87/189 186/84/186
f 210/111/210 189/87/189 196/94/196
vt 0.956788 0.606037
f 160/354/160 161/46/161 158/48/158
vt 0.841194 0.065990
f 235/156/235 83/355/83 234/155/234
vt 0.971467 0.791254
vt 0.946920 0.792491
vt 0.964967 0.801624
f 82/356/82 81/357/81 80/358/80
vt 0.726667 0.219883
vt 0.728787 0.221472
f 150/298/150 90/359/90 79/360/79
vt 0.783880 0.787481
vt 0.790796 0.785335
vt 0.787678 0.784668
f 78/361/78 77/362/77 76/363/76
vt 0.771654 0.795436
vt 0.782801 0.795878
f 75/364/75 74/365/74 78/361/78
vt 0.778480 0.799155
f 75/364/75 73/366/73 74/365/74
vt 0.865390 0.813709
vt 0.862220 0.813124
vt 0.861280 0.819416
f 71/367/71 70/368/70 69/369/69
vt 0.936101 0.808060
vt 0.939429 0.801861
vt 0.932547 0.793512
f 168/370/168 67/371/67 68/372/68
vt 0.935824 0.792737
f 67/371/67 66/373/66 68/372/68
vt 0.916120 0.798441
vt 0.912851 0.799022
vt 0.909814 0.806639
f 70/374/70 71/375/71 169/376/169
vt 0.846533 0.809946
vt 0.848326 0.819913
vt 0.856476 0.824914
f 68/377/68 65/378/65 64/379/64
f 64/379/64 70/368/70 68/377/68
f 64/379/64 69/369/69 70/368/70
vt 0.940660 0.182811
vt 0.942357 0.186697
vt 0.949095 0.187611
f 65/380/65 63/381/63 64/382/64
vt 0.902825 0.398279
vt 0.898633 0.402315
vt 0.901628 0.402787
f 62/383/62 61/384/61 161/385/161
vt 0.899056 0.397781
f 62/383/62 60/386/60 61/384/61
vt 0.938232 0.188331
vt 0.940199 0.190069
f 63/381/63 236/387/236 111/388/111
vt 0.906054 0.392563
vt 0.903062 0.394986
f 124/389/124 58/390/58 62/383/62
vt 0.902998 0.392092
f 124/389/124 211/391/211 58/390/58
vt 0.845167 0.819314
vt 0.844069 0.825852
vt 0.847852 0.823065
f 57/392/57 83/393/83 59/394/59
vt 0.840072 0.829129
f 57/392/57 56/395/56 83/393/83
vt 0.846391 0.831107
f 56/395/56 212/396/212 83/393/83
vt 0.847179 0.827009
f 212/396/212 234/397/234 83/393/83
f 59/394/59 65/378/65 57/392/57
vt 0.851039 0.823620
f 59/394/59 63/398/63 65/378/65
vt 0.843378 0.809337
vt 0.825732 0.818866
f 66/399/66 55/400/55 57/392/57
vt 0.820293 0.811467
f 66/399/66 54/401/54 55/400/55
f 57/392/57 68/377/68 66/399/66
f 57/392/57 65/378/65 68/377/68
vt 0.819377 0.817720
f 54/401/54 53/402/53 55/400/55
vt 0.894342 0.385733
vt 0.875994 0.380129
vt 0.879027 0.395297
f 52/403/52 51/404/51 50/405/50
f 50/405/50 60/386/60 52/403/52
f 60/386/60 58/390/58 52/403/52
f 60/386/60 62/383/62 58/390/58
vt 0.903076 0.239768
vt 0.905656 0.241739
vt 0.915322 0.245361
f 161/406/161 61/407/61 49/408/49
vt 0.923318 0.234937
f 49/408/49 162/409/162 161/406/161
vt 0.818834 0.827993
vt 0.837038 0.828179
f 55/400/55 51/410/51 52/411/52
f 52/411/52 57/392/57 55/400/55
vt 0.804117 0.830491
f 55/400/55 48/412/48 51/410/51
vt 0.802157 0.841131
f 48/412/48 47/413/47 51/410/51
f 52/411/52 56/395/56 57/392/57
vt 0.888274 0.400734
vt 0.862200 0.402615
f 49/414/49 50/405/50 46/415/46
f 49/414/49 60/386/60 50/405/50
f 49/414/49 61/384/61 60/386/60
vt 0.943052 0.811741
vt 0.946292 0.811768
f 224/416/224 260/417/260 67/371/67
f 67/371/67 168/370/168 224/416/224
vt 0.936280 0.811140
f 168/370/168 170/418/170 224/416/224
vt 0.974516 0.782294
vt 0.958327 0.782873
f 82/356/82 43/419/43 54/420/54
f 54/420/54 81/357/81 82/356/82
f 54/420/54 66/373/66 81/357/81
f 66/373/66 67/371/67 81/357/81
vt 0.945791 0.801720
f 67/371/67 42/421/42 81/357/81
vt 0.981310 0.792098
f 82/356/82 41/422/41 43/419/43
vt 0.798518 0.801520
vt 0.794910 0.804431
vt 0.804142 0.809434
f 41/423/41 40/424/40 43/425/43
vt 0.795431 0.800217
f 41/423/41 39/426/39 40/424/40
vt 0.952333 0.807676
f 260/417/260 261/427/261 42/421/42
f 42/421/42 67/371/67 260/417/260
f 81/357/81 261/427/261 80/358/80
f 81/357/81 42/421/42 261/427/261
vt 0.958732 0.807844
f 261/427/261 262/428/262 80/358/80
vt 0.974856 0.806383
f 262/428/262 287/429/287 80/358/80
vt 0.809267 0.819319
f 55/400/55 53/402/53 36/430/36
f 36/430/36 48/412/48 55/400/55
vt 0.857076 0.388460
f 50/405/50 47/431/47 46/415/46
f 50/405/50 51/404/51 47/431/47
vt 0.856201 0.392612
f 47/431/47 35/432/35 46/415/46
f 54/401/54 43/425/43 36/430/36
f 36/430/36 53/402/53 54/401/54
vt 0.793108 0.816885
f 43/425/43 34/433/34 36/430/36
vt 0.793700 0.813016
f 43/425/43 33/434/33 34/433/34
vt 0.978080 0.805086
f 31/435/31 41/422/41 82/356/82
f 82/356/82 80/358/80 31/435/31
f 80/358/80 287/429/287 31/435/31
vt 0.978114 0.806418
f 287/429/287 288/436/288 31/435/31
vt 0.792076 0.823323
f 48/412/48 34/433/34 29/437/29
f 48/412/48 36/430/36 34/433/34
vt 0.797464 0.830804
f 29/437/29 28/438/28 48/412/48
vt 0.791730 0.816705
f 34/433/34 27/439/27 29/437/29
vt 0.793637 0.833662
vt 0.795597 0.840966
f 23/440/23 22/441/22 47/413/47
f 47/413/47 48/412/48 23/440/23
f 48/412/48 28/438/28 23/440/23
vt 0.785578 0.799997
f 40/424/40 20/442/20 33/434/33
f 33/434/33 43/425/43 40/424/40
vt 0.800715 0.027218
vt 0.798007 0.023929
vt 0.797636 0.027579
f 19/443/19 15/444/15 17/445/17
vt 0.800949 0.023136
f 19/443/19 16/446/16 15/444/15
vt 0.797607 0.031632
f 17/445/17 15/444/15 14/447/14
f 14/447/14 301/271/301 17/445/17
f 14/447/14 305/275/305 301/271/301
vt 0.985214 0.811768
vt 0.988097 0.798394
f 295/448/295 13/449/13 31/435/31
vt 0.988519 0.809576
f 295/448/295 12/450/12 13/449/13
f 31/435/31 288/436/288 295/448/295
vt 0.797020 0.786688
vt 0.793950 0.785946
vt 0.793909 0.786256
f 295/451/295 316/452/316 12/453/12
vt 0.792830 0.794920
f 13/454/13 39/426/39 41/423/41
f 41/422/41 31/435/31 13/449/13
vt 0.777876 0.828201
f 29/437/29 11/455/11 23/440/23
f 23/440/23 28/438/28 29/437/29
vt 0.791838 0.843018
f 21/456/21 23/440/23 11/455/11
vt 0.769968 0.834321
f 11/455/11 10/457/10 21/456/21
vt 0.771249 0.827480
f 11/455/11 9/458/9 10/457/10
f 21/456/21 22/441/22 23/440/23
vt 0.733359 0.221924
vt 0.741116 0.219482
f 319/299/319 14/459/14 15/460/15
f 319/299/319 150/298/150 14/459/14
vt 0.741695 0.216464
f 15/460/15 16/461/16 319/299/319
f 150/298/150 79/360/79 14/459/14
vt 0.723389 0.358431
f 320/304/320 321/303/321 302/462/302
vt 0.723707 0.357651
f 302/462/302 307/463/307 320/304/320
vt 0.799050 0.035231
f 305/275/305 14/447/14 79/464/79
f 79/464/79 90/40/90 305/275/305
f 13/454/13 78/361/78 74/365/74
f 13/454/13 12/453/12 78/361/78
f 12/453/12 77/362/77 78/361/78
f 74/365/74 20/442/20 13/454/13
f 20/442/20 39/426/39 13/454/13
f 20/442/20 40/424/40 39/426/39
vt 0.793355 0.785829
f 12/453/12 6/465/6 77/362/77
vt 0.770516 0.811034
f 20/442/20 5/466/5 27/439/27
f 27/439/27 33/434/33 20/442/20
f 20/442/20 73/366/73 5/466/5
f 20/442/20 74/365/74 73/366/73
f 27/439/27 34/433/34 33/434/33
f 5/466/5 9/458/9 11/455/11
f 11/455/11 27/439/27 5/466/5
f 11/455/11 29/437/29 27/439/27
vt 0.770018 0.814224
f 5/466/5 4/467/4 9/458/9
vt 0.664795 0.409424
f 312/308/312 304/468/304 299/308/299
vt 0.925101 0.228708
f 6/469/6 313/311/313 154/313/154
vt 0.920442 0.223753
f 154/313/154 105/470/105 6/469/6
vt 0.925647 0.228646
f 6/469/6 316/471/316 313/311/313
f 6/465/6 12/453/12 316/452/316
vt 0.917531 0.220109
vt 0.919900 0.229736
f 105/470/105 344/472/344 76/473/76
vt 0.922750 0.228942
f 76/473/76 77/474/77 105/470/105
f 77/474/77 6/469/6 105/470/105
vt 0.920807 0.220709
f 105/470/105 155/475/155 344/472/344
vt 0.920456 0.220118
f 155/475/155 345/476/345 344/472/344
vt 0.715576 0.214695
vt 0.722276 0.219298
f 157/477/157 322/478/322 318/297/318
vt 0.716616 0.221924
f 157/477/157 345/479/345 322/478/322
f 318/297/318 106/333/106 157/477/157
f 318/297/318 329/326/329 106/333/106
f 329/326/329 330/328/330 106/333/106
f 322/478/322 151/301/151 318/297/318
vt 0.913291 0.221667
vt 0.915514 0.229736
f 344/472/344 343/480/343 78/481/78
f 78/481/78 76/473/76 344/472/344
vt 0.763601 0.801028
f 73/366/73 75/364/75 3/482/3
f 3/482/3 5/466/5 73/366/73
f 3/482/3 4/467/4 5/466/5
vt 0.756273 0.833587
vt 0.768245 0.830640
f 4/467/4 2/483/2 8/484/8
f 4/467/4 3/482/3 2/483/2
f 8/484/8 9/458/9 4/467/4
vt 0.753480 0.830015
f 1/485/1 2/483/2 3/482/3
vt 0.897129 0.386861
f 52/403/52 58/390/58 56/486/56
f 56/486/56 58/390/58 211/391/211
vt 0.902934 0.389212
f 56/486/56 211/391/211 212/487/212
f 345/476/345 155/475/155 322/312/322
f 155/475/155 154/313/154 322/312/322
vt 0.931651 0.245361
f 162/409/162 49/408/49 72/488/72
vt 0.875237 0.401675
vt 0.872644 0.405518
f 84/489/84 72/490/72 49/414/49

usemtl material_1
vt 0.926206 0.971924
vt 0.922452 0.969314
vt 0.914795 0.971924
f 147/491/147 148/492/148 107/493/107
vt 0.602295 0.913330
vt 0.609786 0.913330
vt 0.605530 0.910401
f 130/494/130 131/495/131 96/496/96
vt 0.008781 0.560079
vt 0.006862 0.557884
vt 0.003581 0.559173
f 128/497/128 127/498/127 114/499/114
vt 0.854748 0.961492
vt 0.846517 0.960538
vt 0.853529 0.964111
f 136/500/136 121/501/121 102/502/102
vt 0.844482 0.964111
f 122/503/122 102/502/102 121/501/121
vt 0.116281 0.917860
vt 0.116915 0.921143
vt 0.116062 0.917668
f 104/504/104 152/505/152 153/506/153
vt 0.609525 0.975830
vt 0.609141 0.973746
vt 0.606201 0.975830
f 105/507/105 154/508/154 155/509/155
vt 0.356201 0.944580
vt 0.362501 0.944580
vt 0.359217 0.941061
f 180/510/180 179/511/179 204/512/204
vt 0.024992 0.425049
vt 0.017336 0.420866
vt 0.016357 0.425049
f 231/513/231 116/514/116 133/515/133
vt 0.561692 0.913330
vt 0.558444 0.912248
vt 0.558429 0.913330
f 111/516/111 236/517/236 235/518/235
vt 0.011437 0.562971
vt 0.006023 0.561857
f 94/519/94 128/497/128 96/520/96
vt 0.009468 0.565674
f 96/520/96 131/521/131 94/519/94
f 128/497/128 114/499/114 96/520/96
vt 0.002507 0.559558
f 114/499/114 237/522/237 96/520/96
vt 0.000732 0.565674
f 237/522/237 238/523/238 96/520/96
vt 0.321045 0.987549
vt 0.325699 0.987549
vt 0.324620 0.986492
f 240/524/240 243/525/243 238/526/238
vt 0.854517 0.960693
f 121/501/121 136/500/136 249/527/249
vt 0.254314 0.918693
vt 0.257307 0.921143
vt 0.257570 0.919730
f 130/528/130 238/529/238 243/530/243
vt 0.250732 0.921143
f 130/528/130 96/531/96 238/529/238
vt 0.022596 0.418149
f 121/532/121 116/514/116 231/513/231
vt 0.018967 0.418462
f 121/532/121 99/533/99 116/514/116
vt 0.206757 0.926438
vt 0.203857 0.928955
vt 0.211134 0.928955
f 296/534/296 164/535/164 167/536/167
vt 0.080093 0.916119
vt 0.076448 0.916789
vt 0.078217 0.919672
f 314/537/314 311/538/311 152/539/152
vt 0.074951 0.921143
f 311/538/311 310/540/310 152/539/152
vt 0.138144 0.909903
vt 0.136113 0.913330
vt 0.142253 0.913330
f 307/541/307 317/542/317 320/543/320
vt 0.133545 0.910624
f 307/541/307 303/544/303 317/542/317
vt 0.082416 0.921143
f 153/545/153 152/539/152 310/540/310
vt 0.113573 0.920416
vt 0.113550 0.916540
vt 0.110107 0.921143
f 306/546/306 326/547/326 303/548/303
f 306/546/306 104/504/104 326/547/326
f 306/546/306 152/505/152 104/504/104
vt 0.362714 0.942963
f 179/511/179 181/549/181 204/512/204
vt 0.362890 0.941626
f 181/549/181 203/550/203 204/512/204
vt 0.561861 0.909636
vt 0.558588 0.909668
f 63/551/63 59/552/59 236/517/236
f 235/518/235 236/517/236 59/552/59
vt 0.555420 0.912569
f 59/552/59 83/553/83 235/518/235
vt 0.981297 0.992797
vt 0.977295 0.999268
vt 0.985414 0.999268
f 19/554/19 301/555/301 298/556/298
vt 0.989313 0.996947
f 298/556/298 18/557/18 19/554/19
vt 0.978503 0.992130
f 19/554/19 17/558/17 301/555/301
vt 0.987377 0.992079
f 19/554/19 18/557/18 319/559/319
vt 0.983476 0.989701
f 319/559/319 16/560/16 19/554/19
vt 0.990046 0.993527
f 18/557/18 321/561/321 319/559/319
vt 0.992352 0.997898
f 302/562/302 321/561/321 18/557/18
f 18/557/18 298/556/298 302/562/302

usemtl material_2
vt 0.965238 0.389348
vt 0.961205 0.381145
vt 0.964700 0.378354
f 46/563/46 72/564/72 84/565/84
vt 0.961921 0.397007
vt 0.958246 0.394930
f 46/563/46 45/566/45 44/567/44
vt 0.753342 0.413851
vt 0.746826 0.425583
vt 0.752880 0.440674
f 162/568/162 72/569/72 44/570/44
vt 0.959684 0.397810
vt 0.955562 0.395591
f 44/567/44 37/571/37 38/572/38
vt 0.973060 0.392872
f 46/563/46 30/573/30 45/566/45
vt 0.975555 0.391984
f 46/563/46 35/574/35 30/573/30
vt 0.970128 0.400701
vt 0.961058 0.404294
f 45/566/45 26/575/26 25/576/25
f 45/566/45 30/573/30 26/575/26
vt 0.973490 0.399452
f 30/573/30 24/577/24 26/575/26
f 25/576/25 37/571/37 45/566/45
f 37/571/37 44/567/44 45/566/45
vt 0.955896 0.402496
f 37/571/37 25/576/25 32/578/32
f 32/578/32 38/572/38 37/571/37
vt 0.981200 0.396806
f 22/579/22 24/577/24 35/574/35
vt 0.978499 0.401163
f 22/579/22 21/580/21 24/577/24
f 24/577/24 30/573/30 35/574/35
vt 0.979569 0.390635
f 35/574/35 47/581/47 22/579/22
vt 0.978279 0.422665
vt 0.985768 0.423529
f 7/582/7 21/580/21 10/583/10
f 7/582/7 26/575/26 21/580/21
f 26/575/26 24/577/24 21/580/21
f 46/563/46 44/567/44 72/564/72
# 550 faces, 583 coords texture

# End of File
